AWSTATS DATA FILE 7.6 (build 20161204)
# If you remove this file, all statistics for date 201803 will be lost/reset.
# Last config file used to build this data file was /virtual/chiyuki/public_html/log/awstats/cgi-bin/awstats.chiyuki-murakata.com.conf.

# Position (offset in bytes) in this file for beginning of each section for
# direct I/O access. If you made changes somewhere in this file, you should
# also remove completely the MAP section (AWStats will rewrite it at next
# update).
BEGIN_MAP 30
POS_GENERAL 2109                
POS_TIME 2768                
POS_VISITOR 9593                
POS_DAY 16034               
POS_DOMAIN 3566                
POS_LOGIN 3949                
POS_ROBOT 4104                
POS_WORMS 5397                
POS_EMAILSENDER 5528                
POS_EMAILRECEIVER 5671                
POS_SESSION 16738               
POS_SIDER 16927               
POS_FILETYPES 5806                
POS_DOWNLOADS 6017                
POS_OS 6065                
POS_BROWSER 6332                
POS_SCREENSIZE 7406                
POS_UNKNOWNREFERER 7480                
POS_UNKNOWNREFERERBROWSER 7854                
POS_ORIGIN 8088                
POS_SEREFERRALS 8228                
POS_PAGEREFS 8461                
POS_SEARCHWORDS 8681                
POS_KEYWORDS 8856                
POS_MISC 2432                
POS_ERRORS 8938                
POS_CLUSTER 3805                
POS_SIDER_403 9062                
POS_SIDER_400 9168                
POS_SIDER_404 9250                
END_MAP

# LastLine    = Date of last record processed - Last record line number in last log - Last record offset in last log - Last record signature value
# FirstTime   = Date of first visit for history file
# LastTime    = Date of last visit for history file
# LastUpdate  = Date of last update - Nb of parsed records - Nb of parsed old records - Nb of parsed new records - Nb of parsed corrupted - Nb of parsed dropped
# TotalVisits = Number of visits
# TotalUnique = Number of unique visitors
# MonthHostsKnown   = Number of hosts known
# MonthHostsUnKnown = Number of hosts unknown
BEGIN_GENERAL 8
LastLine 20180401003013 1 0 11241643814546
FirstTime 0
LastTime 20180331223725
LastUpdate 20180402044849 1 0 0 0 0
TotalVisits 120                 
TotalUnique 96                  
MonthHostsKnown 90                  
MonthHostsUnknown 37                  
END_GENERAL

# Misc ID - Pages - Hits - Bandwidth
BEGIN_MISC 10
QuickTimeSupport 0 0 0
JavaEnabled 0 0 0
JavascriptDisabled 0 0 0
PDFSupport 0 0 0
WindowsMediaPlayerSupport 0 0 0
AddToFavourites 0 0 0
RealPlayerSupport 0 0 0
TotalMisc 0 0 0
DirectorSupport 0 0 0
FlashSupport 0 0 0
END_MISC

# Hour - Pages - Hits - Bandwidth - Not viewed Pages - Not viewed Hits - Not viewed Bandwidth
BEGIN_TIME 24
0 7 37 288103 72 121 130865
1 6 6 18042 79 116 157438
2 5 18 179439 43 71 143770
3 4 4 6975 35 67 202801
4 6 6 20982 81 108 195445
5 3 3 12301 45 111 291574
6 9 17 27092 38 88 122546
7 2 3 12186 77 142 529374
8 3 5 115723 97 132 180164
9 6 23 111022 37 85 370853
10 39 410 2142744 39 103 476650
11 44 82 558638 43 123 405867
12 4 20 51107 61 110 213894
13 9 84 541485 36 71 341253
14 5 26 181096 29 58 594153
15 4 4 25153 39 98 272559
16 9 38 203827 35 96 161509
17 10 118 390393 55 114 323881
18 9 30 196300 57 90 280620
19 4 21 114944 73 141 437645
20 29 142 1411278 162 350 224955
21 8 55 384935 73 148 364959
22 5 45 430537 90 180 642060
23 5 47 349219 35 100 217033
END_TIME

# Domain - Pages - Hits - Bandwidth
# The 10 first Pages must be first (order not required for others)
BEGIN_DOMAIN 11
ip 50 60 283994
jp 41 487 3740542
io 38 40 186626
com 35 107 652332
tk 31 380 1903025
net 16 125 745496
ru 11 11 40881
lt 8 8 48350
de 3 3 0
vds 1 1 2325
arpa 1 22 169950
END_DOMAIN

# Cluster ID - Pages - Hits - Bandwidth
BEGIN_CLUSTER 0
END_CLUSTER

# Login - Pages - Hits - Bandwidth - Last visit
# The 10 first Pages must be first (order not required for others)
BEGIN_LOGIN 0
END_LOGIN

# Robot ID - Hits - Bandwidth - Last visit - Hits on robots.txt
# The 10 first Hits must be first (order not required for others)
BEGIN_ROBOT 30
Googlebot/ 348 457342 20180331080909 0
bingpreview 288 1116667 20180331222851 0
bingbot/ 197 2567313 20180331222842 0
SemrushBot/ 83 168921 20180326041955 0
DotBot/ 81 588379 20180330161129 0
bubing 61 114807 20180323225209 0
CCBot/ 57 129438 20180318085203 0
360Spider 45 107876 20180330223246 0
yeti 43 337575 20180321164354 0
bot[\s_+:,\.\;\/\\-] 39 211738 20180319175521 0
Googlebot\-Image/ 6 128988 20180327055026 0
(firefox/)([0-9]\.|[0-1][0]\.) 9 16481 20180330000322 0
AhrefsBot/ 31 354286 20180331075916 0
no_user_agent 4 11644 20180329190748 0
MSIE[\x20]6 3 8768 20180329064227 0
Sogou[\x20]web[\x20]spider/ 10 11625 20180330161609 0
Mail\.RU_Bot/ 12 36498 20180321203950 0
SiteExplorer/ 14 32046 20180329171154 0
DomainCrawler/ 31 139025 20180313073323 0
link 8 21388 20180326213402 0
python 3 6975 20180329164810 0
YandexBot/ 29 67425 20180331203410 0
archive\.org_bot 1 4669 20180329071029 0
wordpress 22 169950 20180324101121 0
twitterbot 3 8475 20180328051203 0
SafeDNSBot 5 7559 20180316180615 0
MJ12bot/ 5 30035 20180316175651 0
Applebot/ 3 6975 20180327003934 0
facebookexternalhit/ 27 233320 20180330235741 0
crawl 32 63235 20180327121323 0
END_ROBOT

# Worm ID - Hits - Bandwidth - Last visit
# The 5 first Hits must be first (order not required for others)
BEGIN_WORMS 0
END_WORMS

# EMail - Hits - Bandwidth - Last visit
# The 20 first Hits must be first (order not required for others)
BEGIN_EMAILSENDER 0
END_EMAILSENDER

# EMail - Hits - Bandwidth - Last visit
# The 20 first hits must be first (order not required for others)
BEGIN_EMAILRECEIVER 0
END_EMAILRECEIVER

# Files type - Hits - Bandwidth - Bandwidth without compression - Bandwidth after compression
BEGIN_FILETYPES 8
css 400 319606 0 0
png 17 1543447 0 0
cgi 5 11243 0 0
php 183 637630 0 0
html 47 78187 0 0
jpg 109 3137640 0 0
js 31 79746 0 0
gif 452 1966022 0 0
END_FILETYPES

# Downloads - Hits - Bandwidth
BEGIN_DOWNLOADS 0
END_DOWNLOADS

# OS ID - Hits
BEGIN_OS ID - Hits - Pages 15
linuxandroid 112 6
winxp 18 18
winlong 10 2
ios_iphone 219 17
winnt 8 8
macosx12 5 5
linux 21 12
win7 181 34
macosx 1 1
macosx10 40 38
macosx9 36 6
win10 517 70
Unknown 11 11
win8.1 26 5
ios_ipad 39 2
END_OS

# Browser ID - Hits - Pages
BEGIN_BROWSER 53
chrome52.0.2743.116 382 33
edge36 1 1
safari11.0 117 6
chrome34.0.1847.137 1 1
firefox26.0 7 7
edge12 3 3
chrome55.0.2883.91 18 1
chrome31.0.1650.57 1 1
lynx 5 5
firefox34.0 3 3
chrome36.0.1985.125 3 3
chrome58.0.3029.110 7 6
msie8.0 12 12
iphone 83 8
chrome42.0.2311.90 40 38
msie7.0 1 1
chrome34.0.1847.116 1 1
chrome40.0.2214.85 4 4
msie9.0 12 4
chrome42.0.2311.152 1 1
Unknown 4 4
chrome65.0.3325.181 41 2
firefox50.0 14 14
firefox32.0 4 4
chrome39.0.2171.93 34 2
firefox48.0 1 1
chrome63.0.3239.111 16 1
firefox40.0 5 5
firefox42.0 1 1
chrome28.0.1500.63 3 3
chrome34.0.1847.131 1 1
firefox55.0 1 1
safari10.0 25 2
chrome63.0.3239.132 4 4
chrome36.0.1985.67 1 1
chrome60.0.3112.113 2 2
firefox45.0 1 1
chrome62.0.3202.84 44 2
msie11.0 222 24
safari9.0 2 2
chrome36.0.1985.143 22 1
mozilla 2 2
chrome45.0.2454.101 8 0
netscape5.0 13 0
chrome44.0.2403.157 9 1
chrome57.0.2987.133 1 1
opera36.0.2130.32 4 4
chrome26.0.1410.63 1 1
chrome31.0.1650.16 1 1
chrome60.0.3112.90 1 1
firefox35.0 3 3
safari 18 1
safari9.1.3 33 3
END_BROWSER

# Screen size - Hits
BEGIN_SCREENSIZE 0
END_SCREENSIZE

# Unknown referer OS - Last visit date
BEGIN_UNKNOWNREFERER 5
NYU_Internet_Census_(https://scan.lol;_research@scan.lol) 20180329034214
Scrapy/1.3.0_(_http://scrapy.org) 20180331164425
Lynx/2.8.5rel.1_libwww-FM/2.15FC_SSL-MM/1.4.1c_OpenSSL/0.9.7e-dev 20180312112150
}__test|O:21:\ 20180322192147
Mozilla/3.0_(compatible;_Indy_Library) 20180304184808
END_UNKNOWNREFERER

# Unknown referer Browser - Last visit date
BEGIN_UNKNOWNREFERERBROWSER 3
NYU_Internet_Census_(https://scan.lol;_research@scan.lol) 20180329034214
Scrapy/1.3.0_(_http://scrapy.org) 20180331164425
}__test|O:21:\ 20180322192147
END_UNKNOWNREFERERBROWSER

# Origin - Pages - Hits 
BEGIN_ORIGIN 6
From0 165 172
From1 0 0
From2 19 38
From3 6 6
From4 45 1028
From5 0 0
END_ORIGIN

# Search engine referers ID - Pages - Hits
BEGIN_SEREFERRALS 5
search_yahoo_co_jp 3 3
www_google_co_jp 10 26
bing 0 3
google_com 5 5
www_google_com 1 1
END_SEREFERRALS

# External page referers - Pages - Hits
# The 10 first Pages must be first (order not required for others)
BEGIN_PAGEREFS 2
http://m.facebook.com 4 4
http://www.regulus.yokohama/linkcoll.html 2 2
END_PAGEREFS

# Search keyphrases - Number of search
# The 10 first number of search must be first (order not required for others)
BEGIN_SEARCHWORDS 1
chiyuki-murakata.com 1
END_SEARCHWORDS

# Search keywords - Number of search
# The 10 first number of search must be first (order not required for others)
BEGIN_KEYWORDS 1
chiyuki-murakata.com 1
END_KEYWORDS

# Errors - Hits - Bandwidth
BEGIN_ERRORS 4
403 3 39
206 4 7180
404 894 18891
301 390 96335
END_ERRORS

# URL with 403 errors - Hits - Last URL referrer
BEGIN_SIDER_403 1
/discography/audio/ 3 -
END_SIDER_403

# URL with 400 errors - Hits - Last URL referrer
BEGIN_SIDER_400 0
END_SIDER_400

# URL with 404 errors - Hits - Last URL referrer
BEGIN_SIDER_404 2
/robots.txt 8 -
/wp-login.php 1 -
END_SIDER_404

# Host - Pages - Hits - Bandwidth - Last visit date - [Start date of last visit] - [Last page of last visit]
# [Start date of last visit] and [Last page of last visit] are saved only if session is not finished
# The 10 first Hits must be first (order not required for others)
BEGIN_VISITOR 127
v133-130-112-147.a03b.g.tyo1.static.cnode.io 38 40 186626 20180329111300
c14.kazooisyee.tk 31 380 1903025 20180302100950
109-184-132-19.dynamic.mts-nn.ru 9 9 31543 20180318013426
p1979048-ipngn15201hodogaya.kanagawa.ocn.ne.jp 6 43 292919 20180328202846
p5482181-ipngn4403marunouchi.tokyo.ocn.ne.jp 6 40 444200 20180302205628
lan-213-159-38-90.vln.penki.lt 5 5 18429 20180309165121
softbank219196107075.bbtec.net 5 52 370220 20180307143315
47.74.5.83 5 5 23345 20180316021542
ec2-50-112-194-65.us-west-2.compute.amazonaws.com 4 4 37394 20180329063953
13.71.147.194 4 4 18676 20180325102444
google-proxy-66-249-82-171.google.com 0 3 24592 
150-70-188-175.trendmicro.com 1 1 3955 20180302205720
125.64.94.206 3 3 6975 20180330204720
crawl.125-209-235-174.web.naver.com 0 4 100793 
216.74.103.189 1 1 2325 20180303060508
159.203.75.59 2 2 8624 20180309180056
google-proxy-66-249-82-123.google.com 0 5 5399 
flh9aab106.kng.mesh.ad.jp 3 3 10192 20180307144916
crawl.125-209-235-181.web.naver.com 1 1 2325 20180317011738
om126200038184.15.openmobile.ne.jp 1 18 100937 20180318210649
ec2-50-19-154-226.compute-1.amazonaws.com 1 1 4669 20180329063934
ip-3-48-244-173.california.us.northamericancoax.com 1 1 3955 20180324020426
128-70-212-245.broadband.corbina.ru 1 1 4669 20180319204430
crawl.125-209-235-184.web.naver.com 0 4 23409 
82.102.28.206 1 1 4669 20180310003951
i114-187-18-220.s41.a047.ap.plala.or.jp 1 17 41788 20180311123957
111.171.197.214 3 3 14007 20180330151537
sp49-97-102-124.msc.spmode.ne.jp 2 31 206900 20180319130942
google-proxy-66-249-82-167.google.com 1 1 2325 20180329115048
159.89.114.231 2 2 0 20180304224729
204.79.180.17 0 1 187 
softbank126083252151.bbtec.net 2 2 4650 20180321031107
li1180-203.members.linode.com 1 1 2325 20180310044256
ec2-34-214-13-14.us-west-2.compute.amazonaws.com 1 1 2325 20180312063449
176.116.17.65 1 1 2325 20180317083621
ec2-54-198-61-201.compute-1.amazonaws.com 1 1 4669 20180303152950
ec2-13-57-36-202.us-west-1.compute.amazonaws.com 1 1 2325 20180331164425
195.22.125.8 3 3 14007 20180322192148
204.79.180.10 1 1 2908 20180303173057
exproxy008.pf.news.kks.yahoo-net.jp 0 1 46098 
46.229.170.197 2 2 9338 20180326112936
sp49-98-165-76.msd.spmode.ne.jp 2 42 528616 20180323205338
94.23.83.80 1 1 2325 20180320034945
fj045.net219112176.thn.ne.jp 1 22 169950 20180302235621
210.166.205.35.bc.googleusercontent.com 2 2 3942 20180315104744
249.105.18.84.in-addr.arpa 1 22 169950 20180309164414
178.33.54.161 3 3 6975 20180330034531
sp49-97-101-125.msc.spmode.ne.jp 1 22 169950 20180310105841
google-proxy-66-249-82-221.google.com 0 4 32509 
69.12.66.254.static.quadranet.com 1 1 4669 20180309231249
crawl.125-209-235-173.web.naver.com 0 3 1606 
ec2-34-203-238-82.compute-1.amazonaws.com 1 1 4669 20180314080654
li1893-163.members.linode.com 1 1 4669 20180325204250
61-205-87-189m5.grp3.mineo.jp 3 48 165788 20180325171150
softbank126161169078.bbtec.net 2 34 84867 20180309171029
kd182251241049.au-net.ne.jp 1 1 2325 20180313121457
exproxy003.pf.news.kks.yahoo-net.jp 0 1 39098 
pl29985.ag1212.nttpc.ne.jp 3 33 267666 20180319215424
5.188.9.80 1 1 0 20180326094210
google-proxy-66-249-82-125.google.com 0 3 5563 
62.156.163.5 1 1 4669 20180311120752
204.79.180.22 0 1 773 
google-proxy-66-249-82-223.google.com 0 3 95263 
fwgw.yamaha.co.jp 2 19 121841 20180322142929
img14.edigitalcommunitynews.com 1 1 2325 20180323183027
91.210.144.235 1 1 2325 20180317044753
pw126233006247.20.panda-world.ne.jp 1 18 100937 20180318091226
planetlab19.net.in.tum.de 3 3 0 20180323061823
196.52.43.69 1 1 697 20180324185518
113x35x251x98.ap113.ftth.ucom.ne.jp 1 1 2325 20180329064701
150-70-188-179.trendmicro.com 1 1 2986 20180302205712
178.171.31.208 1 1 2325 20180329202501
31.220.45.40 1 1 4669 20180317045420
77-120-176-171.dynamic-fttb.kharkov.volia.com 2 2 5366 20180304184808
crawl.125-209-235-169.web.naver.com 1 1 2325 20180327023523
exproxy002.pf.news.kks.yahoo-net.jp 0 1 39098 
kd182251241040.au-net.ne.jp 1 1 2325 20180316071854
204.79.180.21 0 2 2000 
google-proxy-66-249-82-121.google.com 0 1 837 
sp1-75-237-195.msb.spmode.ne.jp 0 3 5773 
ec2-18-217-141-235.us-east-2.compute.amazonaws.com 1 9 8454 20180326060509
crawl.125-209-235-186.web.naver.com 1 5 13225 20180317011730
195.226.254.242 1 1 4669 20180316052031
211.129.57.10 0 2 104060 
ec2-52-205-178-235.compute-1.amazonaws.com 1 1 4669 20180319131008
37-115-185-236.broadband.kyivstar.net 2 2 9338 20180331214638
dedic693.hidehost.net 1 1 2325 20180317062551
23.253.82.146 1 1 4669 20180321043730
y227252.dynamic.ppp.asahi-net.or.jp 0 1 64183 
204.79.180.23 0 1 1244 
159.65.24.22 1 1 2325 20180303161202
google-proxy-66-249-82-88.google.com 1 10 52688 20180327232229
5.188.203.40 1 1 0 20180329034214
188.165.2.183 1 1 2325 20180310010925
pw126033020127.23.panda-world.ne.jp 1 23 52511 20180325170935
154.16.160.42 1 1 2325 20180310231909
w0109-49-133-164-6.uqwimax.jp 1 18 100937 20180324194400
198.251.72.177 2 2 9338 20180313161510
sp49-98-151-86.msd.spmode.ne.jp 1 16 167472 20180308111402
exproxy014.pf.news.kks.yahoo-net.jp 0 1 37649 
demur175.vds 1 1 2325 20180320210742
crawl.125-209-235-179.web.naver.com 1 2 2447 20180327023519
crawl.125-209-235-178.web.naver.com 0 3 6929 
google-proxy-66-249-82-169.google.com 0 1 805 
cl-78-158-28-10.fastlink.lt 3 3 29921 20180312112150
204.79.180.4 0 1 256 
softbank060095007025.bbtec.net 2 32 264758 20180327004914
google-proxy-66-249-82-86.google.com 0 8 106745 
p2034-ipbf2805hodogaya.kanagawa.ocn.ne.jp 1 22 169950 20180324181636
google-proxy-66-249-82-222.google.com 0 1 2657 
ip-129-48-244-173.california.us.northamericancoax.com 1 1 2325 20180317120356
kd113154169236.ppp-bb.dion.ne.jp 2 41 389114 20180331223725
74.208.211.146 2 2 9338 20180307173000
204.79.180.3 0 1 1334 
crawl.125-209-235-180.web.naver.com 0 1 20790 
150-70-188-176.trendmicro.com 1 1 2986 20180302205722
ec2-52-27-2-86.us-west-2.compute.amazonaws.com 2 2 14132 20180322135628
ec2-52-71-87-23.compute-1.amazonaws.com 0 1 5192 
google-proxy-66-249-82-87.google.com 0 4 10517 
195.22.125.122 2 2 7632 20180321051143
researchscan19.netintum.umbrellastudy.com 1 1 0 20180302094447
crawl.125-209-235-182.web.naver.com 0 1 3076 
dancehelp.ru 1 1 4669 20180315152228
46-118-115-22.broadband.kyivstar.net 2 2 9338 20180316002715
shuilinchi.com 1 1 2325 20180317203858
150-70-188-166.trendmicro.com 1 1 5181 20180302205819
204.79.180.9 0 1 335 
END_VISITOR

# Date - Pages - Hits - Bandwidth - Visits
BEGIN_DAY 29
20180302 46 450 2565008 10
20180303 5 13 20681 5
20180304 4 4 5366 2
20180305 1 9 17275 1
20180307 10 58 428848 6
20180308 3 20 280870 3
20180309 12 65 286539 6
20180310 6 27 186263 6
20180311 5 21 56542 3
20180312 4 4 32246 2
20180313 5 5 16332 5
20180314 5 5 19729 3
20180315 6 6 20274 5
20180316 6 6 25670 5
20180317 8 8 20944 8
20180318 6 40 215266 4
20180319 7 66 483904 4
20180320 2 2 4650 2
20180321 4 5 19818 3
20180322 6 23 138834 3
20180323 4 45 577039 3
20180324 4 42 275539 4
20180325 6 78 310157 4
20180326 3 11 13123 3
20180327 7 72 674375 6
20180328 6 43 292919 1
20180329 44 67 370564 7
20180330 5 5 13969 3
20180331 5 44 400777 3
END_DAY

# Session range - Number of visits
BEGIN_SESSION 5
5mn-15mn 3
30s-2mn 5
2mn-5mn 1
0s-30s 110
30mn-1h 1
END_SESSION

# URL - Pages - Bandwidth - Entry - Exit
# The 10 first Pages must be first (order not required for others)
BEGIN_SIDER 31
/ 106 330074 96 81
/profile/ 17 102864 5 10
/contact/ 16 50194 3 4
/lesson/ 13 26497 6 6
/news/ 12 38747 5 4
/message/ 11 30471 3 5
/discography/ 9 43620 1 2
/contact/contact.cgi 5 11243 0 4
/link/ 4 6704 0 0
/discography/cd_works2.html 3 8475 0 1
/cartform/cartform.html 2 4272 0 0
/contact/shinobukai2015/ 2 3644 0 0
/discography/audio/villa_02.html 2 1590 0 0
/profile/../news/../profile/../discography/ 1 14820 0 1
/news/concert.html 2 6786 0 0
/discography/audio/works2_2-1.html 2 1622 0 0
/discography/audio/villa_09.html 2 1562 0 0
/discography/audio/works2_2-5.html 2 1626 0 0
/discography/audio/works2_2-4.html 2 1624 0 0
/profile/../news/../profile/ 1 11146 1 0
/discography/audio/villa_12.html 2 1524 0 0
/discography/audio/villa_08.html 2 1574 0 0
/discography/audio/villa_05.html 2 1538 0 0
/discography/audio/help.html 2 3228 0 1
/discography/cd_villa.html 2 5810 0 0
/message/message01.html 2 5562 0 0
/discography/audio/villa_01.html 2 1550 0 0
/discography/audio/works2_1-1.html 2 1562 0 0
/discography/audio/works2_1-4.html 2 1592 0 0
/discography/audio/works2_1-5.html 2 1584 0 1
/profile/../news/../profile/../contact/ 1 3955 0 0
END_SIDER
