AWSTATS DATA FILE 7.6 (build 20161204)
# If you remove this file, all statistics for date 201807 will be lost/reset.
# Last config file used to build this data file was /virtual/chiyuki/public_html/log/awstats/cgi-bin/awstats.chiyuki-murakata.com.conf.

# Position (offset in bytes) in this file for beginning of each section for
# direct I/O access. If you made changes somewhere in this file, you should
# also remove completely the MAP section (AWStats will rewrite it at next
# update).
BEGIN_MAP 30
POS_GENERAL 2109                
POS_TIME 2780                
POS_VISITOR 11534               
POS_DAY 21766               
POS_DOMAIN 3609                
POS_LOGIN 4171                
POS_ROBOT 4326                
POS_WORMS 5933                
POS_EMAILSENDER 6064                
POS_EMAILRECEIVER 6207                
POS_SESSION 22577               
POS_SIDER 22773               
POS_FILETYPES 6342                
POS_DOWNLOADS 6558                
POS_OS 6738                
POS_BROWSER 7041                
POS_SCREENSIZE 8699                
POS_UNKNOWNREFERER 8773                
POS_UNKNOWNREFERERBROWSER 9039                
POS_ORIGIN 9206                
POS_SEREFERRALS 9349                
POS_PAGEREFS 9602                
POS_SEARCHWORDS 10622               
POS_KEYWORDS 10799               
POS_MISC 2444                
POS_ERRORS 10885               
POS_CLUSTER 4027                
POS_SIDER_403 11029               
POS_SIDER_400 11111               
POS_SIDER_404 11193               
END_MAP

# LastLine    = Date of last record processed - Last record line number in last log - Last record offset in last log - Last record signature value
# FirstTime   = Date of first visit for history file
# LastTime    = Date of last visit for history file
# LastUpdate  = Date of last update - Nb of parsed records - Nb of parsed old records - Nb of parsed new records - Nb of parsed corrupted - Nb of parsed dropped
# TotalVisits = Number of visits
# TotalUnique = Number of unique visitors
# MonthHostsKnown   = Number of hosts known
# MonthHostsUnKnown = Number of hosts unknown
BEGIN_GENERAL 8
LastLine 20180801011206 1 0 6172181585955
FirstTime 20180701113927
LastTime 20180731224443
LastUpdate 20180802044632 1 0 0 0 0
TotalVisits 269                 
TotalUnique 172                 
MonthHostsKnown 148                 
MonthHostsUnknown 50                  
END_GENERAL

# Misc ID - Pages - Hits - Bandwidth
BEGIN_MISC 10
QuickTimeSupport 0 0 0
JavaEnabled 0 0 0
JavascriptDisabled 0 0 0
PDFSupport 0 0 0
WindowsMediaPlayerSupport 0 0 0
AddToFavourites 0 0 0
RealPlayerSupport 0 0 0
TotalMisc 0 0 0
DirectorSupport 0 0 0
FlashSupport 0 0 0
END_MISC

# Hour - Pages - Hits - Bandwidth - Not viewed Pages - Not viewed Hits - Not viewed Bandwidth
BEGIN_TIME 24
0 39 64 147248 22 73 200581
1 45 59 216519 17 36 453235
2 52 52 153784 21 50 143782
3 37 97 533958 12 36 68121
4 46 55 147149 10 28 158071
5 33 33 80142 16 54 274234
6 29 58 270046 17 45 199400
7 91 507 46491552 23 66 211055
8 41 77 528721 39 97 280538
9 38 44 162502 27 99 374413
10 43 109 993247 40 97 246483
11 47 96 719787 30 101 509152
12 38 65 465455 38 92 280452
13 37 77 615761 22 51 141047
14 42 56 253215 53 120 470993
15 75 79 353700 57 108 256904
16 45 117 559423 56 141 499318
17 26 30 232077 15 38 259444
18 39 70 165766 25 56 267385
19 46 114 693562 39 114 294476
20 80 105 412881 85 110 188636
21 39 152 1003783 32 71 462423
22 30 60 342298 63 92 148629
23 58 161 1134883 63 112 410922
END_TIME

# Domain - Pages - Hits - Bandwidth
# The 10 first Pages must be first (order not required for others)
BEGIN_DOMAIN 24
com 640 730 2175206
ip 169 261 1034136
net 55 173 1196954
ru 45 45 144660
jp 41 595 27588020
io 40 42 192416
eu 37 37 108174
ml 31 367 1892078
de 7 7 14686
nz 5 5 15635
md 1 1 3955
cn 3 3 22476
cloud 3 3 10561
fr 1 1 3955
kz 2 2 7910
dk 1 1 4959
info 1 1 2346
br 3 52 327627
it 2 2 9260
org 2 2 14408
by 1 1 3955
nl 2 2 5788
edu 3 3 7025
se 1 1 3955
END_DOMAIN

# Cluster ID - Pages - Hits - Bandwidth
BEGIN_CLUSTER 0
END_CLUSTER

# Login - Pages - Hits - Bandwidth - Last visit
# The 10 first Pages must be first (order not required for others)
BEGIN_LOGIN 0
END_LOGIN

# Robot ID - Hits - Bandwidth - Last visit - Hits on robots.txt
# The 10 first Hits must be first (order not required for others)
BEGIN_ROBOT 39
bingpreview 379 1691649 20180731223355 0
bingbot/ 221 2303894 20180731213251 0
Googlebot/ 152 222414 20180731213157 0
bot[\s_+:,\.\;\/\\-] 116 388374 20180731090033 0
YandexBot/ 60 102163 20180731192033 0
360Spider 53 121071 20180731090714 0
SemrushBot/ 40 77197 20180731152241 0
MJ12bot/ 39 130793 20180731191305 0
BLEXBot/ 37 76057 20180730221111 0
AhrefsBot/ 31 215664 20180731183858 0
Googlebot\-Image/ 14 187511 20180730200213 0
(firefox/)([0-9]\.|[0-1][0]\.) 3 4868 20180715111239 0
no_user_agent 6 25279 20180727150120 0
DotBot/ 12 68772 20180729083034 0
LWP::Simple/ 1 4630 20180721184048 0
netEstate[\x20]NE[\x20]Crawler 1 2346 20180704043846 0
yeti 22 188415 20180723121941 0
curl 1 0 20180727022203 0
Apache\-HttpClient/ 15 35190 20180730080123 0
YandexImages/ 1 55807 20180709024512 0
steeler 1 0 20180701121336 0
Baiduspider/ 26 52772 20180730191335 0
twitterbot 5 14125 20180724105656 0
Applebot/ 4 9276 20180721005742 0
^Mozilla$ 2 9260 20180706184339 0
crawl 1 4630 20180709054255 0
CCBot/ 6 0 20180716193833 0
core 3 5894 20180714102443 0
y!j 1 1617 20180702095609 0
MSIE[\x20]6 1 2346 20180711073158 0
Sogou[\x20]web[\x20]spider/ 9 11730 20180731181038 0
DomainCrawler/ 1 4630 20180718084137 0
python 1 2346 20180703035311 0
archive\.org_bot 7 17578 20180709080728 0
favicon 1 2346 20180724173026 0
internetarchive 1 0 20180731092937 0
SafeDNSBot 1 2346 20180721102005 0
2345Explorer/ 2 4120 20180714122025 0
facebookexternalhit/ 4 722816 20180719145534 0
END_ROBOT

# Worm ID - Hits - Bandwidth - Last visit
# The 5 first Hits must be first (order not required for others)
BEGIN_WORMS 0
END_WORMS

# EMail - Hits - Bandwidth - Last visit
# The 20 first Hits must be first (order not required for others)
BEGIN_EMAILSENDER 0
END_EMAILSENDER

# EMail - Hits - Bandwidth - Last visit
# The 20 first hits must be first (order not required for others)
BEGIN_EMAILRECEIVER 0
END_EMAILRECEIVER

# Files type - Hits - Bandwidth - Bandwidth without compression - Bandwidth after compression
BEGIN_FILETYPES 8
css 478 375795 0 0
png 28 2190443 0 0
cgi 127 306034 0 0
php 902 2456529 0 0
html 67 123773 0 0
jpg 168 5090592 0 0
js 38 94842 0 0
gif 529 2264823 0 0
END_FILETYPES

# Downloads - Hits - Bandwidth
BEGIN_DOWNLOADS 3
/discography/mp3/works2_1-4.mp3 0 1 5310926
/discography/mp3/works2_2-4.mp3 0 1 8114596
/discography/mp3/works2_1-1.mp3 0 2 8461792
END_DOWNLOADS

# OS ID - Hits
BEGIN_OS ID - Hits - Pages 17
linuxandroid 51 4
winxp 23 22
macosx11 2 2
winlong 28 12
ios_iphone 352 28
win2000 16 16
macosx9 42 2
ios_ipad 32 2
winnt 45 45
macosx12 2 2
linux 255 247
win7 522 305
macosx 236 208
macosx10 40 38
win10 661 129
win8.1 25 25
Unknown 9 9
END_OS

# Browser ID - Hits - Pages
BEGIN_BROWSER 84
chrome11.0.661.0 1 1
firefox57.0 24 24
chrome52.0.2743.116 371 35
firefox33.1 7 7
firefox44.0 8 8
chrome34.0.1847.137 1 1
edge12 5 5
chrome60.0.3112.50 9 1
chrome5.0.375.99 4 4
safari11.1.1 31 3
chrome63.0.3223.8 2 2
firefox54.0 2 2
firefox34.0 2 2
chrome58.0.3029.110 8 8
chrome63.0.3239.84 15 15
msie8.0 7 6
chrome42.0.2311.90 40 38
firefox43.0 7 7
msie7.0 1 1
chrome62.0.3250.0 7 7
firefox40.1 16 16
chrome60.0.3112.101 1 1
chrome50.0.2661.102 2 2
chrome37.0.2062.120 4 4
firefox41.0 3 3
chrome39.0.2146.0 1 1
chrome49.0.2623.112 4 4
chrome65.0.3325.181 2 2
firefox50.0 2 2
firefox37.1 4 4
edge17 39 2
chrome55.0.2883.87 7 7
firefox53.0 6 6
firefox40.0 6 6
firefox42.0 150 150
firefox44.1 3 3
firefox38.0 6 6
chrome62.0.3202.94 16 16
opera49.0.2725.47 23 23
chrome32.0.1700.107 70 7
firefox45.0 10 10
firefox47.0 2 2
chrome46.0.2490.80 2 2
firefox33.0 3 3
chrome36.0.1985.143 43 2
mozilla 3 3
netscape5.0 61 0
chrome32.0.1700.76 2 2
firefox43.1 5 5
firefox39.1 6 6
opera38.0.2220.41 131 131
firefox36.0 2 2
safari 205 158
firefox35.0 1 1
chrome67.0.3396.87 25 3
safari11.0 289 17
chrome67.0.3396.79 135 135
firefox52.0 10 10
firefox24.0 40 40
firefox31.0 4 4
iphone 3 1
chrome61.0.3163.100 17 17
edge16 2 2
chrome47.0.2526.111 9 1
chrome62.0.3202.62 2 2
chrome40.0.2214.85 3 3
msie9.0 31 7
firefox27.0 2 2
Unknown 6 6
firefox32.1 3 3
chrome22.0.1216.0 3 3
chrome63.0.3239.111 23 1
safari10.0 35 2
firefox30.0 7 7
chrome59.0.3071.125 3 0
firefox56.0 5 5
firefox61.0 81 5
msie11.0 65 17
chrome67.0.3396.99 123 12
safari9.0 4 4
firefox37.0 5 5
firefox51.0 11 11
opera36.0.2130.32 1 1
chrome67.0.3396.62 1 1
END_BROWSER

# Screen size - Hits
BEGIN_SCREENSIZE 0
END_SCREENSIZE

# Unknown referer OS - Last visit date
BEGIN_UNKNOWNREFERER 5
Mozilla/5.0_Firefox/33.0 20180723161312
}__test|O:21:\ 20180730183014
Mozilla/3.0_(compatible;_Indy_Library) 20180709043750
The_Knowledge_AI 20180702130304
AHC/2.1 20180722021100
END_UNKNOWNREFERER

# Unknown referer Browser - Last visit date
BEGIN_UNKNOWNREFERERBROWSER 3
}__test|O:21:\ 20180730183014
The_Knowledge_AI 20180702130304
AHC/2.1 20180722021100
END_UNKNOWNREFERERBROWSER

# Origin - Pages - Hits 
BEGIN_ORIGIN 6
From0 737 764
From1 4 4
From2 22 27
From3 34 34
From4 299 1512
From5 0 0
END_ORIGIN

# Search engine referers ID - Pages - Hits
BEGIN_SEREFERRALS 6
search_yahoo_co_jp 5 5
www_google_co_uk 1 1
www_google_co_jp 6 11
bing 5 5
google_com 1 1
www_google_com 4 4
END_SEREFERRALS

# External page referers - Pages - Hits
# The 10 first Pages must be first (order not required for others)
BEGIN_PAGEREFS 27
http://resell-seo-services.com/try.php 5 5
http://pizza-tycoon.com 2 2
http://interesu.ru 2 2
https://mmvstroy.ru 2 2
http://fernando.web.telrock.net 1 1
http://ebony.porndairy.in 1 1
http://sissies.purplesphere.in 1 1
https://goo.gl/maps/v9Bi3hSoCwQ2 1 1
http://hub.hacken.es/rb-teaming 1 1
http://hundejo.com 1 1
http://trisha.blogs.telrock.org 1 1
http://loretta.w.telrock.org 1 1
http://florine.post1.telrock.org 1 1
http://hotselfies.xblog.in 1 1
http://futanari.project.adultnet.in 1 1
https://ja.wikipedia.org 1 1
https://ameblo.jp 1 1
http://rochelle.post1.telrock.org 1 1
http://amateurwebcam.adultnet.in 1 1
http://seoservices2018.com 1 1
http://m.facebook.com 1 1
http://burger-imperia.com 1 1
http://pornstars.erolove.in 1 1
http://hentai.creamy.xblog.in 1 1
http://tits.twiclub.in 1 1
http://shemale.porn.stackjam.top 1 1
http://jerome.forum.telrock.net 1 1
END_PAGEREFS

# Search keyphrases - Number of search
# The 10 first number of search must be first (order not required for others)
BEGIN_SEARCHWORDS 1
指揮法+レッスン 3
END_SEARCHWORDS

# Search keywords - Number of search
# The 10 first number of search must be first (order not required for others)
BEGIN_KEYWORDS 2
レッスン 3
指揮法 3
END_KEYWORDS

# Errors - Hits - Bandwidth
BEGIN_ERRORS 6
503 1 299
206 1 128
400 6 1356
405 2 486
404 500 10951
301 68 16548
END_ERRORS

# URL with 403 errors - Hits - Last URL referrer
BEGIN_SIDER_403 0
END_SIDER_403

# URL with 400 errors - Hits - Last URL referrer
BEGIN_SIDER_400 0
END_SIDER_400

# URL with 404 errors - Hits - Last URL referrer
BEGIN_SIDER_404 2
/robots.txt 11 -
/cache.php 1 -
END_SIDER_404

# Host - Pages - Hits - Bandwidth - Last visit date - [Start date of last visit] - [Last page of last visit]
# [Start date of last visit] and [Last page of last visit] are saved only if session is not finished
# The 10 first Hits must be first (order not required for others)
BEGIN_VISITOR 198
ec2-18-191-234-19.us-east-2.compute.amazonaws.com 561 561 1318390 20180731220817
46.161.9.56 60 60 167924 20180718234510
ec2-18-206-214-156.compute-1.amazonaws.com 40 40 104375 20180706153034
v133-130-48-124.a005.g.tyo1.static.conoha.io 38 40 186668 20180726202042
c13.kazooisyee.ml 31 367 1892078 20180724073105
5.188.210.8 22 22 61472 20180731195158
62-210-79-159.rev.poneytelecom.eu 11 11 31551 20180730080026
62-210-140-246.rev.poneytelecom.eu 10 10 27604 20180730093033
p7243-mobac01.osaka.ocn.ne.jp 9 76 22473591 20180716075718
ns377105.ip-188-165-230.eu 9 9 26005 20180710231823
77.34.19.154 2 2 5564 20180708135948
crawl.125-209-235-174.web.naver.com 0 1 2657 
dynamicip-109-194-59-226.pppoe.kursk.ertelecom.ru 2 2 5532 20180709111617
46.161.9.30 3 3 10128 20180720142900
tormachine.keymachine.de 2 2 5426 20180722123418
ec2-34-211-48-6.us-west-2.compute.amazonaws.com 1 1 2986 20180706201809
188x187x137x48.dynamic.barnaul.ertelecom.ru 2 2 7448 20180730173225
vps02.scw.br0.fr 1 1 3955 20180729183220
crawl.125-209-235-181.web.naver.com 0 6 98584 
173.252.127.14 1 15 52610 20180705165507
104.144.236.6 3 3 5595 20180720110533
ec2-52-200-221-20.compute-1.amazonaws.com 3 3 8800 20180716082224
vps1650591.vs.webtropia-customer.com 1 1 1817 20180729183222
crawl.125-209-235-184.web.naver.com 0 5 98515 
61.147.70.200 1 1 0 20180714233520
5be9dc10.tvintel.org 2 2 14408 20180708111210
dedic1156.hidehost.net 1 1 3955 20180724093650
188.243.203.107.pool.sknt.ru 4 4 15352 20180727101628
gwc.cluster026.hosting.ovh.net 2 2 9260 20180705233422
ec2-18-130-179-188.eu-west-2.compute.amazonaws.com 1 1 4630 20180716161235
client.fttb.2day.kz 2 2 7910 20180723121242
sp1-75-241-69.msb.spmode.ne.jp 1 22 169971 20180711104753
exproxy004.pf.news.kks.yahoo-net.jp 0 1 46098 
crawl.125-209-235-185.web.naver.com 2 3 7966 20180728031632
this-is-a-tor-exit-node-hviv126.hviv.nl 2 2 5788 20180721111852
dedic1158.hidehost.net 2 2 9400 20180728082801
191.96.41.25 1 1 2346 20180726094054
5.2.77.145 2 2 5688 20180711141325
vps1060.hidehost.net 4 4 29998 20180731224443
mail.keyerleber.com 1 1 2346 20180703211424
net121-108.perm.ertelecom.ru 2 2 5832 20180731021931
vc097.net042125170.thn.ne.jp 1 12 34579 20180719142121
109-184-16-134.dynamic.mts-nn.ru 5 5 15796 20180711232050
212-83-177-250.rev.poneytelecom.eu 1 1 2346 20180718040324
chomsky.torservers.net 1 1 3955 20180724202557
ec2-35-178-59-10.eu-west-2.compute.amazonaws.com 1 1 4630 20180722021100
lh28409.voxility.net 2 2 5696 20180725130122
192.218.140.237 2 31 221014 20180724165051
crawl.125-209-235-172.web.naver.com 0 2 4398 
darksoul02.trilightzone.co.nz 4 4 11680 20180723005059
173.252.127.8 0 3 112825 
83.175.238.170 2 2 5766 20180724064736
dedic1069.hidehost.net 4 4 13798 20180723041456
5.188.210.17 2 2 5638 20180728025101
95-37-245-162.dynamic.mts-nn.ru 2 2 5616 20180708104547
188-163-109-153.broadband.kyivstar.net 4 4 14902 20180723143023
ec2-13-113-106-158.ap-northeast-1.compute.amazonaws.com 2 2 7616 20180724165051
212.98.180.46 1 1 3955 20180718083902
185-140-53-87.anmaxx.de 1 1 4630 20180724013023
n220246181093.netvigator.com 1 1 3955 20180717044346
crawl.125-209-235-169.web.naver.com 1 6 34567 20180714030029
exproxy002.pf.news.kks.yahoo-net.jp 0 1 34027 
61-24-139-86.rev.home.ne.jp 2 42 528637 20180709230259
119-171-234-89.rev.home.ne.jp 2 31 205630 20180708063324
static.248.167.130.94.clients.your-server.de 1 1 4630 20180726102826
ec2-18-188-137-115.us-east-2.compute.amazonaws.com 2 2 4692 20180703153706
42.154.195.200.static.copel.net 1 22 169971 20180722215336
fp839310ea.chbd215.ap.nuro.jp 1 22 169971 20180726235608
185.230.127.243 1 1 3955 20180722003428
46.99.142.30 1 1 3955 20180707012941
46.161.9.14 2 2 5522 20180719021318
tor-exit4-readme.dfri.se 1 1 3955 20180722120133
104.223.0.240.static.quadranet.com 1 1 3955 20180721025454
exproxy000.pf.news.kks.yahoo-net.jp 0 2 78196 
kd125052116013.ppp-bb.dion.ne.jp 2 27 56116 20180726005626
111-90-45-48.koalanet.ne.jp 2 32 264779 20180711224103
softbank060071120054.bbtec.net 0 6 89137 
marylou.nos-oignons.net 2 2 5520 20180728140121
62-210-90-123.rev.poneytelecom.eu 1 1 4630 20180714202954
93.100.228.17.pool.sknt.ru 2 2 5312 20180719032950
ec2-18-206-157-114.compute-1.amazonaws.com 1 1 4630 20180714215305
110.75.150.200.static.copel.net 1 22 169971 20180726213122
89-109-49-84.dynamic.mts-nn.ru 5 5 15702 20180719073138
96.44.128.250.static.quadranet.com 2 2 9260 20180703124753
relay1.tor.openinternet.io 2 2 5748 20180722113127
185.220.101.1 1 1 2346 20180720193638
planetlab5.net.in.tum.de 3 3 0 20180720102546
84.39.244.237.dynamic.kzn.ufanet.ru 2 2 7466 20180712153245
r-23.52.22.50.consumer-pool.prcdn.net 2 2 10974 20180707121025
89.163.139.246 1 1 2346 20180730203238
f2.raptor.net 1 1 2346 20180721124015
5.188.210.35 2 2 5546 20180727201953
om126179120234.19.openmobile.ne.jp 1 22 169971 20180730121023
fp96f938c2.tkyc109.ap.nuro.jp 2 42 528637 20180724131657
180-199-71-125.nagoya1.commufa.jp 1 17 41788 20180706201630
ih1038356.vds.myihor.ru 2 2 4120 20180724235116
134-249-54-0.broadband.kyivstar.net 2 2 11384 20180728194640
exproxy011.pf.news.kks.yahoo-net.jp 0 1 46098 
softbank126114229094.bbtec.net 3 43 531545 20180721104540
server10.info 1 1 2346 20180707232430
exproxy015.pf.news.kks.yahoo-net.jp 0 1 37649 
120-188-7-167.resources.indosat.com 1 22 169971 20180724110345
crawl.125-209-235-182.web.naver.com 0 1 2657 
62-210-250-189.rev.poneytelecom.eu 2 2 7910 20180729180028
178.121.203.45 1 1 3955 20180714001700
tor00.telenet.unc.edu 2 2 5416 20180722050710
crawl.125-209-235-183.web.naver.com 0 6 10445 
tor-exit-proxy2.donategrid.com 1 1 2346 20180727014824
188.166.32.182 1 1 2346 20180731063908
1e41082.online-server.cloud 3 3 10561 20180731072844
exproxy010.pf.news.kks.yahoo-net.jp 0 3 114396 
darksoul05.trilightzone.co.nz 1 1 3955 20180721082326
unspecified.progtech.ru 2 2 6546 20180729153326
193.169.252.17 4 4 14834 20180728072112
178.158.233.16 2 2 8585 20180716164349
193.169.252.38 2 2 7756 20180704194457
209.163.119.29 3 3 4834 20180703194830
onions.mit.edu 1 1 1609 20180728140125
178.121.238.251 2 2 4203 20180728025649
95-37-75-119.dynamic.mts-nn.ru 3 3 10238 20180725190833
immutable.finesthead.net 2 2 11389 20180725113237
b1c0f8c5.virtua.com.br 1 22 169971 20180719211641
188.72.126.122 1 1 3955 20180720220346
253-233-15-51.rev.cloud.scaleway.com 2 2 5402 20180724231503
5.35.5.79 1 1 3955 20180714204224
195-211-218-5-client.sctv.ru 2 2 5456 20180727132303
185.220.101.29 1 1 1451 20180724202559
exproxy008.pf.news.kks.yahoo-net.jp 0 3 105703 
nttkyo872154.tkyo.nt.ngn.ppp.infoweb.ne.jp 3 31 427178 20180701114002
softbank126010240001.bbtec.net 1 9 9729 20180718232946
66.160.140.182 1 1 2908 20180702130304
81.198.28.81 1 1 1774 20180725052743
5cec2cc.rev.sefiber.dk 1 1 4959 20180714030422
p2805164-ipngn200908osakachuo.osaka.ocn.ne.jp 0 4 166581 
softbank126068055087.bbtec.net 3 25 55902 20180722165110
185.220.101.27 2 2 5440 20180719053440
crawl.125-209-235-170.web.naver.com 0 1 3228 
240-152-135-95.pool.ukrtel.net 4 4 13402 20180714004103
95-37-140-193.dynamic.mts-nn.ru 2 2 5516 20180714043350
opus05.register.it 1 1 4630 20180706011209
exproxy007.pf.news.kks.yahoo-net.jp 0 3 115845 
dynamicip-94-180-96-4.pppoe.nsk.ertelecom.ru 4 4 12044 20180703070351
crawl.125-209-235-173.web.naver.com 0 9 36976 
ec2-54-201-230-58.us-west-2.compute.amazonaws.com 1 1 1184 20180716075517
crawl.125-209-235-168.web.naver.com 0 8 99657 
27-140-86-83.rev.home.ne.jp 2 25 55673 20180721182229
163-172-4-153.rev.poneytelecom.eu 1 1 2346 20180729232353
173.252.127.12 0 4 4536 
202.19.228.112 0 1 34027 
77-120-176-171.dynamic-fttb.kharkov.volia.com 2 2 5327 20180709043750
13.71.132.248 1 1 4630 20180709165745
198-245-72-132-host.colocrossing.com 1 1 1774 20180706015103
sp1-66-97-223.msc.spmode.ne.jp 1 10 56953 20180726085920
ec2-34-253-105-87.eu-west-1.compute.amazonaws.com 2 10 10821 20180715043616
211.234.58.156 2 2 9100 20180723122319
46.161.15.54 1 1 3955 20180722041133
200-103-221-176.ctame201.dial.brasiltelecom.net.br 1 21 149181 20180715211637
185.220.101.30 1 1 1451 20180722120150
pppoe.178-66-120-110.dynamic.avangarddsl.ru 1 1 3955 20180712093220
crawl.125-209-235-186.web.naver.com 0 1 1334 
118.89.236.133.dy.bbexcite.jp 1 1 2346 20180701232951
crawl.125-209-235-167.web.naver.com 0 4 8790 
ec2-54-152-39-227.compute-1.amazonaws.com 1 1 4630 20180716074906
exproxy012.pf.news.kks.yahoo-net.jp 0 1 37649 
crawl.125-209-235-175.web.naver.com 3 7 17659 20180728031629
188-138-188-34.starnet.md 1 1 3955 20180726153916
exproxy005.pf.news.kks.yahoo-net.jp 0 1 5192 
178-137-84-82.broadband.kyivstar.net 1 1 3955 20180718022800
pppoe.95-55-147-113.dynamic.avangarddsl.ru 2 2 8774 20180706104018
fs76eede5d.tkyc616.ap.nuro.jp 2 32 264779 20180731211123
unn-195-181-172-173.datapacket.com 1 1 4630 20180707210253
95-37-158-160.dynamic.mts-nn.ru 1 1 3955 20180704161627
23.229.105.198 3 3 5322 20180711215317
215.ip-54-38-159.eu 2 2 5782 20180703043326
193.169.252.46 2 2 7680 20180718024447
ec2-34-217-128-237.us-west-2.compute.amazonaws.com 1 1 4630 20180716074908
23.101.169.3 3 27 23238 20180710194417
5.188.210.3 3 3 12049 20180728180630
185.234.217.32 3 3 13890 20180730183014
188.240.208.26 3 3 7038 20180731182645
5.151.173.40 4 21 107236 20180705071555
bb7a3737.virtua.com.br 1 9 8475 20180718012702
93.170.187.182 3 3 10533 20180722232859
148.117.26.117.broad.pt.fj.dynamic.163data.com.cn 3 3 22476 20180728195424
crawl.125-209-235-178.web.naver.com 1 5 27967 20180707042107
sp49-98-141-182.msd.spmode.ne.jp 5 64 625936 20180708200350
ormation.naurd.com 1 1 2346 20180720102921
sp1-75-197-185.msb.spmode.ne.jp 2 52 623114 20180702085337
122.228.10.51 2 2 9260 20180721085617
p6682156-ipngn30501marunouchi.tokyo.ocn.ne.jp 1 18 100937 20180703235716
crawl.125-209-235-180.web.naver.com 1 4 24663 20180714030032
opus51.register.it 1 1 4630 20180706011205
dedic1034.hidehost.net 3 3 9377 20180715025311
mm-224-106-45-37.vitebsk.dynamic.pppoe.byfly.by 1 1 3955 20180720231657
185.202.103.5 2 2 7888 20180729020041
 2 2 5554 20180725184600
r-163-138-255-173.consumer-pool.prcdn.net 9 9 11388 20180726090324
173.234.61.59 2 2 16558 20180709024810
END_VISITOR

# Date - Pages - Hits - Bandwidth - Visits
BEGIN_DAY 31
20180701 7 52 624649 4
20180702 4 37 443571 3
20180703 13 30 133873 8
20180704 3 3 11711 2
20180705 9 47 291863 4
20180706 54 72 261816 12
20180707 8 9 49161 7
20180708 13 110 1064065 5
20180709 17 57 583219 10
20180710 17 42 99640 7
20180711 18 71 555379 10
20180712 17 21 217270 9
20180713 17 20 155510 9
20180714 14 34 191478 11
20180715 7 35 171725 4
20180716 21 84 44401554 9
20180717 1 1 3955 1
20180718 15 32 105774 10
20180719 18 50 247392 8
20180720 59 59 140933 8
20180721 65 148 883874 12
20180722 69 112 388860 14
20180723 50 50 133026 9
20180724 104 530 2981413 18
20180725 54 54 149099 10
20180726 101 179 778230 12
20180727 55 57 210423 5
20180728 75 95 362904 16
20180729 64 64 161203 11
20180730 69 91 350219 11
20180731 58 91 523670 10
END_DAY

# Session range - Number of visits
BEGIN_SESSION 6
1h+ 18
5mn-15mn 5
0s-30s 237
30s-2mn 5
2mn-5mn 2
30mn-1h 2
END_SESSION

# URL - Pages - Bandwidth - Entry - Exit
# The 10 first Pages must be first (order not required for others)
BEGIN_SIDER 28
/ 652 1593931 98 79
/contact/ 176 635012 147 42
/contact/contact.cgi 127 306034 6 118
/discography/ 22 79200 4 7
/lesson/ 20 37816 7 7
/message/ 14 35406 2 2
/profile/ 12 59508 2 4
/news/ 12 38747 1 5
/link/ 7 11732 0 0
/discography/cd_works2.html 5 14125 0 0
/cartform/cartform.html 4 8544 0 0
/discography/audio/villa_02.html 2 1590 0 0
/contact/shinobukai2015/ 2 3644 0 0
/discography/audio/works2_2-1.html 2 1622 0 0
/news/concert.html 3 10179 0 0
/discography/audio/works2_2-5.html 2 1626 0 0
/discography/audio/villa_09.html 2 1562 0 0
/discography/audio/works2_2-4.html 3 2436 0 0
/discography/audio/villa_12.html 2 1524 0 0
/discography/audio/villa_08.html 2 1574 0 0
/discography/audio/villa_05.html 2 1538 0 0
/discography/audio/help.html 2 3228 0 1
/discography/cd_villa.html 4 11620 0 0
/message/message01.html 5 13905 0 2
/discography/audio/villa_01.html 2 1550 0 0
/discography/audio/works2_1-4.html 3 2388 0 0
/discography/audio/works2_1-1.html 5 4711 2 1
/discography/audio/works2_1-5.html 2 1584 0 1
END_SIDER
