AWSTATS DATA FILE 7.6 (build 20161204)
# If you remove this file, all statistics for date 201706 will be lost/reset.
# Last config file used to build this data file was /virtual/www/public_html/log/awstats/cgi-bin/awstats.www.m33.coreserver.jp.conf.

# Position (offset in bytes) in this file for beginning of each section for
# direct I/O access. If you made changes somewhere in this file, you should
# also remove completely the MAP section (AWStats will rewrite it at next
# update).
BEGIN_MAP 30
POS_GENERAL 2106                
POS_TIME 2775                
POS_VISITOR 9462                
POS_DAY 15622               
POS_DOMAIN 3748                
POS_LOGIN 4067                
POS_ROBOT 4222                
POS_WORMS 5152                
POS_EMAILSENDER 5283                
POS_EMAILRECEIVER 5426                
POS_SESSION 16502               
POS_SIDER 16716               
POS_FILETYPES 5561                
POS_DOWNLOADS 5800                
POS_OS 5848                
POS_BROWSER 6140                
POS_SCREENSIZE 6742                
POS_UNKNOWNREFERER 6816                
POS_UNKNOWNREFERERBROWSER 6933                
POS_ORIGIN 7045                
POS_SEREFERRALS 7193                
POS_PAGEREFS 7350                
POS_SEARCHWORDS 8490                
POS_KEYWORDS 8642                
POS_MISC 2439                
POS_ERRORS 8701                
POS_CLUSTER 3923                
POS_SIDER_403 8829                
POS_SIDER_400 8911                
POS_SIDER_404 8993                
END_MAP

# LastLine    = Date of last record processed - Last record line number in last log - Last record offset in last log - Last record signature value
# FirstTime   = Date of first visit for history file
# LastTime    = Date of last visit for history file
# LastUpdate  = Date of last update - Nb of parsed records - Nb of parsed old records - Nb of parsed new records - Nb of parsed corrupted - Nb of parsed dropped
# TotalVisits = Number of visits
# TotalUnique = Number of unique visitors
# MonthHostsKnown   = Number of hosts known
# MonthHostsUnKnown = Number of hosts unknown
BEGIN_GENERAL 8
LastLine 20170701000039 1 0 24374035719
FirstTime 20170601070939
LastTime 20170630235341
LastUpdate 20170702045939 1 0 0 0 0
TotalVisits 516                 
TotalUnique 106                 
MonthHostsKnown 98                  
MonthHostsUnknown 8                   
END_GENERAL

# Misc ID - Pages - Hits - Bandwidth
BEGIN_MISC 10
QuickTimeSupport 0 0 0
JavaEnabled 0 0 0
JavascriptDisabled 0 0 0
PDFSupport 0 0 0
WindowsMediaPlayerSupport 0 0 0
AddToFavourites 0 3 0
RealPlayerSupport 0 0 0
TotalMisc 0 0 0
DirectorSupport 0 0 0
FlashSupport 0 0 0
END_MISC

# Hour - Pages - Hits - Bandwidth - Not viewed Pages - Not viewed Hits - Not viewed Bandwidth
BEGIN_TIME 24
0 153 158 271885 3477 3579 515062
1 178 197 728900 3432 3454 493634
2 157 162 255760 3493 3505 503284
3 205 208 421754 3453 3471 489347
4 108 109 164233 3546 3551 507862
5 155 156 331556 3484 3490 497363
6 354 361 4203747 3533 3549 512793
7 367 380 7206309 3495 3535 493924
8 407 427 5650192 3494 3545 500485
9 416 448 6234307 3505 3708 631653
10 602 635 27961702 3540 3611 519260
11 465 469 1236581 3526 3610 516518
12 554 587 10624918 3592 3715 534406
13 473 525 1629259 3422 3508 498161
14 698 762 3017914 3510 3572 504502
15 670 699 2541989 3596 3700 517648
16 628 684 3007659 3479 3533 557114
17 483 496 2223353 3555 3659 550523
18 388 406 2426773 3421 3519 514986
19 396 434 1071113 3459 3546 521593
20 286 291 625425 3501 3631 537582
21 231 242 525481 3499 3582 548933
22 277 289 781325 3482 3575 549253
23 298 321 962855 3406 3457 512037
END_TIME

# Domain - Pages - Hits - Bandwidth
# The 10 first Pages must be first (order not required for others)
BEGIN_DOMAIN 7
jp 8597 9085 83183061
net 206 210 367282
com 113 117 395000
ip 30 30 150480
de 1 1 0
ru 1 2 8470
io 1 1 697
END_DOMAIN

# Cluster ID - Pages - Hits - Bandwidth
BEGIN_CLUSTER 0
END_CLUSTER

# Login - Pages - Hits - Bandwidth - Last visit
# The 10 first Pages must be first (order not required for others)
BEGIN_LOGIN 0
END_LOGIN

# Robot ID - Hits - Bandwidth - Last visit - Hits on robots.txt
# The 10 first Hits must be first (order not required for others)
BEGIN_ROBOT 21
Wget/ 70076 8758653 20170630235946 0
checker 12440 2899346 20170630235910 0
no_user_agent 322 60986 20170630214448 0
bingbot/ 87 76928 20170630175821 0
favicon 54 95393 20170630090509 0
MSIE[\x20]5 31 21607 20170630212916 0
(firefox/)([0-9]\.|[0-1][0]\.) 12 100516 20170608210105 0
YandexBot/ 8 24113 20170626164717 0
crawl 8 6266 20170622184321 0
microsoft.*discovery 6 0 20170630073154 0
360Spider 2 7431 20170620131759 0
Uptimebot/ 2 0 20170603233831 0
MSIE[\x20]6 4 48864 20170612174531 0
Yahoo![\x20]Slurp 4 14851 20170624231212 0
SemrushBot/ 3 11134 20170624031204 0
DeuSu/ 1 12216 20170615174523 0
Googlebot/ 6 3642 20170624144147 0
Baiduspider/ 1 1077 20170621190640 0
Google[\x20]Web[\x20]Preview 4 16946 20170624131423 0
MJ12bot/ 2 12913 20170621145024 0
netcraft 1 697 20170609135538 0
END_ROBOT

# Worm ID - Hits - Bandwidth - Last visit
# The 5 first Hits must be first (order not required for others)
BEGIN_WORMS 0
END_WORMS

# EMail - Hits - Bandwidth - Last visit
# The 20 first Hits must be first (order not required for others)
BEGIN_EMAILSENDER 0
END_EMAILSENDER

# EMail - Hits - Bandwidth - Last visit
# The 20 first hits must be first (order not required for others)
BEGIN_EMAILRECEIVER 0
END_EMAILRECEIVER

# Files type - Hits - Bandwidth - Bandwidth without compression - Bandwidth after compression
BEGIN_FILETYPES 10
css 28 82461 0 0
png 404 870380 0 0
cgi 1227 6080681 0 0
shtm 1 159 0 0
php 7706 76431521 0 0
html 7 1092 0 0
tif 8 1890 0 0
jpg 12 90300 0 0
js 48 542040 0 0
gif 5 4466 0 0
END_FILETYPES

# Downloads - Hits - Bandwidth
BEGIN_DOWNLOADS 0
END_DOWNLOADS

# OS ID - Hits
BEGIN_OS ID - Hits - Pages 15
linuxandroid 14 12
winxp 40 40
macosx6 252 241
macosx11 97 94
ios_iphone 245 215
macosx12 154 154
linux 270 258
win7 4527 4332
macosx10 17 17
macosx9 12 12
Unknown 4 4
win10 3593 3392
win8.1 138 124
ios_ipad 80 51
macosx7 3 3
END_OS

# Browser ID - Hits - Pages
BEGIN_BROWSER 29
chrome59.0.3071.115 273 252
firefox53.0 1619 1546
safari9.0.3 2 2
safari10.1 2 2
chrome59.0.3071.86 3 3
chrome58.0.3029.83 14 12
safari10.0 287 234
firefox52.0 289 274
chrome28.0.1500.95 2 1
firefox54.0 607 568
chrome58.0.3029.110 3839 3652
safari10.1.1 93 93
msie8.0 40 40
msie11.0 1991 1909
mozilla 10 10
netscape5.0 1 1
chrome44.0.2403.89 1 1
chrome58.0.3029.96 9 9
chrome59.0.3071.109 21 21
safari5.1.9 252 241
msie9.0 8 8
chrome41.0.2228.0 1 1
edge14 12 10
edge15 22 18
chrome49.0.2623.112 3 3
Unknown 4 4
edge13 1 1
safari 38 32
safari9.1.3 2 1
END_BROWSER

# Screen size - Hits
BEGIN_SCREENSIZE 0
END_SCREENSIZE

# Unknown referer OS - Last visit date
BEGIN_UNKNOWNREFERER 1
}__test|O:21:\ 20170630143707
END_UNKNOWNREFERER

# Unknown referer Browser - Last visit date
BEGIN_UNKNOWNREFERERBROWSER 1
}__test|O:21:\ 20170630143707
END_UNKNOWNREFERERBROWSER

# Origin - Pages - Hits 
BEGIN_ORIGIN 6
From0 2596 2596
From1 0 0
From2 1 1
From3 2595 2852
From4 3757 3997
From5 0 0
END_ORIGIN

# Search engine referers ID - Pages - Hits
BEGIN_SEREFERRALS 1
yandexru 1 1
END_SEREFERRALS

# External page referers - Pages - Hits
# The 10 first Pages must be first (order not required for others)
BEGIN_PAGEREFS 15
https://ss1.coressl.jp/www.m33.coreserver.jp/jp/admin.cgi 810 810
https://ss1.coressl.jp/www.m33.coreserver.jp/ftp/ 491 672
https://ss1.coressl.jp/www.m33.coreserver.jp/mail/src/webmail.php 304 307
https://www.value-domain.com/coresv.php 254 254
https://ss1.coressl.jp/www.m33.coreserver.jp/mail/src/right_main.php 234 296
https://ss1.coressl.jp/www.m33.coreserver.jp/mail/src/left_main.php 203 204
https://ss1.coressl.jp/www.m33.coreserver.jp/mail/src/login.php 118 128
https://ss1.coressl.jp/www.m33.coreserver.jp/mail/src/compose.php 68 68
https://ss1.coressl.jp/www.m33.coreserver.jp/mail/src/read_body.php 55 55
https://www.coreserver.jp/pass/ 35 35
http://www.value-domain.com/coresv.php 4 4
https://ss1.coressl.jp/www.m33.coreserver.jp/mail/plugins/mail_fetch/fetch.php 1 1
https://ss1.coressl.jp/www.m33.coreserver.jp/mail/src/image.php 3 3
https://ss1.coressl.jp/www.m33.coreserver.jp/mail/src/signout.php 11 11
https://ss1.coressl.jp/www.m33.coreserver.jp/mail/src/options.php 4 4
END_PAGEREFS

# Search keyphrases - Number of search
# The 10 first number of search must be first (order not required for others)
BEGIN_SEARCHWORDS 0
END_SEARCHWORDS

# Search keywords - Number of search
# The 10 first number of search must be first (order not required for others)
BEGIN_KEYWORDS 0
END_KEYWORDS

# Errors - Hits - Bandwidth
BEGIN_ERRORS 4
302 790 15420
500 2 59968
301 2 492
404 1231 276164
END_ERRORS

# URL with 403 errors - Hits - Last URL referrer
BEGIN_SIDER_403 0
END_SIDER_403

# URL with 400 errors - Hits - Last URL referrer
BEGIN_SIDER_400 0
END_SIDER_400

# URL with 404 errors - Hits - Last URL referrer
BEGIN_SIDER_404 5
/apple-touch-icon-precomposed.png 8 -
/robots.txt 3 -
/apple-touch-icon-120x120.png 4 -
/apple-touch-icon.png 8 -
/apple-touch-icon-120x120-precomposed.png 4 -
END_SIDER_404

# Host - Pages - Hits - Bandwidth - Last visit date - [Start date of last visit] - [Last page of last visit]
# [Start date of last visit] and [Last page of last visit] are saved only if session is not finished
# The 10 first Hits must be first (order not required for others)
BEGIN_VISITOR 106
cache1.coreserver.jp 3633 3890 39897424 20170630235341
203.241.197.113.dy.bbexcite.jp 1567 1588 2632435 20170630223703
pl24114.ag1212.nttpc.ne.jp 1446 1468 33168072 20170630234603
p1615141-ipngn14601hodogaya.kanagawa.ocn.ne.jp 259 263 504780 20170630124055
218-216-177-170.dc.ctc.ad.jp 229 229 1651998 20170629182124
st0264.nas811.p-okinawa.nttpc.ne.jp 209 305 1748424 20170628132638
i220-221-171-131.s02.a005.ap.plala.or.jp 200 224 569842 20170628102834
122x216x11x18.ap122.ftth.ucom.ne.jp 175 182 367930 20170630114235
p4409030-ipngn23801marunouchi.tokyo.ocn.ne.jp 159 161 1231562 20170619152658
i60-47-126-31.s42.a013.ap.plala.or.jp 148 159 133534 20170605191548
fl1-203-136-18-214.tky.mesh.ad.jp 1 1 338 20170621112951
150-70-188-169.trendmicro.com 1 1 1338 20170603034036
nttkyo858029.tkyo.nt.ngn.ppp.infoweb.ne.jp 66 70 166361 20170627204204
150-70-188-170.trendmicro.com 1 1 2341 20170604164627
pl6175.ag0102.nttpc.ne.jp 9 9 40509 20170630104312
kd111110186047.ppp-bb.dion.ne.jp 6 8 13965 20170612194645
nfmv001065241.uqw.ppp.infoweb.ne.jp 1 2 8472 20170622195745
150-70-188-168.trendmicro.com 2 2 3679 20170630182243
p102211-mobac01.tokyo.ocn.ne.jp 8 11 16762 20170622212929
150-70-173-43.trendmicro.com 2 2 4682 20170615155030
150-70-188-165.trendmicro.com 2 2 4682 20170612013736
59-166-110-237.rev.home.ne.jp 7 9 11614 20170603150239
pw126233089051.20.panda-world.ne.jp 2 2 7422 20170629221632
150-70-188-167.trendmicro.com 1 1 2341 20170606064635
113x36x239x66.ap113.ftth.ucom.ne.jp 1 1 3708 20170608232602
150-70-173-54.trendmicro.com 1 1 2341 20170627112732
aa20141001863b8b17a2.userreverse.dion.ne.jp 10 13 25298 20170615164934
pl2177.ag1212.nttpc.ne.jp 56 56 74882 20170617123246
pw126233067136.20.panda-world.ne.jp 3 3 11130 20170628224252
softbank126014224186.bbtec.net 5 7 7255 20170606221821
census12.shodan.io 1 1 697 20170603211137
150-70-173-58.trendmicro.com 1 1 2341 20170607084824
kd182251254013.au-net.ne.jp 4 4 5951 20170619054349
pw126233016045.20.panda-world.ne.jp 1 1 3716 20170624111658
mo49-110-168-130.air.mopera.net 5 5 10155 20170628165649
pw126245071100.16.panda-world.ne.jp 5 5 18545 20170607133840
pw126199008154.18.panda-world.ne.jp 7 9 16555 20170601232202
192.187.100.58 4 4 2052 20170630143707
mo1-66-224-225.air.mopera.net 77 77 105552 20170626192106
mo160-249-237-1.air.mopera.net 6 6 13894 20170619172313
ec2-50-112-194-65.us-west-2.compute.amazonaws.com 5 5 11705 20170630084615
150.70.173.8 1 1 2341 20170626021000
kd106156098092.ppp-bb.dion.ne.jp 6 8 9525 20170613135108
pw126247145070.14.panda-world.ne.jp 3 3 11131 20170602204200
pw126245064033.16.panda-world.ne.jp 4 4 14844 20170609222700
pw126161073149.11.panda-world.ne.jp 1 1 3710 20170617174605
p5190022-ipngn11402marunouchi.tokyo.ocn.ne.jp 2 2 7425 20170610145331
150-70-173-9.trendmicro.com 2 2 14557 20170628095126
mo49-107-23-161.air.mopera.net 6 6 14092 20170601134132
pw126247128132.14.panda-world.ne.jp 2 2 7418 20170603123247
pw126245078016.16.panda-world.ne.jp 7 7 25980 20170613002636
96.169.128.101.dy.bbexcite.jp 13 13 8074 20170628033954
202.45.12.140 11 11 40825 20170630133451
pw126233009007.20.panda-world.ne.jp 6 6 22250 20170623204723
static.158.149.9.176.clients.your-server.de 1 1 0 20170628073907
150-70-173-53.trendmicro.com 1 1 2341 20170624082122
pw126233007217.20.panda-world.ne.jp 4 4 14850 20170626102743
mo49-110-193-191.air.mopera.net 12 12 25810 20170609101607
133.232.71.6.static.zoot.jp 12 14 13950 20170611174213
pw126247129194.14.panda-world.ne.jp 1 1 3711 20170604155027
172.55.102.121.dy.bbexcite.jp 60 63 89570 20170602042104
pw126152003076.10.panda-world.ne.jp 12 15 31573 20170622193746
121-84-122-33f1.hyg1.eonet.ne.jp 2 2 7418 20170607235506
157-250-143-111.hybs-pro.net 39 41 73560 20170622161955
kd111239099060.au-net.ne.jp 15 18 32667 20170618214615
23.99.101.118 1 1 2341 20170622193146
mo27-228-41-220.air.mopera.net 29 29 67279 20170602104432
c202-162-92-158.dhcp.cat-v.ne.jp 6 8 6277 20170628102438
150-70-188-171.trendmicro.com 2 2 4682 20170622082624
90.198.197.113.dy.bbexcite.jp 88 90 102387 20170612130809
pw126247132233.14.panda-world.ne.jp 4 4 14836 20170606195135
h220-215-230-080.catv02.itscom.jp 3 5 3424 20170601103243
150-70-188-178.trendmicro.com 2 2 4682 20170615164422
121-84-120-144f1.hyg1.eonet.ne.jp 4 4 14836 20170611155720
p63139-mobac01.tokyo.ocn.ne.jp 15 17 35291 20170602232753
150-70-173-42.trendmicro.com 2 2 4682 20170617102432
142.54.183.226 8 8 84352 20170601090526
150-70-173-49.trendmicro.com 2 2 4682 20170619113537
fp7cdbc49f.tkyc515.ap.nuro.jp 42 42 155869 20170628085140
pw126233069190.20.panda-world.ne.jp 1 1 3715 20170630094414
pw126161089088.11.panda-world.ne.jp 2 2 7417 20170608125150
150-70-173-57.trendmicro.com 1 1 2341 20170614091934
mo183-72-17-11.air.mopera.net 18 18 25033 20170622204732
mo1-73-120-194.air.mopera.net 7 7 17234 20170608143958
pw126200081161.19.panda-world.ne.jp 4 4 14842 20170603110307
i222-150-11-177.s02.a005.ap.plala.or.jp 14 16 34772 20170630090553
ip-49-48-244-173.california.us.northamericancoax.com 74 78 297838 20170608023056
121-84-202-6f1.osk3.eonet.ne.jp 12 12 44534 20170626223735
pw126186096132.7.panda-world.ne.jp 1 1 3711 20170604152623
kd119104034135.au-net.ne.jp 1 2 8175 20170603001809
pw126152079188.10.panda-world.ne.jp 13 13 48252 20170621000950
air197.cs.maritime.kobe-u.ac.jp 21 24 34548 20170612100236
softbank126021136098.bbtec.net 1 1 3709 20170625135945
150-70-188-177.trendmicro.com 1 1 2341 20170617112814
202.45.12.138 2 2 7420 20170606143700
ec2-52-27-2-86.us-west-2.compute.amazonaws.com 5 5 11705 20170630025642
pw126233088112.20.panda-world.ne.jp 2 2 7432 20170626154815
softbank126053130129.bbtec.net 1 1 3709 20170625182434
150-70-188-172.trendmicro.com 1 1 1338 20170619031015
150-70-173-6.trendmicro.com 1 1 1338 20170617193524
89-178-91-242.broadband.corbina.ru 1 2 8470 20170608005219
202.45.12.133 2 2 7432 20170620155015
150-70-173-40.trendmicro.com 1 1 2341 20170606082545
121-84-199-140f1.osk3.eonet.ne.jp 2 2 7418 20170601111218
150-70-188-166.trendmicro.com 2 2 4682 20170625005836
202.45.12.139 1 1 3717 20170616175213
END_VISITOR

# Date - Pages - Hits - Bandwidth - Visits
BEGIN_DAY 30
20170601 363 382 7235391 18
20170602 444 459 837050 25
20170603 223 227 402777 18
20170604 138 142 350276 17
20170605 107 107 249772 14
20170606 279 291 1284575 22
20170607 542 614 2729637 29
20170608 385 404 2102934 21
20170609 196 199 403371 18
20170610 138 159 366795 14
20170611 73 81 181424 20
20170612 551 581 14142718 23
20170613 211 217 19018504 11
20170614 222 229 520092 11
20170615 165 173 485139 19
20170616 555 561 6042242 13
20170617 271 277 490278 15
20170618 265 283 624144 14
20170619 465 475 2314973 21
20170620 290 339 11176675 16
20170621 288 297 1004032 15
20170622 503 519 2344211 26
20170623 491 491 1646293 8
20170624 181 183 340359 8
20170625 121 124 227980 13
20170626 306 312 595122 22
20170627 238 243 482296 13
20170628 387 461 1629425 24
20170629 139 181 649505 11
20170630 412 435 4227000 17
END_DAY

# Session range - Number of visits
BEGIN_SESSION 7
1h+ 120
5mn-15mn 32
30s-2mn 42
2mn-5mn 17
15mn-30mn 22
0s-30s 247
30mn-1h 36
END_SESSION

# URL - Pages - Bandwidth - Entry - Exit
# The 10 first Pages must be first (order not required for others)
BEGIN_SIDER 38
/mail/src/left_main.php 3749 4599909 32 111
/mail/src/right_main.php 1400 6920447 3 47
/jp/admin.cgi 1226 6080343 234 209
/ftp/ 539 3429079 0 6
/mail/src/read_body.php 506 2812816 0 31
/mail/src/webmail.php 445 144619 77 16
/mail/src/login.php 331 409897 157 43
/mailr/ 331 333638 5 6
/mail/src/compose.php 155 626891 0 0
/mail/src/signout.php 125 56326 0 35
/ 7 3262 4 3
/mail/plugins/message_details/message_details_bottom.php 2 11118 0 0
/mail/plugins/message_details/message_details_top.php 2 1332 0 0
/mailr/skins/larry/watermark.html 7 1092 0 0
/mail/plugins/notify/focus.php 1 102 0 0
/mail/plugins/notify/notify.php 1 367 0 0
/mail/src/download.php 30 56967924 0 2
/mobilemail/ 14 9007 1 1
/jp/admin.shtm 1 159 1 0
/mail/plugins/notes/notes.php 1 1234 0 0
/mail/plugins/mail_fetch/fetch.php 1 1063 0 0
/mail/src/options.php 10 28804 0 0
/mail/src/search.php 3 5177 0 0
/mail/plugins/calendar/day.php 4 5653 0 0
/mail/plugins/calendar/calendar.php 3 7696 0 0
/mail/src/image.php 4 4111 0 0
/jp/editmail.cgi 1 338 1 1
/mail/src/folders.php 2 2750 0 1
/mail/src/view_text.php 3 6317 0 1
/mail/plugins/message_details/message_details_main.php 2 952 0 0
/mail/src/redirect.php 16 10884 1 0
/mailr/program/resources/blank.tif 8 1890 0 0
/mail/plugins/calendar/event_create.php 4 6257 0 0
/mail/src/view_header.php 1 2433 0 0
/mail/plugins/mini/mini.php 3 1344 0 1
/mail/plugins/filters/spamoptions.php 3 6795 0 0
/mail/src/move_messages.php 4 4295 0 2
/mail/src/addressbook.php 4 9022 0 0
END_SIDER
