AWSTATS DATA FILE 7.6 (build 20161204)
# If you remove this file, all statistics for date 201901 will be lost/reset.
# Last config file used to build this data file was /virtual/chiyuki/public_html/log/awstats/cgi-bin/awstats.chiyuki-murakata.com.conf.

# Position (offset in bytes) in this file for beginning of each section for
# direct I/O access. If you made changes somewhere in this file, you should
# also remove completely the MAP section (AWStats will rewrite it at next
# update).
BEGIN_MAP 30
POS_GENERAL 2109                
POS_TIME 2781                
POS_VISITOR 13528               
POS_DAY 40811               
POS_DOMAIN 3651                
POS_LOGIN 4328                
POS_ROBOT 4483                
POS_WORMS 6120                
POS_EMAILSENDER 6251                
POS_EMAILRECEIVER 6394                
POS_SESSION 41680               
POS_SIDER 41891               
POS_FILETYPES 6529                
POS_DOWNLOADS 6761                
POS_OS 6853                
POS_BROWSER 7193                
POS_SCREENSIZE 9470                
POS_UNKNOWNREFERER 9544                
POS_UNKNOWNREFERERBROWSER 9821                
POS_ORIGIN 9983                
POS_SEREFERRALS 10130               
POS_PAGEREFS 10367               
POS_SEARCHWORDS 12493               
POS_KEYWORDS 12645               
POS_MISC 2445                
POS_ERRORS 12704               
POS_CLUSTER 4184                
POS_SIDER_403 12807               
POS_SIDER_400 12889               
POS_SIDER_404 12971               
END_MAP

# LastLine    = Date of last record processed - Last record line number in last log - Last record offset in last log - Last record signature value
# FirstTime   = Date of first visit for history file
# LastTime    = Date of last visit for history file
# LastUpdate  = Date of last update - Nb of parsed records - Nb of parsed old records - Nb of parsed new records - Nb of parsed corrupted - Nb of parsed dropped
# TotalVisits = Number of visits
# TotalUnique = Number of unique visitors
# MonthHostsKnown   = Number of hosts known
# MonthHostsUnKnown = Number of hosts unknown
BEGIN_GENERAL 8
LastLine 20190201010843 1 0 16135770054356
FirstTime 20190101000138
LastTime 20190131191007
LastUpdate 20190202045742 1 0 0 0 0
TotalVisits 2244                
TotalUnique 464                 
MonthHostsKnown 340                 
MonthHostsUnknown 151                 
END_GENERAL

# Misc ID - Pages - Hits - Bandwidth
BEGIN_MISC 10
QuickTimeSupport 0 0 0
JavaEnabled 0 0 0
JavascriptDisabled 0 0 0
PDFSupport 0 0 0
WindowsMediaPlayerSupport 0 0 0
AddToFavourites 0 0 0
RealPlayerSupport 0 0 0
TotalMisc 0 0 0
DirectorSupport 0 0 0
FlashSupport 0 0 0
END_MISC

# Hour - Pages - Hits - Bandwidth - Not viewed Pages - Not viewed Hits - Not viewed Bandwidth
BEGIN_TIME 24
0 134 134 359564 75 155 322826
1 114 135 462511 70 97 182511
2 105 114 265030 113 144 216587
3 118 142 531154 31 58 146915
4 115 137 348117 42 93 131745
5 127 127 349534 33 50 432774
6 109 109 277006 35 87 990441
7 129 129 328778 76 114 380825
8 112 114 278158 62 88 282862
9 105 106 340254 63 116 375287
10 105 113 285157 80 125 162321
11 101 153 686402 35 69 908310
12 97 119 292291 42 57 255324
13 117 190 788590 39 74 148773
14 140 230 13531080 25 64 895370
15 127 209 1578980 46 80 424210
16 136 187 540379 27 79 272290
17 131 131 337335 33 70 258030
18 99 99 252897 35 80 91084
19 127 206 881932 29 48 89853
20 127 175 903330 50 104 789440
21 106 233 1589492 54 82 192576
22 106 142 933463 28 47 1118656
23 111 306 2294633 67 106 232993
END_TIME

# Domain - Pages - Hits - Bandwidth
# The 10 first Pages must be first (order not required for others)
BEGIN_DOMAIN 33
com 2023 2113 5370707
ip 394 543 2533623
net 139 160 662155
jp 71 703 12042879
ru 70 70 199604
by 11 11 42623
ua 10 10 62896
su 9 9 29301
eu 8 8 24834
de 6 34 923046
uk 3 3 10440
cn 2 2 8396
lv 1 1 2346
in 2 2 5726
id 3 3 9671
th 2 2 5860
org 3 3 12659
br 3 3 8168
cz 2 2 16376
edu 4 4 11478
be 0 1 34027
pro 3 3 10087
md 4 4 14080
adsl 1 1 2908
local 1 1 3955
us 1 1 4630
za 3 3 9659
pl 4 4 9098
ca 2 2 5678
host 2 2 8585
arpa 1 1 3955
se 6 27 181701
lu 4 4 11384
END_DOMAIN

# Cluster ID - Pages - Hits - Bandwidth
BEGIN_CLUSTER 0
END_CLUSTER

# Login - Pages - Hits - Bandwidth - Last visit
# The 10 first Pages must be first (order not required for others)
BEGIN_LOGIN 0
END_LOGIN

# Robot ID - Hits - Bandwidth - Last visit - Hits on robots.txt
# The 10 first Hits must be first (order not required for others)
BEGIN_ROBOT 38
bingbot/ 288 2064895 20190131150736 0
MSIE[\x20]6 238 554597 20190131195152 0
bingpreview 174 465572 20190129060128 0
BLEXBot/ 76 155342 20190125011338 0
Googlebot/ 70 124516 20190130232321 0
bot[\s_+:,\.\;\/\\-] 49 250193 20190130213631 0
360Spider 37 91024 20190129092036 0
AhrefsBot/ 36 266732 20190131122202 0
no_user_agent 33 641154 20190131225831 0
Baiduspider/ 32 79598 20190131094740 0
Googlebot\-Image/ 3 871 20190114031805 0
(firefox/)([0-9]\.|[0-1][0]\.) 2 6976 20190119085601 0
^Mozilla/(.*)Beta[\x20]\(Windows\) 9 35595 20190107111256 0
MSIE[\x20]5 25 98875 20190112021801 0
DotBot/ 24 206242 20190130222752 0
MegaIndex\.ru/ 31 58608 20190111100850 0
curl 2 9260 20190109012405 0
SemrushBot/ 30 58964 20190131200458 0
Apache\-HttpClient/ 15 35190 20190102211752 0
YandexBot/ 17 39882 20190131042852 0
steeler 2 2346 20190113235924 0
twitterbot 4 10821 20190124203743 0
crawler4j 31 58608 20190116070320 0
MJ12bot/ 12 55917 20190130124816 0
Applebot/ 3 7038 20190126024142 0
CCBot/ 24 59200 20190121144740 0
Babya[\x20]Discoverer 9 35595 20190114065259 0
CFNetwork 1 2346 20190115135109 0
Deepnet[\x20]Explorer 6 23730 20190111073830 0
Sogou[\x20]web[\x20]spider/ 23 16422 20190131021228 0
DomainCrawler/ 1 4630 20190102091811 0
python 13 32274 20190128011909 0
MSIE[\x20]2 3 11865 20190113003404 0
archive\.org_bot 19 50217 20190131062906 0
java 1 4630 20190124135406 0
SafeDNSBot 5 9676 20190127105759 0
MSIE[\x20]3 8 31640 20190114195042 0
facebookexternalhit/ 13 3613226 20190129143914 0
END_ROBOT

# Worm ID - Hits - Bandwidth - Last visit
# The 5 first Hits must be first (order not required for others)
BEGIN_WORMS 0
END_WORMS

# EMail - Hits - Bandwidth - Last visit
# The 20 first Hits must be first (order not required for others)
BEGIN_EMAILSENDER 0
END_EMAILSENDER

# EMail - Hits - Bandwidth - Last visit
# The 20 first hits must be first (order not required for others)
BEGIN_EMAILRECEIVER 0
END_EMAILRECEIVER

# Files type - Hits - Bandwidth - Bandwidth without compression - Bandwidth after compression
BEGIN_FILETYPES 9
css 280 212524 0 0
png 24 1565572 0 0
cgi 275 619315 0 0
swf 1 11307 0 0
php 2511 6656710 0 0
html 12 30769 0 0
jpg 163 5140017 0 0
js 33 80264 0 0
gif 441 1812525 0 0
END_FILETYPES

# Downloads - Hits - Bandwidth
BEGIN_DOWNLOADS 1
/discography/mp3/works2_1-1.mp3 0 1 6153532
END_DOWNLOADS

# OS ID - Hits
BEGIN_OS ID - Hits - Pages 20
linuxandroid 199 20
winlong 27 11
winxp 63 63
macosx11 3 3
ios_iphone 182 23
winunknown 3 3
win2003 3 3
macosx9 7 7
win8 30 30
ios_ipad 15 2
unix 3 3
macosx12 84 15
linux 748 649
win7 1079 984
macosx 813 627
macosx10 10 10
win8.1 94 90
win10 371 248
Unknown 4 4
macosx8 3 3
END_OS

# Browser ID - Hits - Pages
BEGIN_BROWSER 110
safari7.0.3 2 2
firefox57.0 1 1
firefox28.0 4 4
chrome61.0.3143.0 1 1
webcapture 3 3
chrome52.0.2743.116 5 5
chrome34.0.1847.137 3 3
chrome35.0.1916.99 2 2
chrome69.0.3497.81 4 4
chrome39.0.2171.95 9 9
firefox18.0 2 2
firefox34.0 1 1
chrome58.0.3029.110 8 8
msie8.0 7 7
firefox64.0 85 12
msie7.0 31 15
firefox59.0 1 1
chrome50.0.2661.102 4 4
chrome60.0.3112.101 2 2
chrome70.0.3538.80 58 8
opera54.0.2952.51 34 34
chrome66.0.3359.181 57 57
chrome70.0.3538.102 29 1
chrome49.0.2623.112 13 13
opera9.0 3 3
chrome65.0.3325.181 16 16
firefox50.0 2 2
edge17 35 13
firefox48.0 1 1
opera7.11 3 3
chrome33.0.1750.152 3 3
opera12.16 2 2
firefox42.0 451 451
chrome44.0.4756.717 1 1
chrome34.0.1847.131 6 6
chrome68.0.3440.106 92 71
chrome63.0.3239.132 14 14
opera9.01 3 3
firefox29.0 7 7
chrome62.0.3202.94 4 4
chrome71.0.3578.83 32 2
chrome32.0.1700.107 1 1
firefox47.0 3 3
chrome60.0.3112.113 1 1
chrome53.0.2834.76 2 2
safari12.0.2 94 9
firefox33.0 1 1
mozilla 1 1
netscape5.0 22 0
chrome68.0.3440.84 34 34
chrome56.0.2928.41 1 1
chrome37.0.0.0 1 1
chrome64.0.3282.186 2 2
chrome41.0.2228.0 1 1
opera38.0.2220.41 468 468
firefox36.0 2 2
safari 481 481
chrome64.0.3396.62 1 1
safari7.0 4 4
chrome67.0.3396.87 42 40
safari11.0 53 3
android 1 1
chrome68.0.3440.75 15 15
chrome67.0.3396.79 508 508
safari12.0 52 5
opera55.0.2994.44 24 24
chrome71.0.3578.98 125 9
opera9.00 9 9
firefox24.0 1 1
chrome63.0.3239.0 21 0
iphone 48 8
firefox62.0 1 1
edge16 21 21
chrome45.0.2454.93 1 1
chrome34.0.1847.116 12 12
chrome40.0.2214.85 4 4
chrome71.0.3578.99 82 5
chrome33.0.1750.154 1 1
chrome33.0.1750.146 2 2
msie9.0 31 10
Unknown 2 2
firefox27.0 6 6
chrome46.0.7865.723 1 1
netscape4.61 3 3
opera44.6.1932.6104 1 1
chrome22.0.1216.0 2 2
opera54.0.2952.71 31 31
opera53.0.2907.99 32 32
opera8.00 3 3
opera53.0.2907.68 20 20
safari6.1.3 1 1
firefox58.0 2 2
opera8.01 3 3
safari11.0.2 56 8
firefox61.0 2 2
chrome41.0.2227.1 1 1
msie11.0 44 4
opera54.0.2952.54 24 24
chrome67.0.3396.99 54 54
safari9.0 18 5
chrome71.0.3563.0 9 1
chrome48.0.2564.109 7 7
opera53.0.2907.106 20 20
opera54.0.2952.64 36 36
chrome70.0.3538.110 99 8
chrome69.0.3497.100 23 1
opera19.0.1326.63 2 2
chrome65.0.3325.146 15 15
opera42.0.4185.9813 1 1
chrome67.0.3396.62 8 8
END_BROWSER

# Screen size - Hits
BEGIN_SCREENSIZE 0
END_SCREENSIZE

# Unknown referer OS - Last visit date
BEGIN_UNKNOWNREFERER 4
Scrapy/1.5.1_(_https://scrapy.org) 20190129125019
Mozilla/5.0_Firefox/33.0 20190103191727
Mozilla/5.0_(compatible;_Google-Site-Verification/1.0) 20190123220321
}__test|O:21:\ 20190104050052
END_UNKNOWNREFERER

# Unknown referer Browser - Last visit date
BEGIN_UNKNOWNREFERERBROWSER 2
Scrapy/1.5.1_(_https://scrapy.org) 20190129125019
}__test|O:21:\ 20190104050052
END_UNKNOWNREFERERBROWSER

# Origin - Pages - Hits 
BEGIN_ORIGIN 6
From0 2010 2033
From1 3 3
From2 19 52
From3 134 134
From4 632 1519
From5 0 0
END_ORIGIN

# Search engine referers ID - Pages - Hits
BEGIN_SEREFERRALS 5
search_yahoo_co_jp 8 8
yahoo_catchall 0 28
bing 0 1
www_google_co_jp 3 4
www_google_com 8 11
END_SEREFERRALS

# External page referers - Pages - Hits
# The 10 first Pages must be first (order not required for others)
BEGIN_PAGEREFS 57
http://gizmoseo.com 43 43
http://narosty.com 6 6
https://tamada69.com 6 6
https://moyparnik.com 3 3
https://francaise-poesie.com 3 3
https://jav-fetish.site 3 3
https://pornhive.org 3 3
http://www.anabolics.shop 3 3
http://gidonline.one 3 3
https://doggyhealthy.com 3 3
http://sexy.lesbians.fetlifeblog.com 1 1
http://busty.ponstars.instasexyblog.com 1 1
http://brazil.porn.bloglag.com 1 1
http://striptis.top 1 1
http://online.dating.bloglag.com 1 1
http://lesbian.porno.relayblog.com 1 1
http://cut.kid.porn.xblognetwork.com 1 1
https://pyr.am/id-dial/chiyuki-murakata.com 2 2
https://www.facebook.com 2 2
http://onebetbest.com/push.php 1 1
http://lesbian.forced.hotblognetwork.com 1 1
http://titki.top 1 1
http://younglesbians.freepornvid.relayblog.com 1 1
http://lesbian.twins.bloglag.com 1 1
https://bitbon.club 1 1
https://evercar.biz 1 1
http://lesbian.bbw.fetlifeblog.com 1 1
http://ebony.porn.hotblognetwork.com 1 1
http://muslim.dating.allproblog.com 1 1
https://prom-electric.ru/articles/8/ 1 1
https://gamp-ameblo-jp.cdn.ampproject.org 1 1
http://sexsigirls.com 1 1
http://pornvideoclips.bestsexyblog.com 1 1
http://porn.galleries.bloglag.com 1 1
http://mandolin-hibiki.sakura.ne.jp/report001.html 1 1
https://painting-planet.com 3 3
http://porn.thumbs.relayblog.com 1 1
http://uk.porn.relayblog.com 1 1
http://mongolian.porn.instakink.com 1 1
http://black.gay.porn.bestsexyblog.com 1 1
http://mature.dating.relayblog.com 1 1
http://porn.gallery.allproblog.com 1 1
http://porn.atarrs.relayblog.com 1 1
https://ja.wikipedia.org 1 1
http://blonds.sexy.instasexyblog.com 1 1
http://lesbianchatroom.instakink.com 1 1
https://anticancer24.ru/shop/gepatity/gepati-s 1 1
http://porn.bahrain.bloglag.com 1 1
https://engpoetry.com 3 3
http://naked.lesbian.instasexyblog.com 1 1
http://porn.hub.allproblog.com 1 1
http://milf.pronstars.allproblog.com 1 1
http://rus-pornuha.com 1 1
https://sel-hoz.com 3 3
https://javcoast.com 3 3
http://marshag.ru 2 2
http://vopinc.org 1 1
END_PAGEREFS

# Search keyphrases - Number of search
# The 10 first number of search must be first (order not required for others)
BEGIN_SEARCHWORDS 0
END_SEARCHWORDS

# Search keywords - Number of search
# The 10 first number of search must be first (order not required for others)
BEGIN_KEYWORDS 0
END_KEYWORDS

# Errors - Hits - Bandwidth
BEGIN_ERRORS 2
404 597 12173
301 64 15563
END_ERRORS

# URL with 403 errors - Hits - Last URL referrer
BEGIN_SIDER_403 0
END_SIDER_403

# URL with 400 errors - Hits - Last URL referrer
BEGIN_SIDER_400 0
END_SIDER_400

# URL with 404 errors - Hits - Last URL referrer
BEGIN_SIDER_404 8
/webstat/usage_201811 1 -
/sitemap.xml 1 -
/robots.txt 11 -
/webalizer/usage_201811.html 1 -
/wp-content/plugins/image-clipboard/readme.txt 1 -
/.well-known/assetlinks.json 1 -
/stats/usage_201811.html 1 -
/plesk-stat/webstat/usage_201811.html 1 -
END_SIDER_404

# Host - Pages - Hits - Bandwidth - Last visit date - [Start date of last visit] - [Last page of last visit]
# [Start date of last visit] and [Last page of last visit] are saved only if session is not finished
# The 10 first Hits must be first (order not required for others)
BEGIN_VISITOR 491
ec2-3-17-77-122.us-east-2.compute.amazonaws.com 94 94 220524 20190114183142
ec2-18-219-24-122.us-east-2.compute.amazonaws.com 93 93 218178 20190114173131
ec2-13-58-1-116.us-east-2.compute.amazonaws.com 92 92 215832 20190114163133
ec2-18-218-140-102.us-east-2.compute.amazonaws.com 90 90 211140 20190114170145
ec2-3-16-83-119.us-east-2.compute.amazonaws.com 85 85 199410 20190114130136
ec2-18-219-132-167.us-east-2.compute.amazonaws.com 77 77 180642 20190114193142
ec2-18-218-1-84.us-east-2.compute.amazonaws.com 72 72 168912 20190114083148
ec2-18-224-59-51.us-east-2.compute.amazonaws.com 61 61 143106 20190114110144
no-mans-land.m247.com 56 56 153446 20190129055736
185.220.70.165 24 24 68500 20190130062459
ec2-3-16-164-152.us-east-2.compute.amazonaws.com 7 7 16422 20190127003316
ns3312027.ip-5-135-164.eu 1 1 3955 20190117105542
sp49-98-149-93.msd.spmode.ne.jp 8 56 619338 20190118214702
89.238.131.155 2 2 5608 20190119005809
176-8-90-138.broadband.kyivstar.net 2 2 5946 20190117065105
46.56.68.180 2 2 6030 20190107190144
ec2-3-16-138-5.us-east-2.compute.amazonaws.com 9 9 21114 20190127060336
ip-89-177-36-70.net.upcbroadband.cz 2 2 16376 20190121191909
66-231-15-51.rev.cloud.scaleway.com 1 1 2346 20190113063509
ec2-3-17-141-2.us-east-2.compute.amazonaws.com 6 6 14076 20190126183240
crawl.125-209-235-184.web.naver.com 0 5 93384 
ec2-13-59-15-248.us-east-2.compute.amazonaws.com 11 11 25806 20190129050313
ec2-3-17-39-199.us-east-2.compute.amazonaws.com 13 13 30498 20190129140323
185.220.102.8 2 2 5718 20190127001113
109-184-176-191.dynamic.mts-nn.ru 4 4 10950 20190102212411
tor-exit3-readme.dfri.se 1 22 169971 20190112112035
snpof.host1dns.com 11 11 43176 20190131031406
undefined.elite-net.org 3 3 12659 20190126111409
ori.enn.lu 2 2 5738 20190104141226
ec2-34-221-83-108.us-west-2.compute.amazonaws.com 1 22 169971 20190115010857
crawl.125-209-235-185.web.naver.com 1 1 2346 20190105041804
ec2-18-217-147-149.us-east-2.compute.amazonaws.com 11 11 25806 20190129040351
static-212.56.193.118.mldnet.com 1 1 3955 20190113215024
sp49-98-148-230.msd.spmode.ne.jp 7 47 458764 20190120215022
176-8-89-33.broadband.kyivstar.net 2 2 9260 20190128054204
ec2-18-222-151-28.us-east-2.compute.amazonaws.com 9 9 21114 20190124152034
109-184-182-82.dynamic.mts-nn.ru 2 2 5896 20190113222359
145.255.21.196.dynamic.o56.ru 2 2 5346 20190116093939
62-210-83-78.rev.poneytelecom.eu 1 1 2346 20190129041918
ec2-3-17-110-73.us-east-2.compute.amazonaws.com 8 8 18768 20190118222119
46-211-126-124.mobile.kyivstar.net 2 2 6138 20190121080400
117.50.2.17 5 5 18520 20190124135406
ec2-52-14-145-245.us-east-2.compute.amazonaws.com 8 8 18768 20190126163312
mail.keyerleber.com 1 1 2346 20190104103532
ec2-3-16-22-104.us-east-2.compute.amazonaws.com 13 13 30498 20190126103259
no.rdns.greencloudvps.com 6 6 11788 20190114030713
ec2-3-16-25-235.us-east-2.compute.amazonaws.com 11 11 25806 20190125233254
exproxy013.pf.news.kks.yahoo-net.jp 0 1 46098 
167.88.97.41 1 1 2346 20190120044056
ec2-18-191-215-241.us-east-2.compute.amazonaws.com 10 10 23460 20190128140402
crawl.125-209-235-176.web.naver.com 0 6 30581 
ec2-18-191-182-120.us-east-2.compute.amazonaws.com 5 5 11730 20190129090336
kd182251253050.au-net.ne.jp 2 19 102554 20190129164038
ec2-52-90-235-182.compute-1.amazonaws.com 1 1 4630 20190102135226
101.91.60.106 1 1 4630 20190126080433
vm441978.had.su 2 2 5482 20190120135850
ec2-18-191-233-49.us-east-2.compute.amazonaws.com 11 11 25806 20190129010323
ec2-3-17-151-223.us-east-2.compute.amazonaws.com 6 6 14076 20190121215325
46.101.9.216 6 6 18116 20190105173840
46.166.143.100 18 18 49254 20190117162229
185.230.127.242 12 12 34294 20190130071447
ec2-18-219-233-161.us-east-2.compute.amazonaws.com 8 8 18768 20190123152053
83.97.23.181 2 2 5548 20190124201114
ec2-18-222-130-166.us-east-2.compute.amazonaws.com 14 14 32844 20190126230352
crawl.125-209-235-177.web.naver.com 0 4 7980 
infong695.clienthosting.eu 1 1 4630 20190107205211
178-168-92-117.starnet.md 2 2 8534 20190125153737
173.252.87.2 0 3 11813 
kd182251240045.au-net.ne.jp 2 32 264779 20190120131019
138.128.13.244 1 1 3955 20190119224858
vds27997.mgn-host.ru 1 1 2346 20190117173446
182.224-245-23.rdns.scalabledns.com 1 1 2346 20190113165415
ns526051.ip-158-69-241.net 1 1 2346 20190116070312
81.92.207.110 4 4 10928 20190111094922
ec2-13-59-196-155.us-east-2.compute.amazonaws.com 12 12 28152 20190127103322
109-184-182-197.dynamic.mts-nn.ru 2 2 5616 20190119000904
46-119-120-118.broadband.kyivstar.net 9 9 35595 20190103035950
ec2-52-15-224-251.us-east-2.compute.amazonaws.com 1 1 4630 20190103191727
ec2-13-58-240-96.us-east-2.compute.amazonaws.com 8 8 18768 20190120072147
37-115-119-51.broadband.kyivstar.net 1 1 3955 20190125014530
dist-if.malabar.cifo.net.id 1 1 3955 20190101222353
ec2-18-188-83-193.us-east-2.compute.amazonaws.com 16 16 37536 20190127123250
hn.kd.ny.adsl 1 1 2908 20190118044825
107.182.121.107 1 1 2346 20190120221509
185.93.180.227 1 1 2346 20190117132729
ec2-52-14-138-220.us-east-2.compute.amazonaws.com 9 9 21114 20190128210507
ec2-3-17-67-255.us-east-2.compute.amazonaws.com 14 14 32844 20190129003316
31.184.238.56 3 3 22377 20190122004525
185.220.101.46 1 1 3955 20190126051626
ec2-3-17-109-151.us-east-2.compute.amazonaws.com 13 13 30498 20190127093300
ec2-13-58-141-246.us-east-2.compute.amazonaws.com 10 10 23460 20190125033617
93.188.34.197.cl.ipnet.ua 2 2 7910 20190113013446
www4014gj.sakura.ne.jp 1 1 5181 20190126045504
ec2-18-191-16-77.us-east-2.compute.amazonaws.com 17 17 39882 20190128033310
176.109.115.219 2 2 12256 20190126204427
ec2-18-221-76-172.us-east-2.compute.amazonaws.com 13 13 30498 20190128130339
31.184.238.101 2 2 5502 20190108153530
31.13.115.10 1 7 12507 20190131191007
89-28-12-62.starnet.md 2 2 5546 20190112092321
185.234.219.246 10 10 37978 20190129220054
ec2-18-217-199-81.us-east-2.compute.amazonaws.com 15 15 35190 20190129063302
46-246-25-86-static.glesys.net 2 2 14034 20190125094119
rate-limited-proxy-72-14-199-6.google.com 1 1 2346 20190123220321
ec2-3-16-54-147.us-east-2.compute.amazonaws.com 8 8 18768 20190116165125
ec2-18-222-222-174.us-east-2.compute.amazonaws.com 11 11 25806 20190126023350
ec2-18-222-89-148.us-east-2.compute.amazonaws.com 3 3 7038 20190127113445
178.162.204.238 2 2 9260 20190107194501
46-119-125-153.broadband.kyivstar.net 3 3 11865 20190101051149
secondimpression.dedicated.co.za 3 3 9659 20190131144119
planetlab5.net.in.tum.de 4 4 0 20190125045704
1.179.157.237 1 1 3955 20190119182307
ec2-3-16-78-133.us-east-2.compute.amazonaws.com 8 8 18768 20190127233300
vm441960.had.su 2 2 6580 20190121121918
206.223.237.58 1 1 2346 20190121072059
s1.ru 4 4 0 20190109172451
46-211-121-30.mobile.kyivstar.net 2 2 6044 20190102202729
infong503.perfora.net 1 1 4630 20190108044310
ec2-54-202-160-207.us-west-2.compute.amazonaws.com 2 2 2859 20190121011319
107-190-168-57.oppobox.com 1 1 2346 20190123000215
109-184-167-143.dynamic.mts-nn.ru 2 2 5484 20190111111159
tor22.quintex.com 2 2 5724 20190105032917
zaqb4dc94b7.zaq.ne.jp 1 22 169971 20190102222522
ec2-18-220-176-8.us-east-2.compute.amazonaws.com 8 8 18768 20190129033303
exproxy006.pf.news.kks.yahoo-net.jp 0 1 55807 
109-184-182-95.dynamic.mts-nn.ru 2 2 6750 20190110173528
ec2-18-188-98-200.us-east-2.compute.amazonaws.com 16 16 37536 20190129080314
ec2-18-234-47-74.compute-1.amazonaws.com 9 9 24823 20190119002349
194.113.106.126 2 2 9260 20190103134435
173.252.87.10 1 10 19192 20190107194404
91.221.211.151 8 8 28971 20190124010137
ec2-18-225-9-116.us-east-2.compute.amazonaws.com 9 9 21114 20190129103316
ec2-18-218-118-227.us-east-2.compute.amazonaws.com 4 4 9384 20190128183252
134-249-52-146.broadband.kyivstar.net 3 3 11865 20190109130826
ec2-3-16-79-196.us-east-2.compute.amazonaws.com 11 11 25806 20190128220305
cny124.neoplus.adsl.tpnet.pl 2 2 4630 20190124155532
ec2-3-16-49-127.us-east-2.compute.amazonaws.com 5 5 11730 20190117022246
dsl.49.150.213.199.pldt.net 2 2 5638 20190117185616
185.104.184.126 2 2 5458 20190119021442
tollana.enn.lu 2 2 5646 20190103021657
ngn8-ppp1971.tokyo.sannet.ne.jp 8 56 561734 20190112202300
crawl.125-209-235-182.web.naver.com 1 15 34658 20190112034642
ec2-18-217-76-214.us-east-2.compute.amazonaws.com 9 9 21114 20190128170348
tor00.telenet.unc.edu 2 2 5712 20190106150453
ec2-3-16-48-71.us-east-2.compute.amazonaws.com 7 7 16422 20190129093315
209.209.227.151 2 2 4692 20190123132734
ec2-3-81-53-18.compute-1.amazonaws.com 1 1 4630 20190109222113
37-115-190-73.broadband.kyivstar.net 2 2 9260 20190103185732
67.0a.39a9.ip4.static.sl-reverse.com 1 1 1774 20190101003645
176.100.111.30 1 1 3955 20190131145353
36.89.128.125 1 1 3955 20190108122856
exit3.tor-network.net 2 2 5748 20190131004636
ec2-13-59-157-70.us-east-2.compute.amazonaws.com 15 15 35190 20190128133307
38.38.089f.ip4.static.sl-reverse.com 1 1 1774 20190109002650
ec2-18-191-249-115.us-east-2.compute.amazonaws.com 13 13 30498 20190128010337
5.8.47.2 4 4 18520 20190127072212
193.201.224.220 3 3 9543 20190125162029
ec2-18-223-122-203.us-east-2.compute.amazonaws.com 12 12 28152 20190128173255
vmi102409.contabo.host 2 2 8585 20190125200915
secret.tablecorporationsentity.com 2 2 4692 20190119142128
mm-23-94-214-37.mogilev.dynamic.pppoe.byfly.by 2 2 6522 20190117122150
207.189.0.94 6 6 16366 20190124174811
222.52.76.50 1 1 3955 20190130174211
23.229.64.102 1 1 2346 20190123164544
213.32.254.190 1 1 3955 20190107153604
31.28.163.44 2 2 9260 20190123000812
110.163.251.11 1 17 41788 20190111195017
145.255.0.103.dynamic.ufanet.ru 1 1 3955 20190102172817
pw126035215210.25.panda-world.ne.jp 1 10 94808 20190105111438
crawl.125-209-235-171.web.naver.com 1 1 2346 20190112034645
195-211-218-5-client.sctv.ru 2 2 6144 20190131093142
46-118-156-40.broadband.kyivstar.net 6 6 23730 20190109061949
ec2-54-166-184-127.compute-1.amazonaws.com 1 1 4630 20190102144940
sp1-72-5-139.msc.spmode.ne.jp 1 23 52511 20190107134315
188-165-242-30.serverhub.ru 1 1 2908 20190107114132
45.125.65.45 2 2 5698 20190114095710
ec2-18-223-182-11.us-east-2.compute.amazonaws.com 8 8 18768 20190129020351
185.220.101.27 2 2 5746 20190102131718
crawl.125-209-235-170.web.naver.com 1 1 2346 20190126030514
ns380050.ip-188-165-240.eu 3 3 9273 20190129020452
109.172.196.234 2 2 29052 20190106205533
ec2-18-191-251-234.us-east-2.compute.amazonaws.com 13 13 30498 20190126130330
ec2-18-219-132-254.us-east-2.compute.amazonaws.com 7 7 16422 20190129043313
ec2-18-223-117-68.us-east-2.compute.amazonaws.com 13 13 30498 20190129053303
206.223.242.35 1 1 2346 20190119033303
155.254.122.175 1 1 2346 20190124032508
31.13.115.2 0 3 112915 
crawl.125-209-235-173.web.naver.com 1 5 27063 20190105041802
155.254.118.95 2 2 4692 20190118190424
185.17.149.157 16 16 43904 20190131051658
144.168.162.250 1 1 4630 20190104130232
31.13.115.3 0 4 4536 
47.74.186.195 2 2 5468 20190125203958
120.92.174.37 2 2 2463 20190121023312
colo-185.altnet.lv 1 1 2346 20190129125019
185.17.149.173 4 4 10908 20190120154254
155.254.126.49 1 1 2346 20190121043109
88-147-153-5.dynamic.153.147.88.in-addr.arpa 1 1 3955 20190115184454
ec2-18-224-21-166.us-east-2.compute.amazonaws.com 12 12 28152 20190129073343
81.162.98.175 2 2 6940 20190104073109
220.243.136.176 1 1 2908 20190116082638
p1835128-ipngn13901hodogaya.kanagawa.ocn.ne.jp 7 55 616430 20190119154150
207.245-89-23.rdns.scalabledns.com 1 1 2346 20190121134719
209.209.225.78 1 1 2346 20190119084921
181.214.182.79 1 1 2346 20190103161356
ec2-18-222-208-48.us-east-2.compute.amazonaws.com 12 12 28152 20190123175114
23.236.231.225 1 1 2346 20190121165748
109x195x150x128.static-business.ufa.ertelecom.ru 2 2 5704 20190126224804
ec2-18-219-245-160.us-east-2.compute.amazonaws.com 15 15 35190 20190128023346
ec2-18-216-87-106.us-east-2.compute.amazonaws.com 10 10 23460 20190128190328
i118-21-137-85.s30.a048.ap.plala.or.jp 1 17 41788 20190129160227
ec2-18-188-69-138.us-east-2.compute.amazonaws.com 6 6 14076 20190124105259
ec2-18-191-64-16.us-east-2.compute.amazonaws.com 8 8 18768 20190126053307
178-116-71-7.access.telenet.be 0 1 34027 
ai126246052057.62.access-internet.ne.jp 1 22 169971 20190106193519
185.17.149.177 12 12 32764 20190106201447
185.220.102.7 2 2 5692 20190101153351
ns316491.ip-37-187-129.eu 1 1 0 20190112112033
ofscd-05p7-165.ppp11.odn.ad.jp 1 23 52511 20190118233702
ec2-3-17-61-196.us-east-2.compute.amazonaws.com 2 2 4692 20190105003421
178.171.42.232 1 1 2346 20190131110219
31.13.115.9 0 3 6877 
183.red-88-21-196.staticip.rima-tde.net 1 1 0 20190104023421
193.106.30.98 1 1 2346 20190117070152
104.192.74.234 9 100 954566 20190104232121
host.uic.in.ua 8 8 54986 20190121102739
ec2-3-17-140-127.us-east-2.compute.amazonaws.com 5 5 11730 20190122092207
107-181-78-172.contina.com 14 14 38290 20190109164157
209.209.226.199 1 1 2346 20190116175152
exit05.brasshorncomms.uk 2 2 5810 20190118132947
ec2-3-17-58-50.us-east-2.compute.amazonaws.com 19 19 44574 20190129030324
tor-exit.willexplo.de 2 2 5782 20190122052513
173.252.87.4 0 3 111837 
89.108.135.138 2 2 6854 20190101193357
kd124209240232.ppp-bb.dion.ne.jp 1 23 52511 20190113045257
tor43.quintex.com 1 1 2346 20190128203120
ec2-18-219-102-78.us-east-2.compute.amazonaws.com 3 3 7038 20190121152117
exproxy014.pf.news.kks.yahoo-net.jp 0 1 37649 
ec2-18-188-240-21.us-east-2.compute.amazonaws.com 12 12 28152 20190126153307
247.245-89-23.rdns.scalabledns.com 1 1 2346 20190120143928
crawl.125-209-235-179.web.naver.com 0 1 20790 
109-184-213-30.dynamic.mts-nn.ru 2 2 5778 20190127164621
23.250.23.180 1 1 2346 20190123201650
ec2-18-191-27-77.us-east-2.compute.amazonaws.com 8 8 18768 20190128150356
ec2-35-172-186-251.compute-1.amazonaws.com 1 1 2346 20190113132020
tor44.quintex.com 1 1 2346 20190128203110
ec2-18-223-171-194.us-east-2.compute.amazonaws.com 8 8 18768 20190124145226
93-120-138-228.dynamic.mts-nn.ru 3 3 10968 20190126035512
206.223.249.58 1 1 2346 20190122104439
ec2-52-15-139-194.us-east-2.compute.amazonaws.com 3 3 7038 20190117035330
ec2-3-17-12-72.us-east-2.compute.amazonaws.com 7 7 16422 20190127150320
109-184-192-76.dynamic.mts-nn.ru 2 2 5556 20190123220523
185.189.113.38 2 2 5416 20190131090532
ec2-18-218-231-141.us-east-2.compute.amazonaws.com 10 10 23460 20190127073315
107.182.121.249 1 1 2346 20190119215444
209.209.224.45 1 1 2346 20190120110043
ec2-34-239-228-27.compute-1.amazonaws.com 1 3 4630 20190127083643
ec2-18-218-76-175.us-east-2.compute.amazonaws.com 10 10 23460 20190117185006
46-119-123-101.broadband.kyivstar.net 2 2 6160 20190106130849
155.254.124.135 2 2 4692 20190122043259
ec2-18-222-194-146.us-east-2.compute.amazonaws.com 14 14 32844 20190122035058
crawl.125-209-235-174.web.naver.com 0 3 43001 
14.143.30.202.static-delhi.vsnl.net.in 2 2 5726 20190124012154
p13053-ipngn3801hodogaya.kanagawa.ocn.ne.jp 2 19 102554 20190110144645
185.230.127.240 2 2 5692 20190102000118
promote.cache-dns.local 1 1 3955 20190120073353
46-118-126-87.broadband.kyivstar.net 2 2 9260 20190108042533
58.subnet-103.23.101.host.unnes.ac.id 2 2 5716 20190118193046
crawl.125-209-235-181.web.naver.com 1 3 4314 20190126030511
sogouspider-106-120-173-79.crawl.sogou.com 0 16 10938 
95.71.47.151 2 2 5472 20190118155633
178-17-166-149.static.as43289.net 2 2 5692 20190101053919
ec2-18-217-75-8.us-east-2.compute.amazonaws.com 12 12 28152 20190126233259
ec2-18-222-145-63.us-east-2.compute.amazonaws.com 12 12 28152 20190129070401
193.106.231.145.fiberlink.pl 1 1 3955 20190119072042
62.210.80.127 5 5 16098 20190124054719
ec2-18-223-117-225.us-east-2.compute.amazonaws.com 8 8 18768 20190129133308
185.104.184.116 4 4 11008 20190117154214
exproxy004.pf.news.kks.yahoo-net.jp 0 1 17666 
5.188.62.5 1 1 2346 20190108193227
31.184.238.107 6 6 21722 20190130133302
outgoing2.gridhost.co.uk 1 1 4630 20190107211528
206.223.226.64 2 2 4692 20190123073236
dynamicip-37-113-180-107.pppoe.chel.ertelecom.ru 6 6 16870 20190121011125
vm441996.had.su 1 1 3955 20190120203049
185.14.193.2 6 6 27780 20190131011857
31.28.161.30 2 2 9260 20190120102827
185.220.102.4 2 2 5772 20190117082744
ec2-3-16-21-14.us-east-2.compute.amazonaws.com 7 7 16422 20190127130253
185.212.171.147 4 4 11016 20190103053437
p178101.amixcom.jp 0 1 34027 
206.223.249.168 1 1 2346 20190121103258
179-192-145-178.user.veloxzone.com.br 1 1 2346 20190120084407
ec2-18-219-100-132.us-east-2.compute.amazonaws.com 13 13 30498 20190126213250
62.149.29.54 1 1 3955 20190126024004
185.234.218.195 3 3 9359 20190126175235
81.92.207.95 2 2 5476 20190107190630
206.223.248.54 1 1 2346 20190123102123
5.158.235.11 1 1 3955 20190111042036
82-208-101-82.pg-nat-pool.mts-nn.ru 1 1 3955 20190119174433
ec2-18-218-2-161.us-east-2.compute.amazonaws.com 2 2 4692 20190103170419
177.204.85.203.static.gvt.net.br 2 2 5822 20190128101415
static.101.28.202.116.clients.your-server.de 0 14 458632 
192.171.255.52 2 2 5496 20190108164802
ec2-18-222-109-213.us-east-2.compute.amazonaws.com 2 2 4692 20190110125131
ec2-18-188-29-163.us-east-2.compute.amazonaws.com 12 12 28152 20190125083517
exit1.ipredator.se 5 5 11730 20190128203119
37-115-206-209.broadband.kyivstar.net 1 1 3955 20190101141509
ns3099982.ovh.net 2 2 5566 20190108064033
62.149.29.40 3 3 10127 20190129123134
181-56-15-51.rev.cloud.scaleway.com 1 1 2346 20190129084109
dynamicip-94-181-148-40.pppoe.penza.ertelecom.ru 1 1 4630 20190110231824
206.223.226.168 1 1 2346 20190122075147
23.236.231.244 1 1 2346 20190120183305
134-249-55-222.broadband.kyivstar.net 12 12 47460 20190112222200
ec2-54-91-76-176.compute-1.amazonaws.com 1 1 2346 20190123030103
ec2-3-17-163-202.us-east-2.compute.amazonaws.com 15 15 35190 20190127180338
82.102.18.150 2 2 5508 20190121081126
23.236.149.122 1 1 3955 20190113141313
31.13.115.1 0 3 10925 
p1036229-ipngn2303funabasi.chiba.ocn.ne.jp 0 1 55886 
mx-ll-171.6.245-140.dynamic.3bb.co.th 2 2 5860 20190127160950
tor-exit-anonymizer-05.appliedprivacy.net 2 2 5676 20190131025839
188-163-109-153.broadband.kyivstar.net 20 20 61306 20190128173201
95.224-245-23.rdns.scalabledns.com 1 1 2346 20190119182347
sg2nw8shg147.shr.prod.sin2.secureserver.net 1 1 4630 20190108044909
mm-249-6-212-37.vitebsk.dynamic.pppoe.byfly.by 1 1 3955 20190126034816
ec2-18-188-31-130.us-east-2.compute.amazonaws.com 12 12 28152 20190129130359
bcw61.slipteach.us 1 1 4630 20190127235913
185.17.149.163 10 10 27434 20190115150925
46-119-122-127.broadband.kyivstar.net 6 6 23730 20190114041942
crawl.125-209-235-169.web.naver.com 1 1 2346 20190119030132
185.220.101.7 2 2 5758 20190115064150
tor-exit.viking-1.vsif.ca 2 2 5678 20190126082906
ec2-18-216-253-174.us-east-2.compute.amazonaws.com 8 8 18768 20190129083329
ip-51-75-168.eu 1 1 4630 20190107185904
ec2-3-16-57-165.us-east-2.compute.amazonaws.com 9 9 21114 20190116212236
ec2-18-223-135-142.us-east-2.compute.amazonaws.com 9 9 21114 20190127023301
106.75.140.213 1 1 3955 20190130183325
mm-254-128-127-178.mgts.dynamic.pppoe.byfly.by 2 2 6902 20190101195631
ec2-18-223-108-8.us-east-2.compute.amazonaws.com 14 14 32844 20190128230330
fp839310ea.chbd215.ap.nuro.jp 5 52 604651 20190112234831
176.10.99.200 2 2 5778 20190109172148
ec2-18-216-245-139.us-east-2.compute.amazonaws.com 14 14 32844 20190127230351
216.158.206.3 1 1 2346 20190124122416
185.17.149.142 2 2 5466 20190108162311
ec2-13-59-244-237.us-east-2.compute.amazonaws.com 7 7 16422 20190120152050
ec2-18-222-105-94.us-east-2.compute.amazonaws.com 8 8 18768 20190125163522
134-249-215-31.broadband.kyivstar.net 4 4 15802 20190124152648
ec2-18-220-134-185.us-east-2.compute.amazonaws.com 7 7 16422 20190128180305
ec2-3-16-149-74.us-east-2.compute.amazonaws.com 10 10 23460 20190127223352
107.190.166.198 1 1 2346 20190123234944
167.88.106.108 1 1 2346 20190118225449
220.243.135.239 1 1 1822 20190116082638
ec2-18-188-211-54.us-east-2.compute.amazonaws.com 15 15 35190 20190124002239
dedic1215.hidehost.net 20 20 56418 20190130074122
ec2-3-85-140-249.compute-1.amazonaws.com 2 2 5327 20190104191435
ec2-18-221-14-40.us-east-2.compute.amazonaws.com 12 12 28152 20190121222317
ec2-18-216-206-239.us-east-2.compute.amazonaws.com 8 8 18768 20190129123249
ec2-18-216-89-236.us-east-2.compute.amazonaws.com 17 17 39882 20190128113327
207.189.0.77 2 2 5398 20190129140922
107-190-171-73.oppobox.com 1 1 2346 20190122003545
hrdcd-02p24-143.ppp11.odn.ad.jp 1 14 54257 20190111163252
fp9f1ca7c2.knge102.ap.nuro.jp 1 23 52511 20190125122525
te0222lan1.rev.em-net.ne.jp 1 18 100937 20190105155041
ec2-13-59-67-250.us-east-2.compute.amazonaws.com 15 15 35190 20190128003311
31-132-177-229.bks-tv.ru 1 1 3955 20190102143230
61.129.6.159 1 1 4630 20190124105421
5.188.210.35 2 2 5620 20190123144818
109-184-222-78.dynamic.mts-nn.ru 2 2 5794 20190119204214
206.223.238.245 1 1 2346 20190120074157
47.244.144.39 2 2 4120 20190106091219
vm441865.had.su 2 2 6528 20190120191112
ec2-3-17-140-40.us-east-2.compute.amazonaws.com 12 12 28152 20190127133250
206.223.246.37 1 1 2346 20190116072217
ec2-18-217-87-102.us-east-2.compute.amazonaws.com 11 11 25806 20190126220346
tor49.quintex.com 6 6 17240 20190125024433
mail.bituk.ru 3 3 9735 20190118151802
155.254.108.15 1 1 2346 20190120011848
87.103.155.104.bc.googleusercontent.com 2 2 6858 20190124031912
ec2-18-191-222-205.us-east-2.compute.amazonaws.com 12 12 28152 20190127160330
87.239.45.34 1 1 3955 20190101120516
93-120-164-102.dynamic.mts-nn.ru 2 2 5746 20190115130615
tor47.quintex.com 2 2 5750 20190118022824
vm495042.had.su 2 2 6756 20190129034143
l37-195-164-137.novotelecom.ru 5 5 14909 20190128074030
185.220.101.31 2 2 5728 20190109082732
176x214x143x121.dynamic.kursk.ertelecom.ru 1 1 3955 20190113003836
mm-85-133-127-178.mgts.dynamic.pppoe.byfly.by 2 2 7942 20190110090549
91.233.43.19 2 2 7910 20190123193703
ec2-54-200-190-145.us-west-2.compute.amazonaws.com 1 1 0 20190118005704
ec2-18-217-202-71.us-east-2.compute.amazonaws.com 6 6 14076 20190113234946
109-184-203-92.dynamic.mts-nn.ru 4 4 11286 20190113104027
106.75.140.78 1 1 3955 20190120054244
ec2-3-17-37-54.us-east-2.compute.amazonaws.com 7 7 16422 20190128103336
nat-161.23.intelsc.net 2 2 5654 20190102074033
193.169.145.66 2 2 5722 20190122015537
ec2-3-17-77-114.us-east-2.compute.amazonaws.com 10 10 23460 20190127163245
ec2-18-223-159-227.us-east-2.compute.amazonaws.com 9 9 21114 20190129023348
173.252.87.15 0 2 22211 
ec2-18-220-58-223.us-east-2.compute.amazonaws.com 16 16 37536 20190126113305
116.89.195.35.bc.googleusercontent.com 1 9 8475 20190123100512
185.104.184.114 2 2 5418 20190122052800
ec2-3-16-128-13.us-east-2.compute.amazonaws.com 11 11 25806 20190128153253
mm-178-48-214-37.mgts.dynamic.pppoe.byfly.by 2 2 6906 20190124070242
5.76.52.31 2 2 6090 20190124164528
ec2-18-191-37-80.us-east-2.compute.amazonaws.com 12 12 28152 20190129100341
109.62.162.178 2 2 5472 20190107045508
exproxy008.pf.news.kks.yahoo-net.jp 0 1 17666 
173.252.87.3 0 4 4918 
ec2-34-208-235-9.us-west-2.compute.amazonaws.com 1 1 4630 20190119154228
212.92.122.196 2 2 6844 20190118140918
ec2-18-223-44-6.us-east-2.compute.amazonaws.com 12 12 28152 20190128060337
213.183.32.174 2 2 6770 20190124045750
tor45.quintex.com 2 2 5706 20190106140220
ec2-18-222-191-184.us-east-2.compute.amazonaws.com 14 14 32844 20190129000337
155.254.122.177 1 1 2346 20190123035537
78-11-101-2.static.ip.netia.com.pl 1 1 513 20190106193826
104.248.4.193 1 1 4630 20190110133825
185.234.217.130 3 3 13890 20190104050052
107.190.173.11 2 2 4692 20190121013553
31.13.115.5 0 2 22211 
ec2-18-224-2-67.us-east-2.compute.amazonaws.com 9 9 21114 20190127053239
5x164x255x55.dynamic.nn.ertelecom.ru 2 2 5810 20190101163053
ec2-18-223-107-37.us-east-2.compute.amazonaws.com 11 11 25806 20190124135051
mm-242-244-122-178.mgts.dynamic.pppoe.byfly.by 2 2 10396 20190124025302
tor01.telenet.unc.edu 2 2 5766 20190101012234
ec2-3-17-65-61.us-east-2.compute.amazonaws.com 12 12 28152 20190129120338
ec2-18-223-188-123.us-east-2.compute.amazonaws.com 10 10 23460 20190129110341
tiger.mirohost.net 1 1 3955 20190126201359
91.205.239.219 6 6 18802 20190130180502
37.113.11.101 2 2 5540 20190114191329
37-115-146-51.broadband.kyivstar.net 3 3 11865 20190131175111
31.173.80.222 2 2 5568 20190116190641
ec2-13-58-137-107.us-east-2.compute.amazonaws.com 9 9 21114 20190125133525
mms.mtel-cg.com 1 1 3955 20190109041956
185.211.245.158 1 1 2346 20190116112735
ec2-18-224-70-96.us-east-2.compute.amazonaws.com 12 12 28152 20190128223516
170.81.236.2 2 2 5632 20190124115707
185-47-52-30.customer.comfortel.pro 3 3 10087 20190127161415
77.243.191.42 4 4 10922 20190122070832
static.88.30.202.116.clients.your-server.de 0 14 458632 
185.189.113.44 4 4 10840 20190131040831
ec2-18-216-12-224.us-east-2.compute.amazonaws.com 8 8 18768 20190126090254
kd106167054132.ppp-bb.dion.ne.jp 1 17 43564 20190127211851
unknown-host.yaltanet.ru 4 4 12638 20190115055147
ec2-18-223-23-251.us-east-2.compute.amazonaws.com 12 12 28152 20190129113248
ec2-18-221-138-103.us-east-2.compute.amazonaws.com 13 13 30498 20190127013322
60.191.38.77 3 3 9957 20190103100107
ec2-52-14-172-201.us-east-2.compute.amazonaws.com 11 11 25806 20190128063312
dns98.online.tj.cn 2 2 8396 20190121110906
188.124.241.91 2 2 7188 20190115014652
178-137-161-19.broadband.kyivstar.net 3 3 11865 20190101002256
ec2-3-17-72-18.us-east-2.compute.amazonaws.com 8 8 18768 20190128053322
exproxy012.pf.news.kks.yahoo-net.jp 0 1 39098 
62.149.29.37 2 2 5448 20190103061430
111-250-137-132.dynamic-ip.hinet.net 2 2 5414 20190129150634
23.229.64.30 1 1 2346 20190113044942
250.ip-54-39-97.net 1 1 3955 20190103190942
59-168-97-96.rev.home.ne.jp 5 40 452105 20190115231011
ec2-18-191-117-6.us-east-2.compute.amazonaws.com 6 6 14076 20190128143428
aa20111001946f573adb.userreverse.dion.ne.jp 12 85 6895581 20190131142803
ec2-52-15-80-96.us-east-2.compute.amazonaws.com 8 8 18768 20190128013253
tor4thepeople3.torexitnode.net 2 2 5786 20190101151257
nat.mxc.ru 2 2 5396 20190107104728
ec2-18-191-12-231.us-east-2.compute.amazonaws.com 12 12 28152 20190126030239
37-115-189-46.broadband.kyivstar.net 3 3 11865 20190113215538
ec2-35-155-227-129.us-west-2.compute.amazonaws.com 2 2 9260 20190110051312
117.191.11.73 1 1 3955 20190117005251
crawl.125-209-235-178.web.naver.com 0 2 6543 
ec2-34-219-229-22.us-west-2.compute.amazonaws.com 1 1 14820 20190131095840
212.92.121.157 2 2 6640 20190130164108
14-133-216-190.shizuoka1.commufa.jp 1 22 169971 20190102134953
ec2-18-191-144-104.us-east-2.compute.amazonaws.com 12 12 28152 20190126093311
191.101.140.251 1 1 2346 20190117165924
38.145.93.79 1 1 2346 20190110152918
5.76.53.243 2 2 7006 20190106001520
ec2-18-221-190-171.us-east-2.compute.amazonaws.com 5 5 11730 20190124022317
softbank126216152064.bbtec.net 1 22 169971 20190105110633
31.184.238.9 2 2 5386 20190107174352
207.189.0.73 22 22 60170 20190129175040
ec2-18-222-106-157.us-east-2.compute.amazonaws.com 15 15 35190 20190129060335
crawl.125-209-235-180.web.naver.com 1 3 97110 20190119030135
87.101.94.116 2 2 9260 20190128045802
109-162-66-115.broadband.kyivstar.net 2 2 15626 20190126054244
ih1131167.vds.myihor.ru 3 3 9823 20190126010147
134-249-147-157.broadband.kyivstar.net 2 2 7904 20190110231416
56-56-240-80.krasnodar.ugtel.ru 1 1 1701 20190119182321
185.220.101.49 2 2 5748 20190126051718
178-137-163-222.broadband.kyivstar.net 2 2 6586 20190111090658
ec2-18-224-184-7.us-east-2.compute.amazonaws.com 5 5 11730 20190125073512
ec2-18-217-237-116.us-east-2.compute.amazonaws.com 16 16 37536 20190128203449
END_VISITOR

# Date - Pages - Hits - Bandwidth - Visits
BEGIN_DAY 31
20190101 72 72 192479 55
20190102 97 160 756681 75
20190103 137 138 374658 107
20190104 126 245 2164295 96
20190105 117 167 735969 98
20190106 120 141 481186 103
20190107 116 159 513085 94
20190108 90 92 269146 71
20190109 117 118 323921 96
20190110 119 137 398107 103
20190111 108 137 355414 88
20190112 138 275 1814863 103
20190113 131 153 381942 114
20190114 107 107 265054 87
20190115 71 127 784429 59
20190116 72 72 178600 63
20190117 71 73 177636 63
20190118 81 153 927435 63
20190119 93 141 836946 69
20190120 80 150 917344 66
20190121 87 87 246295 70
20190122 41 41 110588 35
20190123 81 89 213362 71
20190124 92 97 264859 67
20190125 66 88 232520 56
20190126 81 82 255293 68
20190127 71 89 225657 59
20190128 81 81 212062 63
20190129 74 107 336360 53
20190130 25 25 80371 13
20190131 36 137 13409510 16
END_DAY

# Session range - Number of visits
BEGIN_SESSION 7
1h+ 11
5mn-15mn 3
0s-30s 2113
2mn-5mn 2
15mn-30mn 45
30s-2mn 5
30mn-1h 65
END_SESSION

# URL - Pages - Bandwidth - Entry - Exit
# The 10 first Pages must be first (order not required for others)
BEGIN_SIDER 17
/ 2055 4936596 1893 1883
/contact/ 386 1493915 329 70
/contact/contact.cgi 275 619315 1 263
/profile/ 14 69426 2 6
/message/ 12 33000 5 6
/news/ 12 34896 3 5
/discography/ 11 50820 2 1
/lesson/ 11 17787 5 2
/link/ 8 13408 0 4
/discography/cd_works2.html 4 11300 0 1
/cartform/cartform.html 1 2136 0 0
/contact/shinobukai2015/ 2 3644 1 1
/news/concert.html 1 3393 1 1
http://chiyuki-murakata.com/contact/ 2 7910 2 0
/discography/cd_villa.html 1 2905 0 1
/message/message01.html 2 5562 0 0
/discography/audio/works2_1-1.html 1 781 0 0
END_SIDER
