AWSTATS DATA FILE 7.6 (build 20161204)
# If you remove this file, all statistics for date 202006 will be lost/reset.
# Last config file used to build this data file was /virtual/www/public_html/log/awstats/cgi-bin/awstats.www.m33.coreserver.jp.conf.

# Position (offset in bytes) in this file for beginning of each section for
# direct I/O access. If you made changes somewhere in this file, you should
# also remove completely the MAP section (AWStats will rewrite it at next
# update).
BEGIN_MAP 30
POS_GENERAL 2106                
POS_TIME 2778                
POS_VISITOR 8175                
POS_DAY 10663               
POS_DOMAIN 3714                
POS_LOGIN 4049                
POS_ROBOT 4204                
POS_WORMS 4741                
POS_EMAILSENDER 4872                
POS_EMAILRECEIVER 5015                
POS_SESSION 11470               
POS_SIDER 11679               
POS_FILETYPES 5150                
POS_DOWNLOADS 5384                
POS_OS 5462                
POS_BROWSER 5680                
POS_SCREENSIZE 6281                
POS_UNKNOWNREFERER 6355                
POS_UNKNOWNREFERERBROWSER 6476                
POS_ORIGIN 6592                
POS_SEREFERRALS 6738                
POS_PAGEREFS 6882                
POS_SEARCHWORDS 7191                
POS_KEYWORDS 7343                
POS_MISC 2441                
POS_ERRORS 7402                
POS_CLUSTER 3905                
POS_SIDER_403 7515                
POS_SIDER_400 7597                
POS_SIDER_404 7679                
END_MAP

# LastLine    = Date of last record processed - Last record line number in last log - Last record offset in last log - Last record signature value
# FirstTime   = Date of first visit for history file
# LastTime    = Date of last visit for history file
# LastUpdate  = Date of last update - Nb of parsed records - Nb of parsed old records - Nb of parsed new records - Nb of parsed corrupted - Nb of parsed dropped
# TotalVisits = Number of visits
# TotalUnique = Number of unique visitors
# MonthHostsKnown   = Number of hosts known
# MonthHostsUnKnown = Number of hosts unknown
BEGIN_GENERAL 8
LastLine 20200701000031 1 0 6313538213446
FirstTime 20200601000426
LastTime 20200630235928
LastUpdate 20200702054512 1 0 0 0 0
TotalVisits 135                 
TotalUnique 43                  
MonthHostsKnown 35                  
MonthHostsUnknown 9                   
END_GENERAL

# Misc ID - Pages - Hits - Bandwidth
BEGIN_MISC 10
QuickTimeSupport 0 0 0
JavaEnabled 0 0 0
JavascriptDisabled 0 0 0
PDFSupport 0 0 0
WindowsMediaPlayerSupport 0 0 0
AddToFavourites 0 10 0
RealPlayerSupport 0 0 0
TotalMisc 0 0 0
DirectorSupport 0 0 0
FlashSupport 0 0 0
END_MISC

# Hour - Pages - Hits - Bandwidth - Not viewed Pages - Not viewed Hits - Not viewed Bandwidth
BEGIN_TIME 24
0 411 414 106870 2542 2545 319009
1 377 377 16351 2615 2621 329152
2 373 373 10369 2597 2603 335291
3 365 365 5160 2589 2592 319317
4 362 362 513 2550 2551 325576
5 361 361 0 2584 2584 319214
6 365 365 3758 2573 2576 331381
7 360 360 0 2587 2592 327065
8 410 436 395089 2548 2555 306686
9 514 547 493565 2509 2514 364644
10 512 548 489979 2533 2540 311659
11 474 481 108465 2525 2532 417336
12 510 563 1055823 2575 2597 392348
13 408 448 601327 2539 2549 398479
14 455 463 308143 2504 2524 304195
15 390 390 91517 2484 2491 320160
16 592 601 643845 2585 2624 356178
17 440 456 254418 2534 2550 328335
18 447 453 582933 2497 2535 317002
19 540 544 535416 2545 2560 336219
20 438 445 220340 2535 2561 325324
21 454 457 257805 2538 2563 343640
22 373 373 28447 2490 2505 316862
23 370 370 24460 2494 2500 342605
END_TIME

# Domain - Pages - Hits - Bandwidth
# The 10 first Pages must be first (order not required for others)
BEGIN_DOMAIN 8
ip 8489 8490 12747
jp 1155 1371 4254724
net 633 661 1904540
com 19 25 58367
cn 2 2 1026
org 1 1 513
de 1 1 1338
vn 1 1 1338
END_DOMAIN

# Cluster ID - Pages - Hits - Bandwidth
BEGIN_CLUSTER 0
END_CLUSTER

# Login - Pages - Hits - Bandwidth - Last visit
# The 10 first Pages must be first (order not required for others)
BEGIN_LOGIN 0
END_LOGIN

# Robot ID - Hits - Bandwidth - Last visit - Hits on robots.txt
# The 10 first Hits must be first (order not required for others)
BEGIN_ROBOT 11
Wget/ 60254 7686580 20200630235954 0
no_user_agent 361 91646 20200630212831 0
Googlebot/ 34 91904 20200628041304 0
bingbot/ 24 70069 20200629075641 0
bot[\s_+:,\.\;\/\\-] 20 13940 20200630232301 0
favicon 14 25022 20200630175320 0
YandexBot/ 8 4104 20200627183526 0
SemrushBot/ 7 29476 20200628230941 0
AhrefsBot/ 1 1338 20200616164158 0
MJ12bot/ 1 513 20200616011841 0
Applebot/ 1 5359 20200618071909 0
END_ROBOT

# Worm ID - Hits - Bandwidth - Last visit
# The 5 first Hits must be first (order not required for others)
BEGIN_WORMS 0
END_WORMS

# EMail - Hits - Bandwidth - Last visit
# The 20 first Hits must be first (order not required for others)
BEGIN_EMAILSENDER 0
END_EMAILSENDER

# EMail - Hits - Bandwidth - Last visit
# The 20 first hits must be first (order not required for others)
BEGIN_EMAILRECEIVER 0
END_EMAILRECEIVER

# Files type - Hits - Bandwidth - Bandwidth without compression - Bandwidth after compression
BEGIN_FILETYPES 10
css 20 129312 0 0
png 145 631724 0 0
cgi 36 218743 0 0
php 10259 3948056 0 0
zip 1 0 0 0
tif 3 810 0 0
html 3 546 0 0
js 56 1117774 0 0
jpg 21 178860 0 0
gif 8 8768 0 0
END_FILETYPES

# Downloads - Hits - Bandwidth
BEGIN_DOWNLOADS 2
/ubar.txt 2 0 90
/1.zip 1 0 0
END_DOWNLOADS

# OS ID - Hits
BEGIN_OS ID - Hits - Pages 11
linuxandroid 16 14
macosx6 2 2
macosx11 4 4
winxp 6 6
ios_iphone 17 16
linux 1 1
win7 8498 8495
macosx 32 20
win10 1964 1732
Unknown 1 0
ios_ipad 11 11
END_OS

# Browser ID - Hits - Pages
BEGIN_BROWSER 27
firefox57.0 1 1
firefox32.0 2 1
chrome52.0.2743.116 8477 8477
edge18 112 111
chrome77.0.3865.90 2 2
chrome83.0.4103.96 8 8
chrome66.0.3359.117 1 1
firefox77.0 41 32
safari12.0 11 11
firefox76.0 311 299
chrome83.0.4103.97 413 368
firefox47.0 4 4
msie8.0 1 1
msie11.0 382 251
chrome83.0.4103.83 8 6
msie7.0 5 5
chrome81.0.4044.138 2 2
chrome75.0.3770.80 2 2
chrome50.0.2661.102 4 4
chrome83.0.4103.61 178 163
safari5.1 2 2
chrome83.0.4103.106 323 306
chrome78.26.10.1974 1 1
Unknown 1 0
safari 17 16
chrome83.0.4103.116 242 226
chrome72.0.3626.109 1 1
END_BROWSER

# Screen size - Hits
BEGIN_SCREENSIZE 0
END_SCREENSIZE

# Unknown referer OS - Last visit date
BEGIN_UNKNOWNREFERER 1
Go-http-client/1.1 20200623183426
END_UNKNOWNREFERER

# Unknown referer Browser - Last visit date
BEGIN_UNKNOWNREFERERBROWSER 1
Go-http-client/1.1 20200623183426
END_UNKNOWNREFERERBROWSER

# Origin - Pages - Hits 
BEGIN_ORIGIN 6
From0 432 433
From1 1 1
From2 0 0
From3 8715 8845
From4 1153 1273
From5 0 0
END_ORIGIN

# Search engine referers ID - Pages - Hits
BEGIN_SEREFERRALS 0
END_SEREFERRALS

# External page referers - Pages - Hits
# The 10 first Pages must be first (order not required for others)
BEGIN_PAGEREFS 3
https://www.cloudremix.net 8477 8477
https://ss1.coressl.jp/www.m33.coreserver.jp/mailr/ 227 357
https://ss1.coressl.jp/www.m33.coreserver.jp/jp/admin.cgi 11 11
END_PAGEREFS

# Search keyphrases - Number of search
# The 10 first number of search must be first (order not required for others)
BEGIN_SEARCHWORDS 0
END_SEARCHWORDS

# Search keywords - Number of search
# The 10 first number of search must be first (order not required for others)
BEGIN_KEYWORDS 0
END_KEYWORDS

# Errors - Hits - Bandwidth
BEGIN_ERRORS 3
302 293 0
500 10 18568
404 222 38808
END_ERRORS

# URL with 403 errors - Hits - Last URL referrer
BEGIN_SIDER_403 0
END_SIDER_403

# URL with 400 errors - Hits - Last URL referrer
BEGIN_SIDER_400 0
END_SIDER_400

# URL with 404 errors - Hits - Last URL referrer
BEGIN_SIDER_404 6
/apple-touch-icon-152x152.png 2 -
/apple-touch-icon-precomposed.png 2 -
/robots.txt 1 -
/apple-touch-icon.png 2 -
/install/index.php.bak 2 -
/apple-touch-icon-152x152-precomposed.png 2 -
END_SIDER_404

# Host - Pages - Hits - Bandwidth - Last visit date - [Start date of last visit] - [Last page of last visit]
# [Start date of last visit] and [Last page of last visit] are saved only if session is not finished
# The 10 first Hits must be first (order not required for others)
BEGIN_VISITOR 44
158.101.131.29 8477 8477 0 20200630235928
softbank060121127075.bbtec.net 633 661 1904540 20200630170524
pl24834.ag1212.nttpc.ne.jp 318 333 571356 20200630181135
cache1.coreserver.jp 247 377 1696006 20200630113019
c202-162-92-158.dhcp.cat-v.ne.jp 158 164 341401 20200622162923
fl1-220-144-65-126.tky.mesh.ad.jp 154 190 513867 20200627112754
kd111239104020.au-net.ne.jp 111 112 340275 20200601193543
61-22-198-25.rev.home.ne.jp 45 49 455901 20200628123418
m106072002192.v4.enabler.ne.jp 17 18 21722 20200625232426
m106072131224.v4.enabler.ne.jp 16 17 40623 20200616004155
61.160.213.117 0 1 0 
sp1-72-6-149.msc.spmode.ne.jp 7 7 18977 20200616103102
h175-177-059-089.hikari.itscom.jp 1 2 8428 20200603215909
p620026-ipngn200412yamaguchi.yamaguchi.ocn.ne.jp 2 12 26074 20200602174249
56.16.30.125.dy.iij4u.or.jp 1 1 513 20200617155126
119.207.72.79 1 1 5359 20200603121105
183.136.225.46 4 4 2788 20200615060305
149.9.31.150.dy.iij4u.or.jp 1 1 513 20200616033839
p4103130-ipoe.ipoe.ocn.ne.jp 11 11 59988 20200607182229
194.8.225.35.bc.googleusercontent.com 1 1 513 20200630173326
176.36.31.150.dy.iij4u.or.jp 1 1 513 20200619045741
112.92.88.133 1 1 513 20200615135033
ecs-122-112-235-58.compute.hwclouds-dns.com 2 2 1026 20200610010012
61.147.199.14 2 2 1026 20200604021234
jst-office-gw2.stream.co.jp 2 2 1394 20200608013256
ecs-122-112-237-70.compute.hwclouds-dns.com 2 2 1026 20200616170113
214.41.39.120.broad.fz.fj.dynamic.163data.com.cn 2 2 1026 20200609062610
i58-95-176-120.s41.a027.ap.plala.or.jp 8 11 17913 20200624225430
sh-chi-us-gp1-wk111.internet-census.org 1 1 513 20200612014901
sg-fw-ice-redblue-p0.sagamino.jp.ibm.com 13 19 37910 20200622092752
ec2-54-187-249-125.us-west-2.compute.amazonaws.com 1 1 17892 20200607181909
231.83.13.160.dy.iij4u.or.jp 1 1 513 20200618021940
103.205.4.131 2 2 1026 20200623183610
103.244.159.171 1 1 697 20200603115911
gwpe00.iij.ad.jp 3 4 3905 20200605090818
111.92.13.160.dy.iij4u.or.jp 1 1 513 20200615171708
p3028168-ipngn201415tokaisakaetozai.aichi.ocn.ne.jp 7 9 19563 20200604084336
182-164-48-156f1.osk1.eonet.ne.jp 11 11 58951 20200625160146
gwpe01.iij.ad.jp 7 9 10503 20200629102103
p1351164-ipngn5701akatuka.ibaraki.ocn.ne.jp 14 16 17841 20200605141540
91.143.169.179 1 1 1338 20200612013758
p5205-ipuno01-int.tokyo.ocn.ne.jp 11 12 27471 20200609145402
static.vnpt.vn 1 1 1338 20200623205418
static.25.89.217.95.clients.your-server.de 1 1 1338 20200602061405
END_VISITOR

# Date - Pages - Hits - Bandwidth - Visits
BEGIN_DAY 30
20200601 414 415 384031 4
20200602 298 310 51421 6
20200603 376 383 201829 7
20200604 435 437 393490 7
20200605 349 377 451904 7
20200606 288 288 0 1
20200607 303 312 241895 5
20200608 362 365 115282 3
20200609 464 467 391885 6
20200610 114 114 14965 4
20200611 289 289 0 1
20200612 294 294 7209 4
20200613 289 289 0 1
20200614 289 289 0 1
20200615 294 295 11646 5
20200616 316 318 74810 7
20200617 303 305 15366 4
20200618 486 491 545012 5
20200619 357 384 419305 6
20200620 331 333 110215 3
20200621 312 314 69393 3
20200622 347 356 173741 6
20200623 339 345 122108 7
20200624 290 290 5815 3
20200625 544 573 525014 5
20200626 346 385 834429 4
20200627 461 490 395421 4
20200628 332 336 136490 3
20200629 340 366 409891 7
20200630 339 342 132026 6
END_DAY

# Session range - Number of visits
BEGIN_SESSION 7
1h+ 42
5mn-15mn 4
30s-2mn 17
15mn-30mn 2
0s-30s 53
2mn-5mn 14
30mn-1h 3
END_SESSION

# URL - Pages - Bandwidth - Entry - Exit
# The 10 first Pages must be first (order not required for others)
BEGIN_SIDER 17
/ 8502 14113 49 49
/mail/src/right_main.php 510 1955060 0 15
/mail/src/left_main.php 406 474987 6 15
/mailr/ 383 188090 9 9
/mail/src/read_body.php 329 1242153 0 20
/mail/src/webmail.php 106 34150 48 6
/jp/admin.cgi 36 218743 14 14
/mail/src/login.php 9 12042 7 3
/mail/src/folders.php 3 4959 0 0
/mailr/skins/larry/watermark.html 3 546 0 0
/mail/plugins/mail_fetch/fetch.php 2 2463 0 0
/ftp/ 2 9652 1 1
/mail/src/compose.php 2 4900 0 0
/mailr/program/resources/blank.tif 3 810 0 0
/mail/src/view_header.php 1 2833 0 0
/mail/src/signout.php 3 1368 1 3
/mail/src/move_messages.php 1 1286 0 0
END_SIDER
