AWSTATS DATA FILE 7.6 (build 20161204)
# If you remove this file, all statistics for date 202106 will be lost/reset.
# Last config file used to build this data file was /virtual/www/public_html/log/awstats/cgi-bin/awstats.www.m33.coreserver.jp.conf.

# Position (offset in bytes) in this file for beginning of each section for
# direct I/O access. If you made changes somewhere in this file, you should
# also remove completely the MAP section (AWStats will rewrite it at next
# update).
BEGIN_MAP 30
POS_GENERAL 2106                
POS_TIME 2778                
POS_VISITOR 8393                
POS_DAY 11317               
POS_DOMAIN 3703                
POS_LOGIN 4047                
POS_ROBOT 4202                
POS_WORMS 4903                
POS_EMAILSENDER 5034                
POS_EMAILRECEIVER 5177                
POS_SESSION 12113               
POS_SIDER 12321               
POS_FILETYPES 5312                
POS_DOWNLOADS 5524                
POS_OS 5572                
POS_BROWSER 5773                
POS_SCREENSIZE 6435                
POS_UNKNOWNREFERER 6509                
POS_UNKNOWNREFERERBROWSER 6768                
POS_ORIGIN 7022                
POS_SEREFERRALS 7166                
POS_PAGEREFS 7310                
POS_SEARCHWORDS 7598                
POS_KEYWORDS 7750                
POS_MISC 2442                
POS_ERRORS 7809                
POS_CLUSTER 3903                
POS_SIDER_403 7920                
POS_SIDER_400 8002                
POS_SIDER_404 8084                
END_MAP

# LastLine    = Date of last record processed - Last record line number in last log - Last record offset in last log - Last record signature value
# FirstTime   = Date of first visit for history file
# LastTime    = Date of last visit for history file
# LastUpdate  = Date of last update - Nb of parsed records - Nb of parsed old records - Nb of parsed new records - Nb of parsed corrupted - Nb of parsed dropped
# TotalVisits = Number of visits
# TotalUnique = Number of unique visitors
# MonthHostsKnown   = Number of hosts known
# MonthHostsUnKnown = Number of hosts unknown
BEGIN_GENERAL 8
LastLine 20210701000001 3151 432258 7267246839033
FirstTime 0
LastTime 20210630235925
LastUpdate 20210701060011 3151 0 3150 0 0
TotalVisits 136                 
TotalUnique 55                  
MonthHostsKnown 38                  
MonthHostsUnknown 17                  
END_GENERAL

# Misc ID - Pages - Hits - Bandwidth
BEGIN_MISC 10
QuickTimeSupport 0 0 0
JavaEnabled 0 0 0
JavascriptDisabled 0 0 0
PDFSupport 0 0 0
WindowsMediaPlayerSupport 0 0 0
AddToFavourites 0 1 0
RealPlayerSupport 0 0 0
TotalMisc 0 0 0
DirectorSupport 0 0 0
FlashSupport 0 0 0
END_MISC

# Hour - Pages - Hits - Bandwidth - Not viewed Pages - Not viewed Hits - Not viewed Bandwidth
BEGIN_TIME 24
0 370 373 24546 3506 3511 532025
1 362 362 2035 3481 3483 535583
2 362 362 0 3523 3524 555246
3 355 355 697 3406 3409 531728
4 355 357 20031 3388 3391 526714
5 349 349 0 3338 3343 531781
6 353 354 10457 3345 3347 508683
7 352 352 2364 3395 3401 525948
8 360 360 48072 3293 3302 505865
9 451 453 1939389 3288 3302 525400
10 371 371 68039 3249 3253 491456
11 384 389 99185 3259 3263 520153
12 370 372 169489 3242 3246 492294
13 417 417 218348 3271 3279 515582
14 403 409 154419 3227 3232 503834
15 414 415 206519 3259 3267 519417
16 374 374 65808 3244 3249 501129
17 367 368 74758 3246 3253 493086
18 361 389 353477 3244 3250 512418
19 368 370 83905 3266 3271 520107
20 340 341 4532 3222 3226 501134
21 365 368 83972 3237 3239 496318
22 336 336 0 3274 3279 521555
23 371 372 6603259 3222 3225 503211
END_TIME

# Domain - Pages - Hits - Bandwidth
# The 10 first Pages must be first (order not required for others)
BEGIN_DOMAIN 9
ip 8270 8272 124621
jp 476 522 9717313
net 141 151 378937
com 9 9 6364
adsl 7 7 0
org 4 4 2052
tw 1 1 1338
ru 1 1 1338
arpa 1 1 1338
END_DOMAIN

# Cluster ID - Pages - Hits - Bandwidth
BEGIN_CLUSTER 0
END_CLUSTER

# Login - Pages - Hits - Bandwidth - Last visit
# The 10 first Pages must be first (order not required for others)
BEGIN_LOGIN 0
END_LOGIN

# Robot ID - Hits - Bandwidth - Last visit - Hits on robots.txt
# The 10 first Hits must be first (order not required for others)
BEGIN_ROBOT 16
Wget/ 78757 12194707 20210630235847 0
no_user_agent 274 20055 20210630223226 0
YandexBot/ 14 7182 20210629081115 0
bingbot/ 13 40727 20210628194646 0
custo 13 9061 20210626055308 0
Googlebot/ 11 6747 20210618172112 0
baidu 9 4617 20210628044803 0
favicon 6 3078 20210626083656 0
MJ12bot/ 3 11232 20210625134331 0
AhrefsBot/ 1 1338 20210623020357 0
BLEXBot/ 1 1338 20210610003123 0
spider 1 513 20210608191546 0
SemrushBot/ 1 5359 20210621054219 0
discover 1 513 20210601181838 0
microsoft[_+\s]url[_+\s]control 1 697 20210604092847 0
Applebot/ 1 5359 20210630142024 0
END_ROBOT

# Worm ID - Hits - Bandwidth - Last visit
# The 5 first Hits must be first (order not required for others)
BEGIN_WORMS 0
END_WORMS

# EMail - Hits - Bandwidth - Last visit
# The 20 first Hits must be first (order not required for others)
BEGIN_EMAILSENDER 0
END_EMAILSENDER

# EMail - Hits - Bandwidth - Last visit
# The 20 first hits must be first (order not required for others)
BEGIN_EMAILRECEIVER 0
END_EMAILRECEIVER

# Files type - Hits - Bandwidth - Bandwidth without compression - Bandwidth after compression
BEGIN_FILETYPES 9
css 3 21061 0 0
png 42 158003 0 0
cgi 11 21514 0 0
php 8897 9850499 0 0
html 1 182 0 0
tif 1 270 0 0
js 8 150238 0 0
jpg 4 30100 0 0
gif 1 1434 0 0
END_FILETYPES

# Downloads - Hits - Bandwidth
BEGIN_DOWNLOADS 0
END_DOWNLOADS

# OS ID - Hits
BEGIN_OS ID - Hits - Pages 10
linuxandroid 30 27
winxp 3 3
macosx11 35 34
ios_iphone 11 8
linux 4 4
win7 8584 8578
macosx 8 6
win8.1 9 8
win10 271 229
Unknown 13 13
END_OS

# Browser ID - Hits - Pages
BEGIN_BROWSER 29
chrome90.0.4430.85 2 2
chrome91.0.4472.106 122 120
chrome52.0.2743.116 8207 8207
chrome80.0.3987.162 1 1
chrome91.0.4472.77 357 314
firefox89.0 2 2
chrome66.0.3359.117 4 4
chrome78.0.3904.62 1 1
chrome63.0.3239.132 1 1
chrome91.0.4472.101 36 34
chrome81.0.4044.129 1 1
chrome85.0.4183.121 6 6
firefox46.0 1 1
chrome91.0.4472.124 8 8
firefox85.0 1 1
firefox90.0 4 3
chrome90.0.4430.212 86 83
mozilla 3 3
firefox43.0 1 1
netscape5.0 1 1
msie7.0 3 3
chrome50.0.2661.102 3 3
chrome75.0.3770.80 2 2
chrome91.0.4472.114 60 59
chrome90.0.4430.91 28 25
Unknown 13 13
safari9.0.2 2 2
safari 11 8
chrome72.0.3626.109 1 1
END_BROWSER

# Screen size - Hits
BEGIN_SCREENSIZE 0
END_SCREENSIZE

# Unknown referer OS - Last visit date
BEGIN_UNKNOWNREFERER 2
NetSystemsResearch_studies_the_availability_of_various_services_across_the_internet._Our_website_is_netsystemsresearch.com 20210628005941
Go-http-client/1.1 20210628044822
END_UNKNOWNREFERER

# Unknown referer Browser - Last visit date
BEGIN_UNKNOWNREFERERBROWSER 2
NetSystemsResearch_studies_the_availability_of_various_services_across_the_internet._Our_website_is_netsystemsresearch.com 20210628005941
Go-http-client/1.1 20210628044822
END_UNKNOWNREFERERBROWSER

# Origin - Pages - Hits 
BEGIN_ORIGIN 6
From0 124 124
From1 1 1
From2 0 0
From3 8209 8210
From4 576 633
From5 0 0
END_ORIGIN

# Search engine referers ID - Pages - Hits
BEGIN_SEREFERRALS 0
END_SEREFERRALS

# External page referers - Pages - Hits
# The 10 first Pages must be first (order not required for others)
BEGIN_PAGEREFS 3
https://www.cloudremix.net 7919 7919
https://www.cloudremix.net 288 288
https://ss1.coressl.jp/www.m33.coreserver.jp/mail/src/login.php 2 3
END_PAGEREFS

# Search keyphrases - Number of search
# The 10 first number of search must be first (order not required for others)
BEGIN_SEARCHWORDS 0
END_SEARCHWORDS

# Search keywords - Number of search
# The 10 first number of search must be first (order not required for others)
BEGIN_KEYWORDS 0
END_KEYWORDS

# Errors - Hits - Bandwidth
BEGIN_ERRORS 3
302 122 0
500 2 6034
404 260 50960
END_ERRORS

# URL with 403 errors - Hits - Last URL referrer
BEGIN_SIDER_403 0
END_SIDER_403

# URL with 400 errors - Hits - Last URL referrer
BEGIN_SIDER_400 0
END_SIDER_400

# URL with 404 errors - Hits - Last URL referrer
BEGIN_SIDER_404 0
END_SIDER_404

# Host - Pages - Hits - Bandwidth - Last visit date - [Start date of last visit] - [Last page of last visit]
# [Start date of last visit] and [Last page of last visit] are saved only if session is not finished
# The 10 first Hits must be first (order not required for others)
BEGIN_VISITOR 55
158.101.131.29 8207 8207 0 20210630235925
atlas.msv.optidc.jp 364 370 2618239 20210630173143
softbank060121127075.bbtec.net 139 149 376902 20210622090621
98.158.245.106 40 41 110175 20210608165256
m106072132192.v4.enabler.ne.jp 32 33 6602233 20210601234052
p1481041-ipngn2202akatuka.ibaraki.ocn.ne.jp 13 39 328723 20210614181217
115-37-212-20.area2b.commufa.jp 11 12 13606 20210609120800
m106072131224.v4.enabler.ne.jp 8 11 23152 20210602003325
hn.kd.ny.adsl 7 7 0 20210628044822
fs7452f5b4.tkyc504.ap.nuro.jp 7 8 7288 20210629144319
g1-27-253-251-154.bmobile.ne.jp 4 6 13811 20210625184735
121.4.163.148 1 1 513 20210619114811
118.123.12.126 2 2 1026 20210629183515
61.160.213.90 1 1 513 20210621075838
158.7.212.41.in-addr.arpa 1 1 1338 20210629121029
cache1.coreserver.jp 3 4 10784 20210609041746
ec2-34-214-250-138.us-west-2.compute.amazonaws.com 1 1 331 20210609122035
g1-27-253-251-198.bmobile.ne.jp 6 6 9917 20210629181507
dynamic-2-61-81-27.pppoe.khakasnet.ru 1 1 1338 20210607015214
210.173.24.85 3 4 4019 20210603201438
chicago.securityspace.net 1 1 697 20210615165932
157-179-53-194.mairnet.net 1 1 1338 20210618085902
zl-lax-us-gp1-wk126.internet-census.org 1 1 513 20210605045612
137-027-053-195.biz.spectrum.com 1 1 1338 20210627175754
g1-27-253-251-179.bmobile.ne.jp 5 5 9185 20210628090326
92.118.160.1.netsystemsresearch.com 2 2 1394 20210626170003
zl-ams-nl-gp1-wk128.internet-census.org 1 1 513 20210609084218
zl-ams-nl-gp1-wk127.internet-census.org 1 1 513 20210629110723
jst-office-gw2.stream.co.jp 2 2 1394 20210614004738
sh-phx-us-gp1-wk106.internet-census.org 1 1 513 20210623201224
182.106.186.223 1 1 697 20210603192050
i121-118-240-24.s41.a027.ap.plala.or.jp 1 1 915 20210626080900
121.46.248.114 2 2 1026 20210618160856
ec2-3-133-79-12.us-east-2.compute.amazonaws.com 1 1 513 20210610062310
92.118.160.13.netsystemsresearch.com 1 1 697 20210613064730
fp745245be.stmb109.ap.nuro.jp 1 1 5359 20210625104534
223.11.170.42 1 1 697 20210618032754
g1-27-253-251-233.bmobile.ne.jp 1 2 8734 20210602175252
yrmcd-04p3-237.ppp11.odn.ad.jp 1 2 8421 20210610212010
104.128.17.51 1 1 513 20210616065709
92.118.160.5.netsystemsresearch.com 1 1 697 20210622011959
104.128.16.97 1 1 513 20210604231352
ca83050.hicat.ne.jp 5 6 12862 20210606130128
81.70.248.185 2 2 1026 20210625212959
92.118.160.45.netsystemsresearch.com 2 2 1394 20210628005941
89.32.163.252 1 1 1338 20210613074639
104.128.17.181 2 2 513 20210604235432
191.101.174.4 1 1 513 20210607115213
h175-177-042-043.catv02.itscom.jp 2 2 11431 20210610081227
g1-27-253-251-234.bmobile.ne.jp 5 5 9292 20210628150659
45.5.67.76 2 2 513 20210616074447
42.51.32.61 2 2 1026 20210605151018
g1-27-253-251-250.bmobile.ne.jp 3 3 4499 20210628173237
p2873020-ipngn201401tokaisakaetozai.aichi.ocn.ne.jp 2 4 17468 20210610062150
118-232-237-55.dynamic.kbronet.com.tw 1 1 1338 20210611151337
END_VISITOR

# Date - Pages - Hits - Bandwidth - Visits
BEGIN_DAY 30
20210601 454 455 8698606 6
20210602 319 326 81968 6
20210603 321 324 87227 4
20210604 299 299 21229 4
20210605 291 291 1539 3
20210606 304 307 38747 3
20210607 303 303 15891 6
20210608 356 359 182276 4
20210609 306 309 33968 7
20210610 331 333 143640 8
20210611 294 294 7875 3
20210612 314 316 74341 2
20210613 298 298 17274 4
20210614 309 338 344609 6
20210615 289 289 697 2
20210616 299 299 14082 5
20210617 44 44 3001 4
20210618 298 298 12602 5
20210619 291 291 1210 4
20210620 99 99 0 2
20210621 305 305 33105 4
20210622 321 323 88300 4
20210623 326 326 95969 8
20210624 293 293 6566 2
20210625 301 303 32716 5
20210626 290 290 1612 3
20210627 289 289 1338 2
20210628 314 314 42651 8
20210629 313 314 37840 7
20210630 339 339 112422 5
END_DAY

# Session range - Number of visits
BEGIN_SESSION 7
1h+ 32
5mn-15mn 2
30s-2mn 16
2mn-5mn 6
15mn-30mn 3
0s-30s 75
30mn-1h 2
END_SESSION

# URL - Pages - Bandwidth - Entry - Exit
# The 10 first Pages must be first (order not required for others)
BEGIN_SIDER 17
/ 8247 17927 68 68
/mail/src/right_main.php 156 516563 1 7
/mail/src/read_body.php 139 599408 0 10
/mail/src/webmail.php 83 26175 18 4
/mail/src/left_main.php 80 97464 0 1
/mail/src/login.php 61 81618 41 9
/mail/src/compose.php 54 227436 0 0
/mail/src/signout.php 50 22800 2 32
/mailr/ 11 40477 1 1
/jp/editmail.cgi 8 4724 2 0
/mail/src/image.php 5 6417 0 0
/jp/admin.cgi 3 16790 2 2
/mail/src/redirect.php 3 3075 1 2
/mailr/skins/larry/watermark.html 1 182 0 0
/mailr/program/resources/blank.tif 1 270 0 0
/mail/src/download.php 6 8202489 0 0
/mail/src/addressbook.php 2 8650 0 0
END_SIDER
