AWSTATS DATA FILE 7.6 (build 20161204)
# If you remove this file, all statistics for date 201902 will be lost/reset.
# Last config file used to build this data file was /virtual/chiyuki/public_html/log/awstats/cgi-bin/awstats.chiyuki-murakata.com.conf.

# Position (offset in bytes) in this file for beginning of each section for
# direct I/O access. If you made changes somewhere in this file, you should
# also remove completely the MAP section (AWStats will rewrite it at next
# update).
BEGIN_MAP 30
POS_GENERAL 2109                
POS_TIME 2781                
POS_VISITOR 12080               
POS_DAY 29259               
POS_DOMAIN 3600                
POS_LOGIN 4291                
POS_ROBOT 4446                
POS_WORMS 5646                
POS_EMAILSENDER 5777                
POS_EMAILRECEIVER 5920                
POS_SESSION 30014               
POS_SIDER 30221               
POS_FILETYPES 6055                
POS_DOWNLOADS 6270                
POS_OS 6318                
POS_BROWSER 6598                
POS_SCREENSIZE 8370                
POS_UNKNOWNREFERER 8444                
POS_UNKNOWNREFERERBROWSER 8811                
POS_ORIGIN 8957                
POS_SEREFERRALS 9102                
POS_PAGEREFS 9311                
POS_SEARCHWORDS 10981               
POS_KEYWORDS 11133               
POS_MISC 2445                
POS_ERRORS 11192               
POS_CLUSTER 4147                
POS_SIDER_403 11315               
POS_SIDER_400 11397               
POS_SIDER_404 11479               
END_MAP

# LastLine    = Date of last record processed - Last record line number in last log - Last record offset in last log - Last record signature value
# FirstTime   = Date of first visit for history file
# LastTime    = Date of last visit for history file
# LastUpdate  = Date of last update - Nb of parsed records - Nb of parsed old records - Nb of parsed new records - Nb of parsed corrupted - Nb of parsed dropped
# TotalVisits = Number of visits
# TotalUnique = Number of unique visitors
# MonthHostsKnown   = Number of hosts known
# MonthHostsUnKnown = Number of hosts unknown
BEGIN_GENERAL 8
LastLine 20190301004609 1 0 23579691578419
FirstTime 20190201010843
LastTime 20190228234743
LastUpdate 20190302045307 1 0 0 0 0
TotalVisits 510                 
TotalUnique 323                 
MonthHostsKnown 225                 
MonthHostsUnknown 128                 
END_GENERAL

# Misc ID - Pages - Hits - Bandwidth
BEGIN_MISC 10
QuickTimeSupport 0 0 0
JavaEnabled 0 0 0
JavascriptDisabled 0 0 0
PDFSupport 0 0 0
WindowsMediaPlayerSupport 0 0 0
AddToFavourites 0 0 0
RealPlayerSupport 0 0 0
TotalMisc 0 0 0
DirectorSupport 0 0 0
FlashSupport 0 0 0
END_MISC

# Hour - Pages - Hits - Bandwidth - Not viewed Pages - Not viewed Hits - Not viewed Bandwidth
BEGIN_TIME 24
0 30 39 155283 23 36 49469
1 18 48 116088 22 53 109132
2 34 50 135215 32 84 870592
3 36 36 108329 37 66 76499
4 26 47 243712 48 79 244399
5 36 41 138424 29 48 43445
6 35 35 125028 61 74 125589
7 39 39 116816 50 96 209353
8 17 17 51890 35 77 209097
9 55 521 2250446 34 69 152836
10 23 62 221582 23 41 212104
11 21 53 432660 27 47 30038
12 29 70 713384 58 84 1240014
13 55 55 159364 34 76 289912
14 56 150 863796 29 89 249808
15 48 49 181464 47 109 218826
16 31 63 536910 14 71 343713
17 31 132 1019682 29 45 102530
18 47 93 748972 40 63 458517
19 40 181 1367929 44 98 204752
20 31 82 528853 46 79 157425
21 36 89 424167 41 79 879601
22 44 120 1178403 43 77 124436
23 28 36 113076 28 40 116416
END_TIME

# Domain - Pages - Hits - Bandwidth
# The 10 first Pages must be first (order not required for others)
BEGIN_DOMAIN 35
ip 369 527 2345157
net 164 719 3805085
com 85 174 843177
ru 69 69 259042
jp 37 497 4268435
eu 18 18 60235
se 11 11 28453
ch 10 10 23871
by 8 8 30470
de 8 8 11892
il 1 1 2346
ua 6 6 53886
uk 6 6 15638
su 5 5 17798
cn 1 1 4630
kg 1 1 3955
ro 1 1 1771
dk 2 2 5688
th 2 2 15144
org 7 7 17416
br 1 1 3955
cz 1 1 2346
fi 1 1 2346
lt 3 3 9555
edu 1 1 1763
ir 1 1 3955
pro 2 2 6110
ao 1 1 2431
local 1 1 2346
it 4 4 13247
hu 2 2 5690
pl 3 3 12540
nl 7 7 29083
arpa 6 6 19671
lu 1 1 2346
END_DOMAIN

# Cluster ID - Pages - Hits - Bandwidth
BEGIN_CLUSTER 0
END_CLUSTER

# Login - Pages - Hits - Bandwidth - Last visit
# The 10 first Pages must be first (order not required for others)
BEGIN_LOGIN 0
END_LOGIN

# Robot ID - Hits - Bandwidth - Last visit - Hits on robots.txt
# The 10 first Hits must be first (order not required for others)
BEGIN_ROBOT 28
bingpreview 264 588109 20190228125922 0
bingbot/ 199 1716807 20190228205725 0
MSIE[\x20]6 120 34800 20190228234412 0
Googlebot/ 86 114710 20190228164531 0
AhrefsBot/ 43 415713 20190225073707 0
360Spider 42 99656 20190227231852 0
BLEXBot/ 38 77671 20190215135608 0
SemrushBot/ 37 92987 20190227202239 0
bot[\s_+:,\.\;\/\\-] 35 159982 20190227194226 0
Apache\-HttpClient/ 30 70380 20190215154306 0
CCBot/ 25 64417 20190216101401 0
Googlebot\-Image/ 1 0 20190210103045 0
no_user_agent 3 13890 20190223052754 0
yeti 1 2346 20190208055441 0
Uptimebot/ 14 0 20190227074633 0
Sogou[\x20]web[\x20]spider/ 20 11730 20190228143551 0
CMS[\x20]Crawler 1 4630 20190205032347 0
curl 2 0 20190219052500 0
DomainCrawler/ 1 4630 20190210192700 0
PhantomJS 22 169971 20190219162831 0
python 4 9384 20190221223810 0
YandexBot/ 27 67358 20190228040055 0
archive\.org_bot 6 14802 20190209143148 0
Baiduspider/ 16 37536 20190226213316 0
twitterbot 3 7996 20190220144500 0
MJ12bot/ 3 6611 20190228132746 0
Applebot/ 5 12184 20190224010609 0
facebookexternalhit/ 10 2895602 20190227222722 0
END_ROBOT

# Worm ID - Hits - Bandwidth - Last visit
# The 5 first Hits must be first (order not required for others)
BEGIN_WORMS 0
END_WORMS

# EMail - Hits - Bandwidth - Last visit
# The 20 first Hits must be first (order not required for others)
BEGIN_EMAILSENDER 0
END_EMAILSENDER

# EMail - Hits - Bandwidth - Last visit
# The 20 first hits must be first (order not required for others)
BEGIN_EMAILRECEIVER 0
END_EMAILRECEIVER

# Files type - Hits - Bandwidth - Bandwidth without compression - Bandwidth after compression
BEGIN_FILETYPES 8
css 525 418115 0 0
png 21 1906611 0 0
cgi 242 657227 0 0
php 580 2068930 0 0
html 24 39859 0 0
js 28 97554 0 0
jpg 154 4546332 0 0
gif 534 2196845 0 0
END_FILETYPES

# Downloads - Hits - Bandwidth
BEGIN_DOWNLOADS 0
END_DOWNLOADS

# OS ID - Hits
BEGIN_OS ID - Hits - Pages 16
linuxandroid 57 3
winlong 60 11
winxp 10 10
macosx11 1 0
macosx6 55 7
ios_iphone 217 22
win8 7 7
ios_ipad 33 3
macosx12 27 5
linux 5 5
win7 463 363
macosx 40 10
macosx10 4 4
Unknown 8 8
win10 1025 292
win8.1 96 96
END_OS

# Browser ID - Hits - Pages
BEGIN_BROWSER 84
chrome52.0.2743.116 6 6
edge12 1 1
chrome5.0.375.99 2 2
safari4.0.5 2 2
firefox34.0 1 1
chrome58.0.3029.110 4 4
firefox64.0 25 3
msie7.0 26 1
chrome50.0.2661.102 2 2
chrome71.0.3578.80 2 2
chrome70.0.3538.80 34 2
chrome41.0.2272.89 63 63
opera54.0.2952.51 20 20
firefox65.0 4 4
chrome70.0.3538.102 187 14
chrome66.0.3359.181 53 53
chrome49.0.2623.112 4 4
chrome42.0.2311.152 1 1
chrome65.0.3325.181 5 5
firefox50.0 9 9
edge17 290 25
chrome41.0.2224.3 1 1
firefox48.0 55 7
opera12.16 2 2
firefox53.0 1 1
chrome68.0.3440.106 50 50
chrome63.0.3239.132 4 4
chrome62.0.3202.94 2 2
chrome32.0.1700.107 2 2
chrome60.0.3112.113 1 1
firefox45.0 2 2
safari12.0.2 23 1
mozilla 2 2
chrome33.0.1750.117 2 2
netscape5.0 27 0
chrome68.0.3440.84 32 32
chrome32.0.1700.76 2 2
netscape5.7 1 1
safari 25 3
chrome51.0.2705.45 1 1
chrome67.0.3396.87 51 51
edge36 1 1
safari11.0 32 3
chrome41.0.2225.0 1 1
chrome68.0.3440.75 13 13
chrome48.0.2564.116 1 0
chrome67.0.3396.79 37 37
safari12.0 155 12
opera55.0.2994.44 36 36
chrome71.0.3578.98 151 9
firefox63.0 129 8
iphone 4 1
chrome63.0.3239.0 36 0
edge16 60 19
chrome34.0.1847.116 7 7
chrome55.0.2883.75 1 1
chrome40.0.2214.85 4 4
chrome71.0.3578.99 23 1
msie9.0 38 6
Unknown 3 3
chrome72.0.3626.109 22 1
netscape5.9 2 2
firefox60.0.1 2 2
opera54.0.2952.71 15 15
opera53.0.2907.99 49 49
chrome16.0.883.0 1 1
safari10.0 1 0
opera53.0.2907.68 23 23
chrome71.0.3542.0 2 2
firefox58.0 2 2
firefox56.0 1 1
msie11.0 49 15
opera54.0.2952.54 24 24
safari9.0 4 4
chrome67.0.3396.99 74 74
opera53.0.2907.106 12 12
opera54.0.2952.64 34 34
opera36.0.2130.32 1 1
chrome70.0.3538.110 1 1
chrome5.0.375.70 1 1
chrome69.0.3497.100 4 4
chrome66.0.3359.170 1 1
chrome65.0.3325.146 9 9
chrome67.0.3396.62 15 15
END_BROWSER

# Screen size - Hits
BEGIN_SCREENSIZE 0
END_SCREENSIZE

# Unknown referer OS - Last visit date
BEGIN_UNKNOWNREFERER 6
Mozilla/5.7 20190224190527
Mozilla/5.0_(Ubuntu_18.10;_JVM;_x64;_rv:64.0)_Gecko/20100101_SCWorker/10.0 20190222150807
Go-http-client/1.1 20190228175124
Mozilla/5.0_(compatible;_Google-Site-Verification/1.0) 20190223021843
}__test|O:21:\ 20190218194849
Mozilla/5.9'\ 20190224190530
END_UNKNOWNREFERER

# Unknown referer Browser - Last visit date
BEGIN_UNKNOWNREFERERBROWSER 2
Go-http-client/1.1 20190228175124
}__test|O:21:\ 20190218194849
END_UNKNOWNREFERERBROWSER

# Origin - Pages - Hits 
BEGIN_ORIGIN 6
From0 149 185
From1 20 20
From2 17 17
From3 90 90
From4 570 1796
From5 0 0
END_ORIGIN

# Search engine referers ID - Pages - Hits
BEGIN_SEREFERRALS 3
search_yahoo_co_jp 4 4
www_google_co_jp 3 3
www_google_com 10 10
END_SEREFERRALS

# External page referers - Pages - Hits
# The 10 first Pages must be first (order not required for others)
BEGIN_PAGEREFS 44
http://pizza-tycoon.com 14 14
http://burger-imperia.com 10 10
http://burger-tycoon.com 9 9
http://pizza-imperia.com 6 6
http://hundejo.com 6 6
https://www.facebook.com 3 3
https://ja.m.wikipedia.org 2 2
https://mybookit.ru/hotels/Yalta 2 2
http://ohayo.orgfree.com 2 2
https://ja.wikipedia.org 2 2
http://anime.lesbian.fetlifeblog.com 1 1
https://prom-electric.ru/articles/8/142466/ 1 1
http://chastnoesex.com 1 1
http://anemarie.hotblognetwork.com 1 1
https://culturalkiev.com 1 1
http://lesbianorgasms.bloglag.com 1 1
http://pornlesbians.bloglag.com 1 1
http://www.onko-24.com 1 1
http://redheadboot.redheadnyc.instakink.com 1 1
http://tiavaporn.fetlifeblog.com 1 1
https://thaismartloan.com 1 1
http://pornclips.butchlesbian.bloglag.com 1 1
http://pornnax.com 1 1
http://fetish.porn.instasexyblog.com 1 1
http://freedatingsites.allproblog.com 1 1
http://shirttops.whitesportshirt.instakink.com 1 1
http://lovedating.bloglag.com 1 1
http://crocoporn.instasexyblog.com 1 1
http://www.malleco.info 1 1
http://aksonural.ru 1 1
http://tattoosleeves.bloglag.com 1 1
http://lesbianscat.instasexyblog.com 1 1
http://psp.porn.fetlifeblog.com 1 1
http://twin.lesbians.relayblog.com 1 1
http://blonds.sexy.fetlifeblog.com 1 1
https://www.altivar31.ru 1 1
http://milf.ponstars.relayblog.com 1 1
http://tattoobodygirl.tattos.hotblognetwork.com 1 1
http://amature.porn.relayblog.com 1 1
http://milf.pronstars.allproblog.com 1 1
http://www.marinetraffic.com 1 1
http://marshag.ru 1 1
http://marshag.ru. 1 1
https://evercar.pp.ua 1 1
END_PAGEREFS

# Search keyphrases - Number of search
# The 10 first number of search must be first (order not required for others)
BEGIN_SEARCHWORDS 0
END_SEARCHWORDS

# Search keywords - Number of search
# The 10 first number of search must be first (order not required for others)
BEGIN_KEYWORDS 0
END_KEYWORDS

# Errors - Hits - Bandwidth
BEGIN_ERRORS 4
408 1 221
206 1 2346
404 528 12549
301 39 9485
END_ERRORS

# URL with 403 errors - Hits - Last URL referrer
BEGIN_SIDER_403 0
END_SIDER_403

# URL with 400 errors - Hits - Last URL referrer
BEGIN_SIDER_400 0
END_SIDER_400

# URL with 404 errors - Hits - Last URL referrer
BEGIN_SIDER_404 8
/sitemap.xml 1 -
/wp-includes/class-walker-nav-menu.php 1 -
/robots.txt 6 -
/11111111111111111111/ 1 http://chiyuki-murakata.com/11111111111111111111/
/administrator/index.php 1 -
/.well-known/assetlinks.json 1 -
/wp-login.php 1 -
/wp-content/plugins/contact-form-7/wp-contact-form-7.php 1 -
END_SIDER_404

# Host - Pages - Hits - Bandwidth - Last visit date - [Start date of last visit] - [Last page of last visit]
# [Start date of last visit] and [Last page of last visit] are saved only if session is not finished
# The 10 first Hits must be first (order not required for others)
BEGIN_VISITOR 353
ip97.ip-192-99-225.net 31 497 2167358 20190210091409
185.17.149.174 24 24 65596 20190222021327
93-120-176-95.dynamic.mts-nn.ru 24 24 74098 20190226113004
188-163-109-153.broadband.kyivstar.net 22 22 66444 20190228003203
dedic1215.hidehost.net 20 20 56544 20190227025620
207.189.0.77 16 16 43824 20190214031010
185.130.184.242 16 16 43616 20190226072601
91.221.211.238 16 16 51830 20190206200356
185.17.149.142 14 14 38300 20190213045848
185.130.184.197 12 12 32874 20190207203147
ns3312027.ip-5-135-164.eu 1 1 3955 20190212045902
37-115-216-154.broadband.kyivstar.net 3 3 9625 20190205005147
185.105.89.190 2 2 9642 20190202174845
adsl-109-228-l4668.crnagora.net 1 1 3955 20190216145153
77.243.191.34 2 2 5406 20190201014105
crawl.125-209-235-184.web.naver.com 1 1 2346 20190202040357
snpof.host1dns.com 11 11 50930 20190223051739
vm342489.had.su 1 1 2346 20190209054613
ogopogo.relay.coldhak.com 1 1 3955 20190213150815
crawl.125-209-235-185.web.naver.com 0 16 139877 
126.99-203-104.rdns.scalabledns.com 2 2 4120 20190226054453
185.17.149.147 6 6 16432 20190228194311
ny1.exit.tor.alkyl.eu.org 1 1 2346 20190209133458
sp1-72-8-176.msc.spmode.ne.jp 1 23 52511 20190211170451
103.232.65.58 1 1 3955 20190210183607
173.252.87.18 0 6 33651 
103.206.229.82 2 2 9772 20190220143156
207.244.70.35 1 1 2346 20190223232622
mail.keyerleber.com 1 1 2346 20190205072618
no.rdns.greencloudvps.com 2 2 3548 20190226092838
exproxy009.pf.news.kks.yahoo-net.jp 0 1 39098 
exproxy013.pf.news.kks.yahoo-net.jp 0 1 46098 
173.252.87.14 0 3 1183 
37-229-244-10.broadband.kyivstar.net 2 2 35724 20190223175904
77.233.20.49 2 2 5822 20190210102945
173.208.211.226 2 2 9260 20190206222108
om126179049116.19.openmobile.ne.jp 2 34 433870 20190206162506
crawl.125-209-235-176.web.naver.com 2 3 25482 20190223055010
46.191.232.208.dynamic.ufanet.ru 2 2 8585 20190220132739
185.189.113.36 2 2 5460 20190222204420
82.204.217.132 1 1 3955 20190212211405
5x167x96x238.dynamic.tver.ertelecom.ru 1 1 3955 20190205211120
31.184.238.20 3 3 9409 20190204000543
exproxy003.pf.news.kks.yahoo-net.jp 0 1 39098 
83.97.23.181 2 2 5584 20190216215415
pw126033155037.23.panda-world.ne.jp 2 32 264779 20190216190541
173.252.87.17 0 2 22211 
5.150.254.67 2 2 5758 20190227031521
crawl.125-209-235-177.web.naver.com 1 4 24567 20190202040354
om126200019062.15.openmobile.ne.jp 1 23 52511 20190213214024
165.178.151.61.dial.xw.sh.dynamic.163data.com.cn 1 1 4630 20190201010843
188.166.119.186 1 1 3955 20190205175124
173.252.87.2 0 3 94400 
46-118-116-37.broadband.kyivstar.net 2 2 5520 20190223115601
91.107.11.230 1 1 3955 20190210202907
p1970081-ipngn14901hodogaya.kanagawa.ocn.ne.jp 5 39 442426 20190228220641
207.189.0.91 2 2 5460 20190215180709
185.130.184.232 8 8 21814 20190228091432
node-blg.pool-1-10.dynamic.totbroadband.com 2 2 5462 20190202012919
94.244.135.223.nash.net.ua 2 2 7910 20190224112135
83.149.37.198 1 1 3955 20190202031921
88-147-152-203.dynamic.152.147.88.in-addr.arpa 1 1 3955 20190208161439
193.232.113.244 5 5 18088 20190226182752
vps-zap389998-6.zap-srv.com 1 1 0 20190207114420
31.184.238.56 2 2 24100 20190205145940
p5b243335.dip0.t-ipconnect.de 1 1 3600 20190205054907
185.220.101.46 3 3 7038 20190216124235
fs76eecc2d.tkyc203.ap.nuro.jp 1 43 337596 20190208190722
167.99.212.214 2 2 4120 20190222063036
93.188.34.197.cl.ipnet.ua 2 2 7910 20190218151203
exproxy000.pf.news.kks.yahoo-net.jp 0 1 37649 
mm-45-206-84-93.mogilev.dynamic.pppoe.byfly.by 2 2 6102 20190214055158
tor8.quintex.com 1 1 2346 20190209133704
tor26.quintex.com 1 1 2346 20190209133435
marylou.nos-oignons.net 1 1 2346 20190218032243
185.234.219.246 6 6 23042 20190228091907
185.17.149.161 6 6 16348 20190216223600
46-246-25-86-static.glesys.net 2 2 10002 20190221162255
p5b23ee18.dip0.t-ipconnect.de 1 1 3600 20190203004906
planetlab5.net.in.tum.de 4 4 0 20190222171744
exit1-ams.censurfritinternet.dk 2 2 5688 20190224224157
wholesomeserver.media.mit.edu 1 1 1763 20190219222801
vps02.snthostings.com 2 2 11389 20190204064901
173.234.100.179 2 2 8585 20190214075410
173.252.95.6 0 7 30082 
46x0x203x186.static-customer.samara.ertelecom.ru 1 1 1535 20190202001020
ppp91-79-14-126.pppoe.mtu-net.ru 1 1 4630 20190202120907
41.193.55.190 1 1 3955 20190227113819
120.132.52.228 2 2 8920 20190226044715
173.252.87.10 0 3 7458 
46-185-122-204.broadband.kyivstar.net 2 2 7218 20190211203750
customer.worldstream.nl 6 6 25128 20190220055707
89-70-124-180.dynamic.chello.pl 1 1 3955 20190209153420
77.233.9.252 2 2 5430 20190223232656
exproxy015.pf.news.kks.yahoo-net.jp 0 2 89834 
173.252.127.7 1 7 12553 20190202175834
173.252.127.34 0 2 21223 
tollana.enn.lu 1 1 2346 20190211183633
ip233.ip-193-70-52.eu 2 2 6856 20190213062438
crawl.125-209-235-182.web.naver.com 0 1 335 
116-94-157-100.ppps.bbiq.jp 1 23 52511 20190201105507
185.130.184.207 6 6 16354 20190220162440
82.102.18.61 4 4 10922 20190218063436
net182.79.95-106.izhevsk.ertelecom.ru 2 2 6976 20190211112457
exit3.tor-network.net 2 2 5796 20190218062453
173.211.107.233.rdns.colocationamerica.com 1 1 2346 20190214180849
ip96f9d6fa.ap.nuro.jp 1 8 27974 20190220140224
recovering-lost.com 1 1 2346 20190211191358
106.75.140.217 1 1 3955 20190223201053
5.8.47.2 10 10 46300 20190220084832
lan-213-159-38-90.vln.penki.lt 3 3 9555 20190205032829
18.88.85.34.bc.googleusercontent.com 0 1 39098 
26846a964e6f2817.encrypt.co.il 1 1 2346 20190224001010
37-115-193-34.broadband.kyivstar.net 3 3 10631 20190211145949
45.76.221.133.vultr.com 2 2 9260 20190227171919
tor3e1.digitale-gesellschaft.ch 1 1 2346 20190218025706
nyc-exit.privateinternetaccess.com 2 2 5746 20190224131343
tor-exit.dhalgren.org 2 2 5686 20190214063923
crawl.125-209-235-171.web.naver.com 0 15 135515 
ec2-54-144-25-108.compute-1.amazonaws.com 1 1 0 20190221075501
22-120-232-186.dynamic.pinhaistelecom.com.br 1 1 3955 20190205211105
178-17-170-194.static.as43289.net 2 2 5764 20190222132439
145.255.28.2.dynamic.ufanet.ru 1 1 3955 20190208134856
tor-exit0.fkraus.com 1 1 2346 20190218025959
ip158.ip-54-38-57.eu 2 2 5704 20190205211115
185.189.115.20 4 4 10912 20190205064305
173.252.95.20 1 6 116114 20190209184520
178.128.173.108 2 2 5490 20190208025853
tor-exit.local 1 1 2346 20190209133605
193.85.170.178 1 1 3955 20190222115928
exproxy007.pf.news.kks.yahoo-net.jp 0 1 37649 
185.17.149.157 4 4 10870 20190202065514
185.130.184.254 6 6 16370 20190216064036
internetsurvey.digitalstakeout.com 2 2 4692 20190226153525
ns501342.ip-192-99-15.net 1 1 2346 20190224051949
120.132.52.104 2 2 4203 20190218183114
dedic705.hidehost.net 5 5 41663 20190220231443
185.130.184.200 2 2 5462 20190222130536
tor4e3.digitale-gesellschaft.ch 1 1 2346 20190224004945
69.18.236.151.in-addr.arpa 2 2 5700 20190222115533
1.20.100.91 1 1 3955 20190221020835
103.244.204.66 2 2 5340 20190205235309
165.231.161.91 1 1 3955 20190226031556
103.109.92.234 2 2 5396 20190208124825
173.252.95.4 0 3 11735 
orwell.xen.prgmr.com 1 1 2346 20190218030045
173.252.127.12 0 3 11574 
84-241-46-96.shatel.ir 1 1 3955 20190216181046
ip236.ip-51-38-162.eu 3 3 13890 20190224190530
ch-die001-vserver-226.customer.fsit.com 2 2 5718 20190202135453
103.140.104-static.rdns.serverhub.com 1 1 3955 20190203211819
vpnintra.angolatelecom.ao 1 1 2431 20190220060402
ns316491.ip-37-187-129.eu 1 1 3955 20190219222800
fixed-187-190-237-113.totalplay.net 1 1 2346 20190209003321
37-115-114-228.broadband.kyivstar.net 4 4 15820 20190222005504
178.162.192.65 1 1 2346 20190222051148
zrh-exit.privateinternetaccess.com 1 1 3955 20190227225744
173.44.167.242 2 2 4728 20190204034235
185.234.217.11 1 1 697 20190205071043
this-is-a-tor-exit-node-hviv128.hviv.nl 1 1 3955 20190216202650
31-186-53-149.aknet.kg 1 1 3955 20190214015823
kd106132082075.au-net.ne.jp 0 1 39098 
host-73-176.239-178.enter.it 1 1 3955 20190216041031
106.75.140.139 1 1 3955 20190225214400
ns520684.ip-158-69-118.net 1 1 4630 20190222150807
104.251.91.151 1 1 2346 20190218181656
106.75.140.166 1 1 3955 20190220091454
193.106.30.98 1 1 2346 20190206020742
host.uic.in.ua 2 2 38066 20190209145640
209.242.216.106 2 2 4723 20190201053317
pppoe.178-66-32-128.dynamic.avangarddsl.ru 1 1 3955 20190219103459
exit04.brasshorncomms.uk 2 2 4692 20190211184304
81.162.237.120 2 2 10326 20190219021449
ec2-34-231-241-191.compute-1.amazonaws.com 1 1 4630 20190224043800
178-17-170-135.static.as43289.net 1 1 2346 20190218030116
p6fd816a8.tokyuc00.ap.so-net.ne.jp 1 18 100937 20190209102812
tor-exit-relay.ddnsfree.com 1 1 2346 20190218030413
23.101.169.3 4 36 30984 20190209011251
210.161.132.8 3 44 620825 20190219120851
217.23.5.205 2 2 8706 20190218092040
ec2-54-200-9-84.us-west-2.compute.amazonaws.com 1 1 2346 20190227221115
p96f64937.tokynt01.ap.so-net.ne.jp 2 32 264779 20190211204645
crawl.125-209-235-179.web.naver.com 1 1 2346 20190209023853
51-15-15-164.rev.poneytelecom.eu 3 3 9515 20190216092554
tor17.quintex.com 1 1 2346 20190211192430
ai126228199018.66.access-internet.ne.jp 1 1 4630 20190225220854
120.132.52.143 1 1 3955 20190220060355
tor44.quintex.com 1 1 2346 20190211184012
85.248.227.165 1 1 2346 20190211183946
138.210.73.178.in-addr.arpa 2 2 5386 20190210210601
43.184.104.185.in-addr.arpa 1 1 4630 20190216032830
mm-166-64-121-178.mgts.dynamic.pppoe.byfly.by 2 2 6204 20190204190807
ec2-34-228-53-188.compute-1.amazonaws.com 1 1 0 20190221221608
66.ip-54-37-234.eu 2 2 4692 20190218030132
pool-71-113-147-100.hrbgpa.fios.verizon.net 2 2 5858 20190220113726
tor-exit-anonymizer-04.appliedprivacy.net 4 4 8791 20190218033005
134.17.169.205 2 2 4120 20190201021900
77.243.191.38 2 2 5448 20190202044015
193.169.254.83 3 3 13890 20190218194849
firefox.pro 2 2 6110 20190206100315
185.17.149.141 8 8 21848 20190210164611
1.125.214.202.rev.vmobile.jp 1 1 4959 20190213093151
157.230.111.173 2 2 5774 20190206152145
sogouspider-106-120-173-79.crawl.sogou.com 0 25 24170 
fp276fd084.tkyc005.ap.nuro.jp 0 2 6350 
93-120-172-144.dynamic.mts-nn.ru 5 5 16831 20190223235626
185.17.149.165 4 4 10902 20190222155118
ns504614.ip-198-27-69.net 1 1 2346 20190221020827
14-80-15-51.rev.cloud.scaleway.com 3 3 7038 20190211201510
web1.piyasa.com 2 2 5752 20190207135407
37-115-184-19.broadband.kyivstar.net 2 2 9260 20190223050519
2.224.128.114 2 2 7804 20190210200645
81-171-75-109.ipvanish.com 1 1 3955 20190214073152
5.188.62.5 2 2 4692 20190217101324
mm-13-69-121-178.mgts.dynamic.pppoe.byfly.by 1 1 3955 20190218122104
185.104.184.122 2 2 5436 20190228091432
ip96f9d6fd.ap.nuro.jp 3 3 9322 20190225052737
li1552-149.members.linode.com 1 1 2346 20190205020927
185.14.193.2 2 2 9260 20190205074552
178.62.74.6 6 6 18116 20190217224737
185.220.102.4 2 2 5778 20190210183745
ec2-34-211-19-16.us-west-2.compute.amazonaws.com 1 1 2346 20190228175124
178-137-81-250.broadband.kyivstar.net 2 2 5486 20190215125352
mx-ll-171.5.229-219.dynamic.3bb.co.th 2 2 15144 20190212234146
vps.h-x.eu 1 1 4630 20190218211341
tor.cusse.org 1 1 2346 20190211184803
dedic1130.hidehost.net 1 1 3955 20190215101720
170.247.126.69 1 1 3955 20190219063311
exit1.ipredator.se 4 4 12031 20190224224105
hosted-by.shineservers.com 2 2 12004 20190222010110
ip96f9d6f9.ap.nuro.jp 0 3 10668 
185.49.93.104 2 2 19960 20190218064210
2.tor-exit.neelc.org 2 2 4692 20190223233653
nttkyo1013172.tkyo.nt.ngn.ppp.infoweb.ne.jp 1 28 364795 20190201113302
173.252.127.8 0 3 6878 
alycia.tor.cypher.fi 1 1 2346 20190211183753
static.88-198-27-52.clients.your-server.de 1 1 2346 20190224085233
193.176.86.100 2 2 7910 20190224103802
176-8-91-63.broadband.kyivstar.net 2 2 5548 20190226025819
203.12.85.34.bc.googleusercontent.com 5 5 23150 20190217212419
ecs-159-138-20-247.compute.hwclouds-dns.com 1 1 3955 20190209084838
sp49-98-142-15.msd.spmode.ne.jp 1 22 169971 20190206204329
tor-exit-anonymizer-05.appliedprivacy.net 3 3 7994 20190225042421
173.252.127.5 0 3 112825 
136.168.243.36.dynamic.o56.ru 2 2 35134 20190212181953
crawl.125-209-235-169.web.naver.com 1 1 2346 20190209023856
119-171-234-89.rev.home.ne.jp 3 32 208538 20190211190208
176.10.99.200 2 2 5816 20190205045913
155.94.139.19.static.quadranet.com 2 2 7710 20190223193405
178.171.107.199 1 1 2346 20190221131004
tor-exit4-readme.dfri.se 2 2 4692 20190218031549
119.10.177.94 1 1 3955 20190204113542
185.220.70.151 3 3 11709 20190214144550
tor-exit.iffi.it 1 1 2346 20190211184602
ip96f9d6fe.ap.nuro.jp 0 2 5811 
maturitiness-soda.volia.net 3 3 11865 20190218230153
broadband-5-228-160-98.ip.moscow.rt.ru 1 1 3955 20190207161051
191.ip-139-99-98.eu 1 1 2346 20190211191102
150-66-84-196m5.mineo.jp 2 32 264779 20190212144605
162.250.2.87 1 1 3955 20190214103457
62-109-8-153.domengood.ru 2 2 4630 20190210084410
zz2015428653d307a4f2.userreverse.dion.ne.jp 2 30 425561 20190208172350
185.189.115.19 8 8 21822 20190221152440
89-76-239-204.dynamic.chello.pl 2 2 8585 20190224165842
ec2-18-208-223-207.compute-1.amazonaws.com 1 1 2346 20190216053438
2.93.108.184 2 2 6748 20190207232759
5.35.28.202 2 2 7910 20190222055411
185.189.113.37 2 2 5452 20190223075055
61.194.1.137 1 23 52511 20190205143643
178.171.15.189 1 1 2346 20190228163120
46-119-119-195.broadband.kyivstar.net 6 6 16700 20190213095838
exproxy011.pf.news.kks.yahoo-net.jp 0 2 76747 
mail.bituk.ru 6 6 19548 20190216132610
31.173.86.173 1 1 3955 20190211225914
tor-exit-anonymizer-08.appliedprivacy.net 2 2 4692 20190211183148
59.56.241.218 1 1 2346 20190201014148
185.156.174.14 4 4 10932 20190207163141
vm495042.had.su 4 4 15452 20190204213215
l37-195-164-137.novotelecom.ru 6 6 21420 20190215221233
tor-exit-anonymizer-06.appliedprivacy.net 2 2 4692 20190218030836
lu1.exit.tor.alkyl.eu.org 1 1 2346 20190218030029
tor-exit-node.scalaire.com 1 1 2346 20190209142004
185.222.202.12 1 1 2346 20190209135509
rate-limited-proxy-72-14-199-30.google.com 1 1 2346 20190223021843
host192-82.nat-pool1.aviel.ru 6 6 16129 20190219175920
tor-exit0-readme.dfri.se 1 1 2346 20190218030039
host148-52-237-212.serverdedicati.aruba.it 2 2 6946 20190218094110
195-123-216-220.online.net 1 1 3955 20190228063833
134.73.199.154 1 1 2346 20190225125954
nat-161.23.intelsc.net 2 2 10282 20190224032933
tor.les.net 1 1 2346 20190218030040
promoc-0749.promocloud.net 1 1 2346 20190207145655
178-137-16-113.broadband.kyivstar.net 1 1 4630 20190201164600
173.252.95.28 0 3 7626 
173.252.87.15 1 5 11068 20190227194428
90-188-255-142.pppoe.irtel.ru 2 2 14110 20190224163733
om126208180029.22.openmobile.ne.jp 1 22 169971 20190210214421
15-74-238-91.knet-tele.com 4 4 13314 20190222095005
104.248.4.193 1 1 4630 20190220023059
tor4e1.digitale-gesellschaft.ch 1 1 2346 20190209133242
tor4.quintex.com 1 1 2346 20190209133739
mm-155-113-122-178.mgts.dynamic.pppoe.byfly.by 1 1 3955 20190216145204
tor-exit-anonymizer-07.appliedprivacy.net 4 4 10434 20190227172830
tor-exit-anonymizer-03.appliedprivacy.net 1 1 2346 20190209140325
91.205.239.219 3 3 11669 20190205213127
31.28.163.38 2 2 5544 20190211185956
ip96f9d6fb.ap.nuro.jp 1 7 103008 20190222123500
g52.124-44-131.ppp.wakwak.ne.jp 1 23 52511 20190212014043
109-252-11-98.nat.spd-mgts.ru 2 2 6136 20190222142628
h31-3-251-196.host.redstation.co.uk 4 4 10946 20190214221757
azteca-comunicaciones.com 1 1 3955 20190202001012
185.130.184.237 8 8 22010 20190213074757
ec2-18-182-62-171.ap-northeast-1.compute.amazonaws.com 1 1 4630 20190228234743
ec2-18-219-193-70.us-east-2.compute.amazonaws.com 2 2 9260 20190228031124
manipogo.relay.coldhak.com 1 1 2346 20190211184400
tor5e1.digitale-gesellschaft.ch 6 6 15064 20190216124230
194.134.254.195.fastweb.ro 1 1 1771 20190216041033
crawl.125-209-235-186.web.naver.com 1 19 124427 20190223055022
194.99.105.206 2 2 8585 20190205213717
173.252.95.14 0 3 4414 
ip96f9d6fc.ap.nuro.jp 3 4 32396 20190222123500
88.200.179.176 2 2 6330 20190208004756
46-118-122-90.broadband.kyivstar.net 2 2 5568 20190220103728
103.66.178.98 1 1 3955 20190224202319
tor-exit5-readme.dfri.se 2 2 4692 20190209141516
tor5e3.digitale-gesellschaft.ch 1 1 1769 20190227225745
tor-exit-2.zbau.f3netze.de 1 1 2346 20190209135756
222.ip-51-77-244.eu 1 1 2346 20190218030028
exit1.k25pack.cz 1 1 2346 20190218030153
80.78.75.71 2 2 5670 20190222115922
185.255.96.99 3 3 10493 20190224160917
31.184.238.115 4 4 13264 20190211211659
109-184-143-80.dynamic.mts-nn.ru 2 2 5550 20190207053417
62-210-105-116.rev.poneytelecom.eu 1 1 2346 20190218040313
40.117.171.139 1 1 4630 20190225214546
tor-exit1-readme.dfri.se 2 2 4692 20190211190113
mm-236-238-122-178.mgts.dynamic.pppoe.byfly.by 2 2 10254 20190203193504
207.189.0.76 8 8 21870 20190218142049
173.252.127.36 0 4 4918 
46-119-126-227.broadband.kyivstar.net 2 2 5600 20190218140234
host.89.ipoe2.subnets.khb.ttkdv.ru 1 1 3955 20190206113156
softbank060149001101.bbtec.net 5 46 593928 20190210223801
37.139.8.104 1 1 2346 20190218031250
31.184.238.9 6 6 19298 20190222173241
toreador.webenlet.hu 2 2 5690 20190213150906
207.189.0.73 2 2 5402 20190203044953
host-80-95-45-58.dsl.sura.ru 1 1 3955 20190212063625
crawl.125-209-235-180.web.naver.com 1 10 64402 20190216040602
185.220.70.132 1 1 3955 20190212092209
185.130.184.206 4 4 10922 20190224143541
58.57.36a9.ip4.static.sl-reverse.com 1 1 3955 20190217053133
161.206.120.153.tokyo.global.crust-r.net 7 55 616430 20190207180019
dedic1222.hidehost.net 1 1 3955 20190207054627
END_VISITOR

# Date - Pages - Hits - Bandwidth - Visits
BEGIN_DAY 28
20190201 19 68 465157 13
20190202 31 72 412539 20
20190203 17 17 56652 9
20190204 25 26 122151 13
20190205 40 62 195749 25
20190206 33 86 704075 20
20190207 28 81 685450 14
20190208 25 90 681636 16
20190209 45 100 449682 35
20190210 58 586 2995993 15
20190211 50 131 650393 35
20190212 25 119 777652 15
20190213 25 51 287740 16
20190214 33 44 165445 18
20190215 18 18 53901 11
20190216 45 76 417657 27
20190217 22 24 148164 9
20190218 57 57 185652 39
20190219 30 71 705171 18
20190220 34 55 296904 22
20190221 18 23 58606 13
20190222 38 38 120622 24
20190223 30 35 149274 19
20190224 33 33 118212 23
20190225 10 10 31183 8
20190226 21 37 204967 11
20190227 15 38 290999 11
20190228 21 60 499847 11
END_DAY

# Session range - Number of visits
BEGIN_SESSION 7
1h+ 1
5mn-15mn 3
0s-30s 494
15mn-30mn 4
30s-2mn 6
2mn-5mn 1
30mn-1h 1
END_SESSION

# URL - Pages - Bandwidth - Entry - Exit
# The 10 first Pages must be first (order not required for others)
BEGIN_SIDER 28
/contact/ 336 1304889 317 92
/contact/contact.cgi 242 657227 6 232
/ 197 590205 171 160
/discography/ 12 54420 5 5
/profile/ 12 65695 2 7
/message/ 10 25290 5 5
/lesson/ 9 14553 4 4
/news/ 6 21299 0 2
/link/ 2 3352 0 1
/cartform/cartform.html 2 4272 0 1
/discography/cd_works2.html 1 2825 0 0
/contact/shinobukai2015/ 1 1822 0 0
/discography/audio/villa_02.html 1 795 0 0
/news/concert.html 1 3393 0 0
/discography/audio/works2_2-1.html 1 811 0 0
/discography/audio/works2_2-5.html 1 813 0 0
/discography/audio/villa_09.html 1 781 0 0
/discography/audio/works2_2-4.html 1 812 0 0
/discography/audio/villa_12.html 1 762 0 0
/discography/audio/villa_08.html 1 787 0 0
/discography/audio/villa_05.html 1 769 0 0
/discography/audio/help.html 1 1614 0 1
/discography/cd_villa.html 1 2905 0 0
/message/message01.html 1 2781 0 0
/discography/audio/villa_01.html 1 775 0 0
/discography/audio/works2_1-4.html 1 796 0 0
/discography/audio/works2_1-1.html 1 781 0 0
/discography/audio/works2_1-5.html 1 792 0 0
END_SIDER
