AWSTATS DATA FILE 7.6 (build 20161204)
# If you remove this file, all statistics for date 201911 will be lost/reset.
# Last config file used to build this data file was /virtual/chiyuki/public_html/log/awstats/cgi-bin/awstats.chiyuki-murakata.com.conf.

# Position (offset in bytes) in this file for beginning of each section for
# direct I/O access. If you made changes somewhere in this file, you should
# also remove completely the MAP section (AWStats will rewrite it at next
# update).
BEGIN_MAP 30
POS_GENERAL 2109                
POS_TIME 2781                
POS_VISITOR 11964               
POS_DAY 30986               
POS_DOMAIN 3602                
POS_LOGIN 4310                
POS_ROBOT 4465                
POS_WORMS 5678                
POS_EMAILSENDER 5809                
POS_EMAILRECEIVER 5952                
POS_SESSION 31779               
POS_SIDER 31958               
POS_FILETYPES 6087                
POS_DOWNLOADS 6295                
POS_OS 6377                
POS_BROWSER 6668                
POS_SCREENSIZE 8465                
POS_UNKNOWNREFERER 8539                
POS_UNKNOWNREFERERBROWSER 8786                
POS_ORIGIN 8958                
POS_SEREFERRALS 9101                
POS_PAGEREFS 9317                
POS_SEARCHWORDS 9956                
POS_KEYWORDS 10108               
POS_MISC 2445                
POS_ERRORS 10167               
POS_CLUSTER 4166                
POS_SIDER_403 10292               
POS_SIDER_400 10374               
POS_SIDER_404 10456               
END_MAP

# LastLine    = Date of last record processed - Last record line number in last log - Last record offset in last log - Last record signature value
# FirstTime   = Date of first visit for history file
# LastTime    = Date of last visit for history file
# LastUpdate  = Date of last update - Nb of parsed records - Nb of parsed old records - Nb of parsed new records - Nb of parsed corrupted - Nb of parsed dropped
# TotalVisits = Number of visits
# TotalUnique = Number of unique visitors
# MonthHostsKnown   = Number of hosts known
# MonthHostsUnKnown = Number of hosts unknown
BEGIN_GENERAL 8
LastLine 20191201000901 1 0 12883168069003
FirstTime 20191101001440
LastTime 20191130191427
LastUpdate 20191202043332 1 0 0 0 0
TotalVisits 490                 
TotalUnique 355                 
MonthHostsKnown 233                 
MonthHostsUnknown 143                 
END_GENERAL

# Misc ID - Pages - Hits - Bandwidth
BEGIN_MISC 10
QuickTimeSupport 0 0 0
JavaEnabled 0 0 0
JavascriptDisabled 0 0 0
PDFSupport 0 0 0
WindowsMediaPlayerSupport 0 0 0
AddToFavourites 0 0 0
RealPlayerSupport 0 0 0
TotalMisc 0 0 0
DirectorSupport 0 0 0
FlashSupport 0 0 0
END_MISC

# Hour - Pages - Hits - Bandwidth - Not viewed Pages - Not viewed Hits - Not viewed Bandwidth
BEGIN_TIME 24
0 42 42 147790 94 120 1195877
1 38 55 221544 66 107 192447
2 36 84 639542 135 184 2240387
3 29 50 277627 141 189 2821634
4 41 41 158904 40 117 284350
5 25 25 86335 26 43 89568
6 39 61 194130 31 54 314118
7 36 37 154956 25 48 66169
8 19 20 94182 27 46 109721
9 37 85 835905 27 66 445610
10 23 45 117749 67 98 1197611
11 27 30 125167 38 92 176394
12 27 27 89917 86 128 1113813
13 23 25 157850 28 53 129352
14 32 54 148143 52 112 342445
15 45 92 550956 49 77 93412
16 31 31 106733 36 72 881997
17 48 56 157575 30 40 61417
18 25 41 122228 35 77 287054
19 41 96 750098 34 52 301989
20 34 34 109978 21 37 505418
21 31 95 1020659 29 45 75134
22 24 24 76592 40 64 110830
23 49 78 501514 90 125 1207474
END_TIME

# Domain - Pages - Hits - Bandwidth
# The 10 first Pages must be first (order not required for others)
BEGIN_DOMAIN 37
ip 270 291 1171978
net 182 314 2272639
ru 123 123 418190
com 95 165 758976
eu 26 26 100461
jp 19 213 1759749
su 11 11 77351
de 9 9 23087
org 8 8 28483
pa 8 8 23628
il 2 2 7910
ua 7 7 25565
biz 1 1 4630
cn 2 2 5777
yt 1 1 3955
kz 2 2 7910
fr 1 1 3955
cloud 1 1 2346
ro 2 2 5688
in 1 1 2346
ec 1 1 3955
id 1 1 3955
co 1 1 3955
br 5 6 50390
me 2 2 5708
by 3 3 9641
lt 2 2 7910
edu 2 2 5690
cl 1 1 3955
adsl 1 1 2986
au 1 1 0
ch 2 2 5742
icu 1 9 8475
it 1 1 3955
hu 3 3 11821
pl 3 3 9357
nl 1 1 3955
END_DOMAIN

# Cluster ID - Pages - Hits - Bandwidth
BEGIN_CLUSTER 0
END_CLUSTER

# Login - Pages - Hits - Bandwidth - Last visit
# The 10 first Pages must be first (order not required for others)
BEGIN_LOGIN 0
END_LOGIN

# Robot ID - Hits - Bandwidth - Last visit - Hits on robots.txt
# The 10 first Hits must be first (order not required for others)
BEGIN_ROBOT 29
bot[\s_+:,\.\;\/\\-] 380 8834024 20191130014805 0
bingpreview 213 466870 20191130044740 0
MSIE[\x20]6 172 63154 20191130075141 0
bingbot/ 115 1327373 20191130224754 0
Googlebot/ 114 177225 20191130215749 0
yeti 66 353637 20191125041414 0
SemrushBot/ 55 127237 20191130234511 0
link 50 416402 20191130063608 0
AhrefsBot/ 45 386786 20191130110524 0
MJ12bot/ 36 78132 20191126235519 0
Googlebot\-Image/ 1 767 20191113000143 0
CCBot/ 10 26101 20191121191954 0
(firefox/)([0-9]\.|[0-1][0]\.) 6 9897 20191115171725 0
core 4 7668 20191121112002 0
oBot/ 9 57978 20191110010941 0
no_user_agent 4 18520 20191113222306 0
spider 12 30765 20191128023015 0
DotBot/ 7 34976 20191105005257 0
360Spider 21 49266 20191130041818 0
php 1 0 20191107054236 0
Sogou[\x20]web[\x20]spider/ 12 4692 20191130031718 0
msnbot/ 19 79329 20191126003236 0
python 9 21114 20191130071156 0
YandexBot/ 10 29773 20191129004557 0
internetarchive 1 0 20191102061021 0
twitterbot 3 8475 20191124182922 0
Applebot/ 27 72010 20191130014847 0
facebookexternalhit/ 5 1491242 20191125093540 0
^Mozilla$ 1 0 20191125223207 0
END_ROBOT

# Worm ID - Hits - Bandwidth - Last visit
# The 5 first Hits must be first (order not required for others)
BEGIN_WORMS 0
END_WORMS

# EMail - Hits - Bandwidth - Last visit
# The 20 first Hits must be first (order not required for others)
BEGIN_EMAILSENDER 0
END_EMAILSENDER

# EMail - Hits - Bandwidth - Last visit
# The 20 first hits must be first (order not required for others)
BEGIN_EMAILRECEIVER 0
END_EMAILRECEIVER

# Files type - Hits - Bandwidth - Bandwidth without compression - Bandwidth after compression
BEGIN_FILETYPES 8
css 135 105155 0 0
png 6 544746 0 0
cgi 222 777834 0 0
php 575 2079059 0 0
html 5 11310 0 0
jpg 79 2564535 0 0
js 6 1554 0 0
gif 200 761881 0 0
END_FILETYPES

# Downloads - Hits - Bandwidth
BEGIN_DOWNLOADS 1
/news/SEN-2012web.pdf 9 0 7004088
END_DOWNLOADS

# OS ID - Hits
BEGIN_OS ID - Hits - Pages 17
linuxandroid 91 16
macosx11 7 7
winxp 22 22
winlong 10 8
ios_iphone 163 19
win2000 1 1
macosx9 1 1
win8 10 10
macosx12 2 2
linux 26 18
win7 321 300
macosx 7 7
macosx10 2 2
win8.1 82 82
win10 454 278
Unknown 28 28
macosx8 1 1
END_OS

# Browser ID - Hits - Pages
BEGIN_BROWSER 84
chrome52.0.2743.116 5 5
edge12 2 2
chrome72.0.3626.121 1 1
chrome39.0.2171.95 2 2
chrome68.0.3423.2 1 1
chrome58.0.3029.110 3 3
firefox70.0 1 1
msie7.0 3 1
opera54.0.2952.51 17 17
chrome66.0.3359.181 68 68
chrome49.0.2623.112 17 17
safari13.0.1 61 8
chrome65.0.3325.181 12 12
safari5.6.1 1 1
edge17 14 14
firefox40.0 1 1
chrome76.0.3809.132 3 3
chrome34.0.1847.131 1 1
chrome68.0.3440.106 69 69
chrome63.0.3239.132 3 3
chrome62.0.3202.94 1 1
chrome78.0.3904.87 35 5
firefox47.0 3 3
chrome46.0.2490.80 2 2
firefox68.0 1 1
chrome78.0.3904.97 123 14
mozilla 1 1
chrome78.0.3904.70 2 2
netscape5.0 50 8
chrome32.0.1700.76 4 4
chrome68.0.3440.84 42 42
chrome40.0.2214.89 7 7
firefox60.0 1 1
chrome78.0.3904.96 37 2
chrome35.0.1916.47 1 1
chrome41.0.2228.0 24 3
safari12.1.2 28 1
safari 23 1
chrome67.0.3396.87 60 60
safari10.1 3 3
chrome68.0.3440.75 14 14
chrome67.0.3396.79 26 26
firefox52.0 2 2
opera55.0.2994.44 22 22
chrome71.0.3578.98 2 2
firefox63.0 2 2
firefox45.54.01 1 1
firefox62.0 1 1
edge16 14 14
chrome26.0.1410.65 1 1
chrome34.0.1847.116 7 7
chrome40.0.2214.85 6 6
chrome33.0.1750.146 2 2
msie9.0 1 1
chrome75.0.3770.142 14 6
Unknown 27 27
chrome67.0.3396.18 2 2
chrome72.0.3626.109 7 7
opera12.15 2 2
chrome53.0.2785.49 6 5
opera62.0.3331.99 1 1
edge18 2 0
chrome53.0.2785.143 1 1
opera54.0.2952.71 12 12
chrome22.0.1207.1 1 1
opera53.0.2907.99 44 44
opera53.0.2907.68 28 28
chrome60.0.3100.2 1 1
chrome76.0.3809.100 1 1
chrome73.0.3683.86 9 1
firefox69.0 1 1
chrome78.0.3904.108 23 1
opera54.0.2952.54 14 14
safari4.0 4 4
msie11.0 29 2
chrome74.0.3729.131 2 2
safari9.0 5 5
chrome67.0.3396.99 56 56
opera53.0.2907.106 9 9
msie10.0 3 3
opera54.0.2952.64 34 34
chrome70.0.3538.110 18 1
chrome65.0.3325.146 19 19
chrome67.0.3396.62 19 19
END_BROWSER

# Screen size - Hits
BEGIN_SCREENSIZE 0
END_SCREENSIZE

# Unknown referer OS - Last visit date
BEGIN_UNKNOWNREFERER 3
colly_-_https://github.com/gocolly/colly 20191119145736
Mozilla/5.0_(compatible;_Google-Site-Verification/1.0) 20191122192106
Go-http-client/1.1 20191127172654
END_UNKNOWNREFERER

# Unknown referer Browser - Last visit date
BEGIN_UNKNOWNREFERERBROWSER 2
colly_-_https://github.com/gocolly/colly 20191119145736
Go-http-client/1.1 20191127172654
END_UNKNOWNREFERERBROWSER

# Origin - Pages - Hits 
BEGIN_ORIGIN 6
From0 141 175
From1 0 0
From2 11 13
From3 14 14
From4 636 1026
From5 0 0
END_ORIGIN

# Search engine referers ID - Pages - Hits
BEGIN_SEREFERRALS 4
search_yahoo_co_jp 1 1
www_google_co_jp 4 4
bing 0 2
www_google_com 6 6
END_SEREFERRALS

# External page referers - Pages - Hits
# The 10 first Pages must be first (order not required for others)
BEGIN_PAGEREFS 11
http://hvataytovar.com 4 4
https://vkrim.info/sdam/object/51164 1 1
http://webcam-porn-tube.ru/sporty-girls-porn.html 1 1
https://meteocast.net 1 1
http://mandolin-hibiki.sakura.ne.jp/report001.html 1 1
http://free-porn-xxx-tube.ru/sasha-rose-bound-gang-bangs.html 1 1
http://mommy-porn-tube.ru/hot-milf-xhamster.html 1 1
http://www.monicablog.xyz/blog/69962835/view/ 1 1
https://prostitutkispb.su 1 1
http://pussy-porn-tube-com.ru/porn-mobile-version.html 1 1
https://ja.wikipedia.org 1 1
END_PAGEREFS

# Search keyphrases - Number of search
# The 10 first number of search must be first (order not required for others)
BEGIN_SEARCHWORDS 0
END_SEARCHWORDS

# Search keywords - Number of search
# The 10 first number of search must be first (order not required for others)
BEGIN_KEYWORDS 0
END_KEYWORDS

# Errors - Hits - Bandwidth
BEGIN_ERRORS 4
206 9 27396
400 1 226
301 143 34826
404 446 8360
END_ERRORS

# URL with 403 errors - Hits - Last URL referrer
BEGIN_SIDER_403 0
END_SIDER_403

# URL with 400 errors - Hits - Last URL referrer
BEGIN_SIDER_400 0
END_SIDER_400

# URL with 404 errors - Hits - Last URL referrer
BEGIN_SIDER_404 17
/robots.txt 9 -
/uatba.php 1 http://chiyuki-murakata.com/uatba.php
/ysyqq.php 1 http://chiyuki-murakata.com/ysyqq.php
/plus/download.php 1 http://chiyuki-murakata.com/plus/download.php
/fdgq.php 1 http://chiyuki-murakata.com/fdgq.php
/plus/90sec.php 1 http://chiyuki-murakata.com/plus/90sec.php
/user.php 2 45ea207d7a2b68c49582d2d22adf953aads|a:2:{s:3:\"num\"
/index.php 1 http://chiyuki-murakata.com/index.php
/cleoi.php 1 http://chiyuki-murakata.com/cleoi.php
/plus/moon.php 1 http://chiyuki-murakata.com/plus/moon.php
/plus/mytag_js.php 1 http://chiyuki-murakata.com/plus/mytag_js.php
/utility/convert/index.php 1 http://chiyuki-murakata.com/utility/convert/index.php
/e/DoInfo/ecms.php 1 http://chiyuki-murakata.com/e/DoInfo/ecms.php
/utility/convert/data/config.inc.php 1 http://chiyuki-murakata.com/utility/convert/data/config.inc.php
/FCKeditor/editor/filemanager/connectors/asp/connector.asp 1 http://chiyuki-murakata.com/FCKeditor/editor/filemanager/connectors/asp/connector.asp
/admin_aspcms/_system/AspCms_SiteSetting.asp 2 http://chiyuki-murakata.com/admin_aspcms/_system/AspCms_SiteSetting.asp
/uploads/dede/sys_verifies.php 2 http://chiyuki-murakata.com/uploads/dede/sys_verifies.php
END_SIDER_404

# Host - Pages - Hits - Bandwidth - Last visit date - [Start date of last visit] - [Last page of last visit]
# [Start date of last visit] and [Last page of last visit] are saved only if session is not finished
# The 10 first Hits must be first (order not required for others)
BEGIN_VISITOR 376
h251-115.fcsrv.net 44 44 165340 20191130121117
ns523931.ip-158-69-121.net 22 22 73492 20191128001507
dynamicip-46-0-117-175.pppoe.samara.ertelecom.ru 21 21 69789 20191113032919
188-163-109-153.broadband.kyivstar.net 19 19 56951 20191130113505
broadband-95-84-193-116.ip.moscow.rt.ru 14 14 39138 20191117195954
95.143.218.78 12 12 39546 20191114165400
51-15-15-164.rev.poneytelecom.eu 12 12 37974 20191128043412
unn-185-93-3-114.datapacket.com 10 10 40900 20191124171631
tuf507.ns.com.pa 8 8 23628 20191119143124
188-89-162-69.static.reverse.lstn.net 8 8 53348 20191113195958
176.110.134.2 1 1 3955 20191116164935
186-103-222-139.static.tie.cl 1 1 3955 20191121092451
kd113150180058.ppp-bb.dion.ne.jp 1 23 52511 20191124145417
199.244.88.124 1 1 2346 20191104172805
unn-185-93-3-107.datapacket.com 3 3 11638 20191111134812
ec2-54-236-93-219.compute-1.amazonaws.com 1 1 4630 20191123232224
108.177.213.23 1 1 2346 20191111154156
host-176-36-21-189.la.net.ua 1 1 3955 20191129001604
crawl.125-209-235-184.web.naver.com 1 5 13447 20191102034708
95.72.205.163 1 1 3955 20191105033400
31.14.73.80 1 1 2346 20191111221643
178-17-177-66.zgtk.ru 2 2 6086 20191111061558
crawl.125-209-235-185.web.naver.com 2 3 25659 20191109022440
106.75.140.164 1 1 3955 20191101134604
5-143-81-185.dynamic.primorye.net.ru 2 2 5748 20191117180303
111.29.3.192 2 2 5584 20191123125922
178-17-177-53.zgtk.ru 2 2 6248 20191107053753
ec2-18-237-68-252.us-west-2.compute.amazonaws.com 1 1 2346 20191109171320
mail.waterser.lt 2 2 7910 20191111205952
185.220.101.68 2 2 5740 20191122191617
120.132.52.85 2 2 6464 20191118235215
178-17-177-24.zgtk.ru 4 4 12960 20191126000721
185.220.101.58 2 2 5708 20191112133544
46.56.73.43 2 2 7222 20191110055258
torexit.schokomil.ch 2 2 5742 20191113200805
188.243.58.75.pool.sknt.ru 1 1 3955 20191108230932
217.118.92.87 2 2 5522 20191126160029
196.245.186.38 1 1 2346 20191122014351
unn-185-93-3-105.datapacket.com 3 3 11028 20191107092708
ik1-300-10399.vs.sakura.ne.jp 2 2 9260 20191107063817
static-5.157.56.2.wimax.broadbandusa.net 1 1 2346 20191118172813
212.46.18.202 1 1 3955 20191102144417
ec2-52-26-11-149.us-west-2.compute.amazonaws.com 1 1 2346 20191104145131
ec2-35-165-177-96.us-west-2.compute.amazonaws.com 1 1 2346 20191126021153
charon.s.daknob.net 2 2 5726 20191112211211
178.19.253.157 4 4 11210 20191124002243
96-82-74-134-static.hfc.comcastbusiness.net 1 1 3955 20191106072914
185.136.159.30 4 4 11782 20191115223404
crawl.125-209-235-176.web.naver.com 1 2 2602 20191116040508
ec2-3-81-69-171.compute-1.amazonaws.com 1 1 4630 20191127061232
sogouspider-218-30-103-70.crawl.sogou.com 0 2 2326 
46-173-55-27.gorcom.ru 5 5 15051 20191130145211
37.120.153.72 1 1 3955 20191116191645
172-221-014-027.res.spectrum.com 1 1 3955 20191115211911
45-84-52-95.baltnet.ru 1 1 3955 20191117000159
crawl.125-209-235-172.web.naver.com 1 2 3590 20191130022620
81.23.32.47 2 2 6706 20191103070218
46.101.9.216 7 7 19733 20191124061936
117.57.39.201 1 1 2136 20191122033624
106.75.140.107 1 1 3955 20191116122129
ecs-159-138-156-112.compute.hwclouds-dns.com 1 1 2136 20191130051904
245.200.10.177.isptec.com.br 3 3 9547 20191123072626
crawl.125-209-235-177.web.naver.com 0 4 26203 
eide.lprt.hu 2 2 7866 20191120202818
ec2-54-188-128-180.us-west-2.compute.amazonaws.com 1 1 513 20191107150246
120.132.52.124 2 2 5650 20191119073341
204.44.86.194.static.securedspeed.com 1 1 2346 20191121115718
mm-194-101-45-37.vitebsk.dynamic.pppoe.byfly.by 1 1 3955 20191124093422
ec2-34-216-114-198.us-west-2.compute.amazonaws.com 1 1 2986 20191106015110
usr-5-144-97-173.lanck.net 2 2 16464 20191118045246
rate-limited-proxy-66-249-87-92.google.com 1 1 2346 20191122192106
209.13.96.163 1 1 3955 20191112075244
62.113.202.69 4 4 7096 20191127075229
95.72.107.23 2 2 5722 20191127043423
201.64.22.50 1 1 3955 20191120144319
hn.kd.ny.adsl 1 1 2986 20191118234226
37.120.142.155 3 3 11094 20191117223959
2-234-219-120.ip224.fastwebnet.it 1 1 3955 20191106021418
222596.example.com 1 1 3955 20191111103938
94.244.135.223.nash.net.ua 2 2 8112 20191117222855
185.234.218.193 2 2 5364 20191118201448
183.27.50.130 1 1 2908 20191118164054
103.106.33.194 1 1 3955 20191102065102
ec2-35-166-23-177.us-west-2.compute.amazonaws.com 1 1 2346 20191127172654
120.132.53.20 1 1 3955 20191108120750
176.109.115.219 4 4 15820 20191110043627
ip-157-24-248-43.neuviz.net.id 1 1 3955 20191116005545
106.75.140.144 1 1 3955 20191114173331
62.210.111.127 1 1 3955 20191103142143
66.220.149.64 0 2 23944 
104.227.246.106 1 1 4630 20191104182239
planetlab5.net.in.tum.de 2 2 0 20191122102848
wholesomeserver.media.mit.edu 2 2 5690 20191119152720
kd124209137139.ppp-bb.dion.ne.jp 1 28 364795 20191106022317
109.229.69.180 2 2 5416 20191123160605
85.204.49.32 3 3 9877 20191107233007
ns3083464.ip-145-239-252.eu 2 2 7880 20191116085021
monitor.infotel.ru 1 1 3955 20191125145853
ec2-34-220-102-202.us-west-2.compute.amazonaws.com 1 1 2346 20191124171826
vmi210989.contaboserver.net 2 2 5912 20191128115510
ec2-34-217-42-252.us-west-2.compute.amazonaws.com 1 1 2346 20191113170226
37-115-216-65.broadband.kyivstar.net 6 6 28716 20191117114209
ec2-35-167-21-234.us-west-2.compute.amazonaws.com 1 1 2346 20191101170609
client.yota.ru 2 2 6102 20191107172908
176.96.225.175 2 2 6486 20191117021736
customer.worldstream.nl 1 1 3955 20191123234152
46-185-69-208.broadband.kyivstar.net 2 2 16362 20191116171439
ppp91-78-216-79.pppoe.mtu-net.ru 1 1 3955 20191101091521
crawl.125-209-235-182.web.naver.com 0 3 115731 
vm881996.had.yt 1 1 3955 20191130114119
106.75.140.68 1 1 3955 20191113060455
78.26.168.237 2 2 5688 20191130004508
ec2-52-38-214-62.us-west-2.compute.amazonaws.com 1 1 2986 20191114220021
95-55-38-207.dynamic.avangarddsl.ru 1 1 3955 20191128130537
ec2-35-161-233-206.us-west-2.compute.amazonaws.com 1 1 513 20191109171323
google-proxy-66-249-82-73.google.com 1 4 8033 20191130154432
93-79-147-110.khe.volia.net 1 1 3955 20191129153449
120.132.52.23 1 1 3955 20191108015706
78.26.141.150 2 2 9260 20191114042659
109-184-181-63.dynamic.mts-nn.ru 2 2 6864 20191112235046
drinkteawth.me 2 2 5708 20191122104033
nat.45.76.gb1.london.cloud.virgin-mobile.icu 1 9 8475 20191117173504
120.33.34.93 3 3 7038 20191119004722
crawl.125-209-235-171.web.naver.com 0 1 5192 
213.184.93.177 1 1 2346 20191114103356
google-proxy-66-249-82-71.google.com 0 10 85006 
ec2-54-245-53-197.us-west-2.compute.amazonaws.com 1 1 2346 20191107150306
188.92.72.129 1 1 2346 20191117123655
static.246.243.201.138.clients.your-server.de 2 2 5502 20191125164238
185.220.101.57 2 2 5690 20191116080543
213-167-221-88.domolink.elcom.ru 1 1 3955 20191113103936
46.8.22.9 1 1 4630 20191121162737
ec2-34-215-249-168.us-west-2.compute.amazonaws.com 1 1 513 20191120171728
crawl.125-209-235-170.web.naver.com 0 1 3154 
23.231.32.127 2 2 5494 20191124144330
151.106.11.185 3 3 10954 20191101001441
tor37.quintex.com 2 2 5770 20191110123615
113.100.89.220 1 1 513 20191106194946
176.96.225.191 2 2 7402 20191116200236
st55.zingurrani.org 2 2 11389 20191118121649
exproxy007.pf.news.kks.yahoo-net.jp 0 1 37649 
47.244.9.129 4 4 10904 20191118233335
ec2-54-212-81-220.us-west-2.compute.amazonaws.com 1 1 2346 20191117163135
62-210-79-40.rev.poneytelecom.eu 2 2 15748 20191130091429
ec2-54-218-249-168.us-west-2.compute.amazonaws.com 1 1 2346 20191116194117
crawl.125-209-235-173.web.naver.com 0 1 187 
ec2-34-219-1-155.us-west-2.compute.amazonaws.com 1 1 2346 20191123145918
ec2-54-212-89-136.us-west-2.compute.amazonaws.com 1 1 2346 20191119151849
billsf.tor-exit.calyxinstitute.org 2 2 5702 20191124010036
88.125.150.178.triolan.net 3 3 10313 20191105212916
static-ip-18687132220.cable.net.co 1 1 3955 20191101052310
185.104.184.115 2 2 5474 20191105232722
ec2-34-215-176-136.us-west-2.compute.amazonaws.com 1 1 513 20191124171831
37.120.217.108 1 1 2346 20191104080548
ec2-34-215-158-151.us-west-2.compute.amazonaws.com 1 1 2346 20191122172327
45.14.49.155 2 2 5736 20191119181039
66.220.149.52 1 13 108455 20191106194218
tor2.anonymizer.ccc.de 2 2 7684 20191119152659
catv-86-101-50-85.catv.broadband.hu 1 1 3955 20191107123934
static-170-79-120-130.andernettelecom.com.br 2 2 6816 20191112111033
5.188.84.11 6 6 23730 20191129025729
217.160.60.234 2 2 5906 20191103204221
host-94-103-95-53.hosted-by-vdsina.ru 1 1 4630 20191113003101
120.132.52.14 1 1 3955 20191112051608
unn-84-17-49-41.cdn77.com 3 3 12538 20191126195705
95.72.171.21 1 1 3955 20191102192613
93-127-111-3.static.vega-ua.net 2 2 6592 20191125023714
google-proxy-66-249-82-75.google.com 0 4 7898 
211.176.125.70 1 1 2346 20191101161423
79-139-234-3.dynamic.spd-mgts.ru 3 3 9319 20191117073706
37-115-146-70.broadband.kyivstar.net 5 5 26939 20191129110222
188.166.116.151 2 2 4120 20191101063456
109-186-217-71.bb.netvision.net.il 1 1 3955 20191127154907
crawl.125-209-235-167.web.naver.com 0 1 3076 
49.83.18.116 2 2 2763 20191104230127
103.109.0.242 2 2 7054 20191121112154
74.222.18.229 1 1 3955 20191121054244
ec2-34-221-6-84.us-west-2.compute.amazonaws.com 1 1 2346 20191126173537
188-163-97-83.broadband.kyivstar.net 1 1 3955 20191120005150
66.220.149.29 0 7 37572 
106.75.140.120 2 2 6510 20191108015725
host-185-251-38-4.hosted-by-vdsina.ru 8 8 29990 20191130073538
120.132.52.215 2 2 10358 20191128061457
5.134.80.170 2 2 5592 20191104213438
static.247.73.217.95.clients.your-server.de 1 1 2346 20191119145736
scanner1.ispsystem.net 1 1 513 20191126022804
210-194-202-100.rev.home.ne.jp 0 1 34027 
89.249.196.76 4 4 11622 20191126120206
83.220.227.161 1 1 3955 20191127172942
crawl.125-209-235-179.web.naver.com 0 2 1140 
dedic1273.hidehost.net 4 4 8240 20191122211127
static.19.71.188.95.dsl.krasnet.ru 1 1 3955 20191121061932
pw126233163083.20.panda-world.ne.jp 1 17 41788 20191121180453
103.224.33.84 1 1 3955 20191115231827
client.acsinter.net 1 1 2346 20191104103429
ec2-34-221-97-131.us-west-2.compute.amazonaws.com 1 1 2346 20191118153929
89.238.154.22 1 1 3955 20191104230628
85.248.227.165 2 2 5652 20191126075714
static-37-232-249-144.netbynet.ru 1 1 3955 20191125212133
133.35.93.117.broad.yc.js.dynamic.163data.com.cn 1 1 1822 20191103211039
ec2-34-216-85-172.us-west-2.compute.amazonaws.com 1 1 2346 20191110171104
crawl.125-209-235-174.web.naver.com 1 7 16802 20191123042551
90.101.211.181.static.anycast.cnt-grms.ec 1 1 3955 20191125012312
178-92-nat-pool.drive.dn.ua 2 2 5588 20191119044508
marri.cs.usyd.edu.au 1 1 0 20191107125129
crawl.125-209-235-181.web.naver.com 1 5 14613 20191109022439
ec2-34-214-112-36.us-west-2.compute.amazonaws.com 1 1 513 20191112153658
95.73.109.6 2 2 7910 20191110201403
exproxy004.pf.news.kks.yahoo-net.jp 0 1 39098 
ec2-54-149-201-69.us-west-2.compute.amazonaws.com 1 1 2346 20191115171616
120.132.52.129 1 1 4630 20191126030942
106.75.140.128 2 2 8585 20191114173338
46-185-116-180.broadband.kyivstar.net 2 2 16362 20191101233243
47.88.168.75 2 2 5544 20191115000749
78.96.20.67 1 1 3955 20191126063743
205-185-223-147.ipvanish.com 1 1 3955 20191106052511
231.net182021018.t-com.ne.jp 5 35 270516 20191111150552
ec2-34-215-119-228.us-west-2.compute.amazonaws.com 1 1 513 20191126173547
p5b243401.dip0.t-ipconnect.de 1 1 3600 20191115232100
dynamicip-46-0-72-128.pppoe.samara.ertelecom.ru 1 1 3955 20191101185924
31.202.255.87.format-tv.net 5 5 19775 20191128231038
vm846121.had.su 1 1 3955 20191110190201
45.82.152.249 4 4 11200 20191120203205
80.249.95.3 1 1 3955 20191108093424
ip-142.pool-230.ms-dpc04.cpx.ru 2 2 5512 20191126014722
36.248.164.216 2 2 3963 20191128104353
195-154-182-89.rev.poneytelecom.eu 2 2 7910 20191116102757
ec2-52-24-10-88.us-west-2.compute.amazonaws.com 1 1 2346 20191120171711
151.253.165.70 2 2 5472 20191128031734
ip59.ip-188-165-60.eu 3 3 17873 20191116161428
120.132.52.212 2 2 103926 20191106094507
dynamicip-46-0-64-180.pppoe.samara.ertelecom.ru 2 2 6424 20191106005807
157.52.144.2 2 2 9260 20191101152814
188x187x190x64.static-customer.yola.ertelecom.ru 2 2 5786 20191124135634
36.56.149.230 1 1 2908 20191106194947
47-244-47-212.rev.cloud.scaleway.com 1 1 2346 20191128062311
ecs-159-138-155-168.compute.hwclouds-dns.com 1 1 1774 20191129233734
softbank126074078138.bbtec.net 1 23 52511 20191128105030
ec2-54-218-53-3.us-west-2.compute.amazonaws.com 1 1 4630 20191111151028
82-177-87-98.r-link.pl 3 3 9357 20191111015148
ec2-54-244-4-84.us-west-2.compute.amazonaws.com 1 1 4630 20191111151324
79.142.197.235 3 3 9359 20191128082113
116.193.218.18 1 1 3955 20191106072911
37-115-218-55.broadband.kyivstar.net 5 5 28837 20191117235652
crawl.125-209-235-169.web.naver.com 0 4 93020 
p4079-unoutm01-int.tokyo.ocn.ne.jp 5 39 442426 20191117192029
ecs-159-138-159-180.compute.hwclouds-dns.com 1 1 1617 20191130013032
ntkngw744147.kngw.nt.ngn.ppp.infoweb.ne.jp 2 37 101267 20191121233559
5.188.210.51 3 3 14151 20191118173809
host-109-234-38-61.hosted-by-vdsina.ru 6 6 22116 20191128050952
37.150.187.48.megaline.telecom.kz 1 1 3955 20191103091610
106.75.140.34 1 1 3955 20191106094501
72.249.235.194 1 1 3955 20191115231824
dedic1215.hidehost.net 6 6 17082 20191124054132
183.111.196.197 1 1 1774 20191128164429
216-151-180-183.ipvanish.com 1 1 3239 20191106052511
api.squired.ro 2 2 5688 20191106005427
109-184-180-242.dynamic.mts-nn.ru 3 3 10610 20191108045028
ecs-159-138-128-217.compute.hwclouds-dns.com 1 1 2346 20191129194652
vm845270.had.su 8 8 67376 20191126155549
195.112.197.210 1 1 1703 20191112050415
13.66.132.138 1 1 2346 20191115145022
softbank126203127138.bbtec.net 7 44 578138 20191121215903
95.72.227.23 2 2 5584 20191111204616
120.132.52.133 2 2 15004 20191115041104
ecs-159-138-152-178.compute.hwclouds-dns.com 0 1 39098 
163-172-37-251.rev.poneytelecom.eu 2 2 5418 20191101195816
vm858886.had.su 2 2 6020 20191123171321
mrkrabs.exit.tor4us.net 2 2 5786 20191116073147
120.132.52.6 1 1 3955 20191116032053
175.172.224.112 1 1 4959 20191122145721
199.168.99.58 1 1 3955 20191122152346
120.132.52.217 3 3 9673 20191126114839
static-162.144.143.114-tataidc.co.in 1 1 2346 20191126175018
crawl.125-209-235-183.web.naver.com 0 1 20790 
ip-45-246.users.unetspb.ru 2 2 5544 20191111053441
ec2-35-160-192-142.us-west-2.compute.amazonaws.com 1 1 513 20191125192308
scanner2.ispsystem.net 1 1 513 20191105111819
178-17-177-20.zgtk.ru 2 2 6054 20191119111007
host192-82.nat-pool1.aviel.ru 1 1 3955 20191124070823
ns3123330.ip-51-68-152.eu 1 1 2346 20191127015651
175.44.32.222 2 2 5254 20191115181615
tor.keff.org 2 2 5716 20191116040048
dynamicip-46-0-153-255.pppoe.samara.ertelecom.ru 7 7 26171 20191105204229
5.188.84.117 5 5 16911 20191114185554
47.74.240.3 2 2 5372 20191129220353
159.89.146.103 1 1 2346 20191125021207
36.69.156.27.broad.fz.fj.dynamic.163data.com.cn 1 1 3955 20191123094701
118.186.227.170 2 2 5438 20191120213916
178.91.106.162.megaline.telecom.kz 1 1 3955 20191104230658
ec2-3-14-246-125.us-east-2.compute.amazonaws.com 4 12 14271 20191128235655
rodimus 1 1 4630 20191116114948
68.183.53.79 2 2 7578 20191107002605
195-154-179-167.rev.poneytelecom.eu 2 2 5312 20191125233504
37.120.153.87 2 2 8320 20191115120533
ip-54-36-205-38.ddhosts.net 4 4 11534 20191114092414
60.168.21.192 1 1 3600 20191104180152
mo146-99-251-185.air.mopera.net 2 19 102554 20191106015053
106.75.140.154 1 1 2299 20191120075747
85-250-52-32.bb.netvision.net.il 1 1 3955 20191124073244
185-126-228-108.cust.moji.fr 1 1 3955 20191110104836
37.78.250.61 1 1 3955 20191116233345
90-188-255-142.pppoe.irtel.ru 2 2 7826 20191103064805
198.199.64.237 1 1 2346 20191125223208
111-182-172-163.rev.cloud.scaleway.com 1 1 2346 20191107183300
static.157.37.46.78.clients.your-server.de 1 1 3955 20191117160631
46-119-163-185.broadband.kyivstar.net 2 2 5622 20191110060415
58.211.188.146 1 1 3955 20191120075738
ec2-34-216-74-208.us-west-2.compute.amazonaws.com 1 1 2346 20191112153640
178-137-17-11.broadband.kyivstar.net 1 1 3955 20191118125752
ecs-159-138-155-15.compute.hwclouds-dns.com 1 1 4959 20191129165003
crawl.125-209-235-168.web.naver.com 0 3 1472 
ip161.ip-66-70-236.net 1 1 2346 20191107033856
39.137.69.7 2 2 5552 20191121080618
91.215.232.33 1 1 3955 20191121095608
ec2-54-196-210-253.compute-1.amazonaws.com 1 1 4630 20191111182700
156.96.117.54 1 1 1774 20191103072902
95-165-74-99.dynamic.spd-mgts.ru 1 1 3955 20191104071732
109-252-108-41.nat.spd-mgts.ru 4 4 11822 20191128161615
softbank060093100036.bbtec.net 6 54 614813 20191120093425
196.196.221.36 2 2 8352 20191122041151
support.mylilliputkids.biz 1 1 4630 20191112033814
5.188.210.18 4 4 11928 20191104213517
176.96.225.73 2 2 6582 20191126023857
host-93-124-126-225.dsl.sura.ru 1 1 4630 20191128155431
109.172.78.66 2 2 5824 20191128142901
120.132.52.132 2 2 6108 20191103085858
unknown-host.yaltanet.ru 1 1 3955 20191125061554
176.96.225.203 4 4 13528 20191104144022
host-41.33.212.68.tedata.net 2 2 5822 20191125124226
106.75.140.222 2 2 6318 20191130072611
45.139.48.29 1 1 2346 20191102082054
60.191.38.77 3 3 9957 20191106105225
crawl.125-209-235-186.web.naver.com 1 3 3439 20191116040515
191.101.90.242 1 1 2346 20191107125905
188-165-232-202.serverhub.ru 8 8 31640 20191130191427
tor9.quintex.com 2 2 5764 20191116222205
7.164.236.35.bc.googleusercontent.com 1 1 3955 20191130023756
5.188.84.158 6 6 21114 20191108142628
212.24.148.234 1 1 3955 20191112050408
181.177.96.186 1 1 2346 20191112005145
softbank060113181146.bbtec.net 0 8 285202 
108.59.0.38 2 2 5512 20191109175804
pool.wintele.com.ua 1 1 3955 20191123224447
ec2-13-231-199-140.ap-northeast-1.compute.amazonaws.com 1 1 2346 20191114021752
161.129.69.8.static.quadranet.com 3 3 10155 20191127185442
ppp91-122-128-90.pppoe.avangarddsl.ru 1 1 3955 20191128032251
static-46-187-12-106.netbynet.ru 1 1 3955 20191108204751
vmi234120.contaboserver.net 2 2 7910 20191111153512
120.132.52.110 1 1 3955 20191119073339
p5057-ipad08matsue.shimane.ocn.ne.jp 2 29 366412 20191114215838
s-79-110-130-103.under.net.ua 1 1 3955 20191105204915
ec2-52-194-235-93.ap-northeast-1.compute.amazonaws.com 1 1 2346 20191109025649
dedic1307.hidehost.net 3 3 12675 20191104165714
178-17-177-48.zgtk.ru 2 2 6760 20191115071354
180.150.191.248 1 1 3955 20191116191549
crawl.125-209-235-178.web.naver.com 1 2 3590 20191123042556
server-185-153-198-245.cloudedic.net 3 3 9737 20191122005209
ec2-54-224-230-57.compute-1.amazonaws.com 1 1 6759 20191113062717
157.245.82.235 2 2 7700 20191107061219
bb406cf5.virtua.com.br 0 1 34027 
103.245.188.86 2 2 5606 20191119183358
19bc7.l.time4vps.cloud 1 1 2346 20191108211754
ec2-100-20-65-151.us-west-2.compute.amazonaws.com 1 1 2346 20191125192316
103.78.72.158 1 1 3955 20191108230905
mm-203-161-127-178.mgts.dynamic.pppoe.byfly.by 2 2 5686 20191101172532
crawl.125-209-235-180.web.naver.com 1 2 5003 20191130022613
106.75.140.126 2 2 7910 20191121043244
host-194-34-133-207.creanova.org 2 2 5676 20191103094414
175.42.86.164 1 1 2346 20191118134135
106.75.140.206 1 1 3955 20191108015716
unn-84-17-52-55.cdn77.com 3 3 13482 20191119164740
106.75.135.235 1 1 4630 20191126030941
176.96.225.131 2 2 6628 20191120224822
120.132.53.34 2 2 27928 20191120150625
178.155.4.173 2 2 10928 20191107132308
END_VISITOR

# Date - Pages - Hits - Bandwidth - Visits
BEGIN_DAY 30
20191101 23 23 85182 14
20191102 23 44 255891 15
20191103 20 20 63028 13
20191104 29 29 91652 19
20191105 19 20 62158 12
20191106 25 90 804773 18
20191107 42 42 139516 24
20191108 21 21 69799 16
20191109 21 21 67267 15
20191110 23 23 79400 14
20191111 39 69 385062 21
20191112 25 25 75477 16
20191113 29 29 125450 15
20191114 27 55 483402 15
20191115 30 30 111461 18
20191116 37 37 150247 26
20191117 38 80 565978 20
20191118 21 22 113406 14
20191119 33 33 104011 16
20191120 25 95 745387 14
20191121 31 97 756428 18
20191122 22 22 64799 14
20191123 25 25 88777 15
20191124 41 63 194260 19
20191125 21 21 63310 14
20191126 29 39 463700 20
20191127 17 17 55715 12
20191128 33 63 160604 19
20191129 11 12 38256 9
20191130 22 61 381678 15
END_DAY

# Session range - Number of visits
BEGIN_SESSION 4
5mn-15mn 1
30s-2mn 5
0s-30s 482
30mn-1h 2
END_SESSION

# URL - Pages - Bandwidth - Entry - Exit
# The 10 first Pages must be first (order not required for others)
BEGIN_SIDER 14
/contact/ 399 1545330 350 163
/contact/contact.cgi 220 772968 3 197
/ 123 336913 110 96
/lesson/ 13 26497 9 8
/profile/ 10 55777 3 4
/discography/ 9 43620 3 4
/message/ 9 25413 4 4
/news/ 9 37725 3 6
/link/ 3 7223 0 3
/cartform/cartform.html 2 4272 2 2
http://chiyuki-murakata.com/contact/contact.cgi 1 3925 0 1
/contact/shinobukai2015/ 2 3644 2 1
/contact/shinobukai2015/contact.cgi 1 941 0 1
http://chiyuki-murakata.com/contact/ 1 3955 1 0
END_SIDER
