AWSTATS DATA FILE 7.6 (build 20161204)
# If you remove this file, all statistics for date 201906 will be lost/reset.
# Last config file used to build this data file was /virtual/chiyuki/public_html/log/awstats/cgi-bin/awstats.chiyuki-murakata.com.conf.

# Position (offset in bytes) in this file for beginning of each section for
# direct I/O access. If you made changes somewhere in this file, you should
# also remove completely the MAP section (AWStats will rewrite it at next
# update).
BEGIN_MAP 30
POS_GENERAL 2109                
POS_TIME 2781                
POS_VISITOR 13629               
POS_DAY 27707               
POS_DOMAIN 3598                
POS_LOGIN 4124                
POS_ROBOT 4279                
POS_WORMS 5835                
POS_EMAILSENDER 5966                
POS_EMAILRECEIVER 6109                
POS_SESSION 28504               
POS_SIDER 28712               
POS_FILETYPES 6244                
POS_DOWNLOADS 6457                
POS_OS 7406                
POS_BROWSER 7675                
POS_SCREENSIZE 9346                
POS_UNKNOWNREFERER 9420                
POS_UNKNOWNREFERERBROWSER 9661                
POS_ORIGIN 9827                
POS_SEREFERRALS 9970                
POS_PAGEREFS 10177               
POS_SEARCHWORDS 11992               
POS_KEYWORDS 12159               
POS_MISC 2445                
POS_ERRORS 12233               
POS_CLUSTER 3980                
POS_SIDER_403 12357               
POS_SIDER_400 12439               
POS_SIDER_404 12521               
END_MAP

# LastLine    = Date of last record processed - Last record line number in last log - Last record offset in last log - Last record signature value
# FirstTime   = Date of first visit for history file
# LastTime    = Date of last visit for history file
# LastUpdate  = Date of last update - Nb of parsed records - Nb of parsed old records - Nb of parsed new records - Nb of parsed corrupted - Nb of parsed dropped
# TotalVisits = Number of visits
# TotalUnique = Number of unique visitors
# MonthHostsKnown   = Number of hosts known
# MonthHostsUnKnown = Number of hosts unknown
BEGIN_GENERAL 8
LastLine 20190701002115 1 0 15947381235358
FirstTime 20190601011537
LastTime 20190630233735
LastUpdate 20190702043437 1 0 0 0 0
TotalVisits 437                 
TotalUnique 250                 
MonthHostsKnown 193                 
MonthHostsUnknown 83                  
END_GENERAL

# Misc ID - Pages - Hits - Bandwidth
BEGIN_MISC 10
QuickTimeSupport 0 0 0
JavaEnabled 0 0 0
JavascriptDisabled 0 0 0
PDFSupport 0 0 0
WindowsMediaPlayerSupport 0 0 0
AddToFavourites 0 0 0
RealPlayerSupport 0 0 0
TotalMisc 0 0 0
DirectorSupport 0 0 0
FlashSupport 0 0 0
END_MISC

# Hour - Pages - Hits - Bandwidth - Not viewed Pages - Not viewed Hits - Not viewed Bandwidth
BEGIN_TIME 24
0 42 43 138419 46 111 234110
1 44 85 733138 51 82 271182
2 29 83 14045404 50 74 108569
3 29 29 98136 40 77 139417
4 38 59 306577 16 45 147863
5 39 42 128975 75 112 81541
6 54 75 381553 48 98 121368
7 44 44 179180 59 91 117105
8 31 31 96372 34 60 106584
9 29 87 775637 58 126 234610
10 35 35 140528 39 71 146665
11 60 120 829483 29 86 150102
12 18 18 54276 32 82 275684
13 46 88 470746 25 84 61572
14 35 69 517094 45 102 96281
15 25 91 713888 55 106 110053
16 30 85 475492 25 69 142009
17 44 44 153420 33 53 164807
18 36 79 343631 32 47 60472
19 81 105 488477 34 60 124806
20 40 127 826901 20 50 217117
21 40 48 144794 28 52 772308
22 46 108 943027 39 73 245430
23 36 57 276002 30 72 336535
END_TIME

# Domain - Pages - Hits - Bandwidth
# The 10 first Pages must be first (order not required for others)
BEGIN_DOMAIN 21
ip 478 502 1615264
net 187 245 1429248
ru 95 95 386750
com 80 167 7657321
jp 41 530 5008781
eu 18 18 56637
su 12 12 41566
de 12 12 32903
org 4 4 10174
cz 4 4 32934
ua 2 2 6820
network 1 22 169971
cn 2 2 11045
cloud 1 1 2346
at 1 23 52511
vn 1 1 1767
info 3 3 9725
it 1 1 2346
br 2 2 7910
edu 4 4 11466
gt 2 2 5896
END_DOMAIN

# Cluster ID - Pages - Hits - Bandwidth
BEGIN_CLUSTER 0
END_CLUSTER

# Login - Pages - Hits - Bandwidth - Last visit
# The 10 first Pages must be first (order not required for others)
BEGIN_LOGIN 0
END_LOGIN

# Robot ID - Hits - Bandwidth - Last visit - Hits on robots.txt
# The 10 first Hits must be first (order not required for others)
BEGIN_ROBOT 38
Apache\-HttpClient/ 212 0 20190629090943 0
bingpreview 158 404550 20190628233037 0
bingbot/ 158 945741 20190630150942 0
BLEXBot/ 115 235359 20190625123408 0
Googlebot/ 90 149323 20190630073816 0
SemrushBot/ 69 139206 20190630225259 0
bot[\s_+:,\.\;\/\\-] 56 268520 20190628223358 0
AhrefsBot/ 40 316459 20190630225703 0
360Spider 39 101111 20190629002042 0
YandexBot/ 32 83350 20190628172245 0
Googlebot\-Image/ 4 0 20190611014706 0
(firefox/)([0-9]\.|[0-1][0]\.) 2 6976 20190630174322 0
no_user_agent 4 12119 20190629081746 0
spider 10 8475 20190614115919 0
DotBot/ 3 18087 20190630055945 0
yeti 1 2346 20190601084405 0
php 2 0 20190611205221 0
CMS[\x20]Crawler 1 4630 20190605093853 0
curl 4 0 20190615070601 0
Mail\.RU_Bot/ 17 260329 20190630105217 0
Baiduspider/ 22 53896 20190622110026 0
twitterbot 2 5650 20190616112138 0
MJ12bot/ 7 32410 20190625145253 0
^Mozilla$ 1 0 20190621150635 0
Applebot/ 23 64724 20190629090030 0
crawl 1 4630 20190605022535 0
CCBot/ 14 35970 20190616075038 0
Python\-urllib/ 1 4630 20190609202220 0
Uptimebot/ 30 11730 20190627102325 0
baidu 22 169971 20190626233134 0
MSIE[\x20]6 4 22309 20190624055759 0
Sogou[\x20]web[\x20]spider/ 16 11730 20190629034235 0
DomainCrawler/ 1 4630 20190617063149 0
python 2 4692 20190619190402 0
archive\.org_bot 19 270368 20190630013857 0
favicon 1 2529 20190615034733 0
internetarchive 1 0 20190622212104 0
facebookexternalhit/ 9 758916 20190627044220 0
END_ROBOT

# Worm ID - Hits - Bandwidth - Last visit
# The 5 first Hits must be first (order not required for others)
BEGIN_WORMS 0
END_WORMS

# EMail - Hits - Bandwidth - Last visit
# The 20 first Hits must be first (order not required for others)
BEGIN_EMAILSENDER 0
END_EMAILSENDER

# EMail - Hits - Bandwidth - Last visit
# The 20 first hits must be first (order not required for others)
BEGIN_EMAILRECEIVER 0
END_EMAILRECEIVER

# Files type - Hits - Bandwidth - Bandwidth without compression - Bandwidth after compression
BEGIN_FILETYPES 8
css 222 170417 0 0
png 17 1543447 0 0
cgi 335 972001 0 0
php 591 2174886 0 0
html 25 47163 0 0
jpg 112 3397536 0 0
js 6 1554 0 0
gif 344 1538608 0 0
END_FILETYPES

# Downloads - Hits - Bandwidth
BEGIN_DOWNLOADS 24
/discography/mp3/works2_1-5.ogg 4 0 0
/discography/mp3/works2_1-1.ogg 4 0 0
/discography/mp3/works2_1-1.mp3 4 0 0
/discography/mp3/villa_12.mp3 4 0 0
/discography/mp3/works2_2-5.mp3 4 0 0
/discography/mp3/villa_08.mp3 4 1 4150462
/discography/mp3/villa_01.ogg 4 0 0
/discography/mp3/villa_01.mp3 4 0 0
/discography/mp3/works2_2-5.ogg 4 0 0
/discography/mp3/villa_09.ogg 4 0 0
/discography/mp3/villa_09.mp3 4 0 0
/discography/mp3/villa_12.ogg 4 0 0
/discography/mp3/villa_02.mp3 4 0 0
/discography/mp3/villa_05.ogg 4 0 0
/discography/mp3/works2_2-1.ogg 4 0 0
/discography/mp3/works2_1-5.mp3 4 0 0
/discography/mp3/villa_02.ogg 4 0 0
/discography/mp3/villa_05.mp3 4 0 0
/discography/mp3/works2_1-4.mp3 4 0 0
/discography/mp3/works2_2-4.mp3 4 0 0
/discography/mp3/works2_1-4.ogg 4 0 0
/discography/mp3/villa_08.ogg 4 1 2557307
/discography/mp3/works2_2-4.ogg 4 0 0
/discography/mp3/works2_2-1.mp3 4 0 0
END_DOWNLOADS

# OS ID - Hits
BEGIN_OS ID - Hits - Pages 15
linuxandroid 107 7
macosx6 42 6
winlong 3 0
winxp 12 12
macosx11 6 6
ios_iphone 193 15
macosx12 5 5
linux 5 5
win7 518 346
macosx 28 7
win8 13 13
macosx10 41 39
Unknown 16 16
win8.1 123 92
win10 542 382
END_OS

# Browser ID - Hits - Pages
BEGIN_BROWSER 77
chrome52.0.2743.116 5 5
edge12 4 4
chrome72.0.3626.121 1 1
chrome74.0.3729.157 18 1
chrome58.0.3029.110 3 3
chrome63.0.3239.84 1 1
chrome42.0.2311.90 40 38
firefox64.0 2 2
msie7.0 4 1
chrome71.0.3578.80 2 2
opera54.0.2952.51 35 35
firefox65.0 4 4
chrome66.0.3359.181 103 103
chrome49.0.2623.112 12 12
chrome65.0.3325.181 17 17
opera54.0.2952.60 2 2
edge17 35 32
firefox42.0 1 1
chrome68.0.3440.106 85 85
chrome63.0.3239.132 8 8
chrome62.0.3202.94 1 1
safari12.1 45 4
chrome46.0.2490.80 2 2
opera43.0.2442.991 2 2
mozilla 1 1
netscape5.0 42 0
safari12.1.1 92 5
chrome57.0.2987.133 1 1
chrome32.0.1700.76 2 2
chrome68.0.3440.84 34 34
chrome64.0.3282.186 2 2
chrome41.0.2228.0 22 1
safari 28 1
chrome67.0.3396.87 58 58
opera42.0.2393.94 1 1
safari10.1 2 2
chrome41.0.2225.0 1 1
chrome75.0.3770.101 23 1
android 65 5
chrome68.0.3440.75 22 22
chrome67.0.3396.79 29 29
opera55.0.2994.44 43 43
chrome71.0.3578.98 4 4
firefox24.0 1 1
iphone 3 1
chrome63.0.3239.0 42 0
chrome61.0.3163.100 1 1
edge16 18 18
chrome32.0.1700.102 2 2
chrome74.0.3729.112 1 0
chrome40.0.2214.85 3 3
chrome74.0.3729.169 86 9
msie9.0 44 2
Unknown 15 15
chrome72.0.3626.109 5 5
safari5.0.5 42 6
opera54.0.2952.71 34 34
chrome53.0.2785.143 1 1
opera53.0.2907.99 54 54
chrome73.0.3683.86 4 1
opera53.0.2907.68 25 25
safari9.1 2 2
firefox67.0 98 9
opera54.0.2952.54 27 27
chrome74.0.3729.131 1 1
msie11.0 64 5
chrome67.0.3396.99 76 76
safari9.0 5 5
opera53.0.2907.106 13 13
chrome51.0.2704.106 2 2
msie10.0 1 1
opera54.0.2952.64 23 23
opera36.0.2130.32 1 1
chrome69.0.3497.100 2 2
chrome65.0.3325.146 11 11
chrome67.0.3396.62 15 15
chrome75.0.3770.100 28 1
END_BROWSER

# Screen size - Hits
BEGIN_SCREENSIZE 0
END_SCREENSIZE

# Unknown referer OS - Last visit date
BEGIN_UNKNOWNREFERER 3
Scrapy/1.6.0_(_https://scrapy.org) 20190611134806
Go-http-client/1.1 20190630233735
Mozilla/5.0_(compatible;_Google-Site-Verification/1.0) 20190624062644
END_UNKNOWNREFERER

# Unknown referer Browser - Last visit date
BEGIN_UNKNOWNREFERERBROWSER 2
Scrapy/1.6.0_(_https://scrapy.org) 20190611134806
Go-http-client/1.1 20190630233735
END_UNKNOWNREFERERBROWSER

# Origin - Pages - Hits 
BEGIN_ORIGIN 6
From0 149 186
From1 1 1
From2 11 12
From3 60 60
From4 730 1395
From5 0 0
END_ORIGIN

# Search engine referers ID - Pages - Hits
BEGIN_SEREFERRALS 3
search_yahoo_co_jp 2 2
www_google_co_jp 4 5
www_google_com 5 5
END_SEREFERRALS

# External page referers - Pages - Hits
# The 10 first Pages must be first (order not required for others)
BEGIN_PAGEREFS 40
https://velpanex.ru/shop/26/desc/lenvaxen10 5 5
https://www.xtandi.ru/index/xtandi_ehnzalutamid_kstandi_enzalutamide_kupit/0-5 5 5
https://velpanex.ru/shop/15/desc/nexataf 5 5
https://www.onko-24.com/shop/114/desc/bdenza 5 5
https://get.cryptobrowser.site/7120488 3 3
https://velpanex.ru/shop/23/desc/ibruxen 2 2
https://ja.m.wikipedia.org 2 2
http://lesbiansinlatex.lesbianpoopporn.fetlifeblog.com 1 1
http://porn.auntie.xblognetwork.com 1 1
http://ryo63.blog40.fc2.com/page-1.html 1 1
http://porn.you.tube.bestsexyblog.com 1 1
http://porn.ation.instakink.com 1 1
http://porno-eblja.com 1 1
http://porn.sharing.fetlifeblog.com 1 1
http://www.regulus.yokohama/linkcoll.html 1 1
http://fulllengthporn.hotblognetwork.com 1 1
https://t.me/seolovin 1 1
http://pornosexrolik.com 1 1
http://curvy.hot.porn.relayblog.com 1 1
http://dating.online.xblognetwork.com 1 1
https://elit-kniga.ru 1 1
http://freepornamteur.datingsitesapp.relayblog.com 1 1
http://luxurydessous.skybluegown.fetlifeblog.com 1 1
http://4xlhelmets.relayblog.com 1 1
http://sexygirlvsboy.eroticnudepix.bestsexyblog.com 1 1
https://anticancer24.ru/shop/439/desc/tafsure 1 1
http://maskfetish.hotblognetwork.com 1 1
http://aksonural.ru 1 1
http://xxxnpic.bestsexyblog.com 1 1
http://pornozhara.com 1 1
http://korean.porn.fetlifeblog.com 1 1
http://pornassistant.relayblog.com 1 1
http://kidlesbianporn.hotblognetwork.com 1 1
http://gayanalpornfree.photogirlbaby.bestsexyblog.com 1 1
http://kartadlyavas.ru 1 1
http://ryo63.blog40.fc2.com 1 1
http://extreme.porn.bloglag.com 1 1
http://freeporntube.allproblog.com 1 1
http://thai.porn.relayblog.com 1 1
http://ryo63.blog40.fc2.com/blog-entry-3967.html 1 1
END_PAGEREFS

# Search keyphrases - Number of search
# The 10 first number of search must be first (order not required for others)
BEGIN_SEARCHWORDS 1
村方千之 1
END_SEARCHWORDS

# Search keywords - Number of search
# The 10 first number of search must be first (order not required for others)
BEGIN_KEYWORDS 1
村方千之 1
END_KEYWORDS

# Errors - Hits - Bandwidth
BEGIN_ERRORS 4
206 6 9384
400 4 904
404 547 22049
301 76 18487
END_ERRORS

# URL with 403 errors - Hits - Last URL referrer
BEGIN_SIDER_403 0
END_SIDER_403

# URL with 400 errors - Hits - Last URL referrer
BEGIN_SIDER_400 0
END_SIDER_400

# URL with 404 errors - Hits - Last URL referrer
BEGIN_SIDER_404 23
/blog/wp-includes/wlwmanifest.xml 1 -
/website/wp-includes/wlwmanifest.xml 1 -
/robots.txt 10 -
/wp/wp-includes/wlwmanifest.xml 1 -
/.well-known/assetlinks.json 1 -
/site/wp-includes/wlwmanifest.xml 1 -
/news/wp-includes/wlwmanifest.xml 1 -
/wordpress/wp-includes/wlwmanifest.xml 1 -
/sito/wp-includes/wlwmanifest.xml 1 -
/shop/wp-includes/wlwmanifest.xml 1 -
/2017/wp-includes/wlwmanifest.xml 1 -
/2015/wp-includes/wlwmanifest.xml 1 -
/media/wp-includes/wlwmanifest.xml 1 -
/wp1/wp-includes/wlwmanifest.xml 1 -
/2016/wp-includes/wlwmanifest.xml 1 -
/wp-includes/wlwmanifest.xml 1 -
/cms/wp-includes/wlwmanifest.xml 1 -
/test/wp-includes/wlwmanifest.xml 1 -
/xmlrpc.php 1 -
/2018/wp-includes/wlwmanifest.xml 1 -
/admin/ 1 -
/wp2/wp-includes/wlwmanifest.xml 1 -
/web/wp-includes/wlwmanifest.xml 1 -
END_SIDER_404

# Host - Pages - Hits - Bandwidth - Last visit date - [Start date of last visit] - [Last page of last visit]
# [Start date of last visit] and [Last page of last visit] are saved only if session is not finished
# The 10 first Hits must be first (order not required for others)
BEGIN_VISITOR 276
185.220.70.148 280 280 810690 20190616153357
v133-18-205-120.vir.kagoya.net 38 40 186668 20190627200004
185.136.166.126 30 30 94108 20190630191937
37-115-153-111.broadband.kyivstar.net 21 21 152155 20190622020454
ppp94-29-72-33.pppoe.spdop.ru 20 20 65030 20190625113435
178-137-16-51.broadband.kyivstar.net 18 18 80676 20190630114751
188-163-109-153.broadband.kyivstar.net 16 16 54114 20190623223524
broadband-46-188-98-10.2com.net 12 12 33818 20190624005241
bobgrudin.example.com 12 12 73380 20190622075320
46-173-55-27.gorcom.ru 12 12 34320 20190620225039
50.97.77.188 1 1 2346 20190604162845
68.183.99.96 1 1 3955 20190615021759
5.188.210.65 6 6 18088 20190615143957
103.15.141.174 2 2 4120 20190615161113
ns3138484.ip-51-77-52.eu 1 1 4630 20190623050740
crawl.125-209-235-184.web.naver.com 0 1 256 
188.166.22.77 2 2 4120 20190620061154
144.112137098.m-net.ne.jp 6 42 285037 20190603204329
vm342489.had.su 1 1 4959 20190604035015
178.46.117.11 1 1 3955 20190608171449
crawl.125-209-235-185.web.naver.com 0 8 29563 
185.17.149.147 2 2 5486 20190616113342
200.154.128.210.bf.2iij.net 7 42 455496 20190602224714
88.212.19.217.sta.idknet.com 1 1 3955 20190616134636
ip34-187-245-43.as131755.net 1 1 3955 20190616163757
ec2-54-188-15-207.us-west-2.compute.amazonaws.com 1 1 2346 20190620215535
tor30.quintex.com 1 1 3955 20190613072327
dynamicip-94-180-216-212.pppoe.kzn.ertelecom.ru 2 2 13344 20190610162820
165.231.161.14 2 2 8182 20190627000157
mail.keyerleber.com 1 1 2346 20190613135426
抦@fンシj 2 2 5498 20190609045949
178.19.253.157 1 1 3955 20190602041032
103.84.141.42 1 1 3955 20190622135917
exproxy009.pf.news.kks.yahoo-net.jp 0 1 5192 
exproxy013.pf.news.kks.yahoo-net.jp 0 1 46098 
212.92.123.85 4 4 12228 20190601131828
82.102.21.117 2 2 5416 20190606214821
crawl.125-209-235-176.web.naver.com 0 4 29974 
5x19x3x65.static-business.iz.ertelecom.ru 2 2 20100 20190609072556
76.5.pppoe.fregat.ua 2 2 6820 20190628175127
46-118-155-222.broadband.kyivstar.net 2 2 9260 20190627060322
crawl.125-209-235-172.web.naver.com 1 8 108474 20190622031432
抦キ 2 2 5418 20190621211749
kronosa.ru 3 3 13890 20190629085320
213.234.233.238 2 2 14382 20190624031045
crawl.125-209-235-177.web.naver.com 0 5 3295 
dyn-73-244.fttbee.kis.ru 2 2 15068 20190625212101
static.vnpt.vn 1 1 1767 20190605133549
5-248-225-86.broadband.kyivstar.net 10 10 39550 20190625102212
ec2-50-112-65-57.us-west-2.compute.amazonaws.com 1 1 2346 20190616201507
ec2-52-221-220-99.ap-southeast-1.compute.amazonaws.com 1 1 2346 20190605062958
ns542132.ip-144-217-255.net 1 22 169971 20190623192231
185.220.101.62 1 1 1843 20190615001051
ec2-35-183-35-255.ca-central-1.compute.amazonaws.com 1 1 4630 20190613031112
ec2-52-39-235-29.us-west-2.compute.amazonaws.com 1 1 2346 20190622230240
46-246-106-20.static.portlane.net 2 2 5800 20190601103858
crawl-66-249-79-125.googlebot.com 0 1 4150462 
host-172-96-95-205.static.sprious.com 2 2 10532 20190625071528
beethoven.shobi-u.ac.jp 7 72 621948 20190628152508
164-132-202-92.serverhub.ru 1 1 2346 20190605064032
exproxy000.pf.news.kks.yahoo-net.jp 0 1 37649 
hosted-by.george-bakalis 2 2 7226 20190623235102
120.14.140.34 2 2 8308 20190608014759
185.234.219.246 5 5 17674 20190618092518
184.174.49.18.rdns.colocationamerica.com 1 1 2346 20190620114814
62.210.111.127 3 3 9549 20190616042151
ur71.uranus.fastwebserver.de 2 2 4120 20190616065419
116-220-123-145.rev.home.ne.jp 3 44 589403 20190616013443
planetlab5.net.in.tum.de 3 3 0 20190627062749
vm622790.had.su 3 3 10163 20190610171359
servicetools.cloud 1 1 2346 20190628054705
109-184-169-69.dynamic.mts-nn.ru 2 2 5650 20190606180058
vmi249939.contaboserver.net 2 2 5386 20190602033603
i114-182-12-201.s41.a001.ap.plala.or.jp 1 23 52511 20190625162904
node-wnl.pool-125-25.dynamic.totinternet.net 1 1 3955 20190629004018
crawl-66-249-79-123.googlebot.com 0 1 2557307 
198.211.100.23 1 1 2346 20190621150635
37-229-197-42.broadband.kyivstar.net 5 5 19775 20190630083219
176.99.226.183.inetcom.ru 2 2 5736 20190629035014
exproxy015.pf.news.kks.yahoo-net.jp 0 1 39098 
ec2-52-32-223-195.us-west-2.compute.amazonaws.com 1 1 4630 20190601112727
crawl.125-209-235-182.web.naver.com 0 2 2488 
90-188-236-43.pppoe.irtel.ru 4 4 25526 20190617212138
exproxy010.pf.news.kks.yahoo-net.jp 0 1 17666 
exit3.tor-network.net 2 2 5714 20190619152556
165.225.35.10 1 4 7847 20190603054001
46.246.65.133 3 3 11919 20190615233805
113.66.10.226 2 2 17024 20190614043919
109-184-181-26.dynamic.mts-nn.ru 2 2 6836 20190628002853
89-28-163-73.nat1.mart.ru 2 2 5662 20190626070527
kd111239172049.au-net.ne.jp 1 22 169971 20190615232402
ec2-54-188-44-96.us-west-2.compute.amazonaws.com 1 1 2346 20190630233735
185.189.115.27 2 2 5468 20190609012306
crawl.125-209-235-171.web.naver.com 0 1 1244 
i60-35-251-113.s42.a006.ap.plala.or.jp 2 32 264779 20190601112626
46.246.65.203 6 6 22224 20190610095925
178.162.210.167 1 1 3955 20190613204515
80-110-123-52.cgn.dynamic.surfer.at 1 23 52511 20190627021142
94.242.206.142 6 6 12609 20190626112126
19.ip-144-217-166.net 2 2 5688 20190604094755
host-185-251-39-217.hosted-by-vdsina.ru 6 6 22068 20190625144900
23.129.64.169 1 1 1771 20190628181716
ec2-54-188-233-253.us-west-2.compute.amazonaws.com 1 1 2346 20190627225727
185.220.70.138 4 4 12336 20190602001322
crawl.125-209-235-170.web.naver.com 0 10 130549 
tor-exit2.nodevar.com 2 2 5738 20190606135437
172.58.11.172 1 1 3955 20190622135919
178-137-93-124.broadband.kyivstar.net 2 2 9260 20190601133736
104.248.0.96 1 1 4630 20190617183625
ec2-34-217-49-54.us-west-2.compute.amazonaws.com 1 1 2346 20190625220509
crawl.125-209-235-173.web.naver.com 1 4 29662 20190608051840
vm658600.had.su 4 4 12776 20190621215947
dedic705.hidehost.net 5 5 26755 20190618235935
104.144.210.229 1 1 4630 20190607071041
185.17.149.173 2 2 5464 20190611052317
191.101.66.47 1 1 4630 20190610112919
185.189.113.39 2 2 5540 20190616173914
tor-exit.eecs.umich.edu 4 4 11466 20190610080723
149.255.18.56 1 1 3955 20190617073019
187-85-152-42.gegnet.com.br 1 1 3955 20190622135916
ip-62-245-71-110.net.upcbroadband.cz 4 4 32934 20190611072244
ns316491.ip-37-187-129.eu 3 3 9703 20190628181714
77.233.21.186 2 2 6600 20190605113828
64.186.84.115.ip4.winknet.ne.jp 2 32 264779 20190602203714
crawl.125-209-235-167.web.naver.com 0 8 54205 
186.ip-51-83-76.eu 2 2 4692 20190615033429
dynamicip-77-147-46-94.pppoe.chelny.ertelecom.ru 2 2 16824 20190625010844
kd182251244019.au-net.ne.jp 3 33 267687 20190602143339
crawl.125-209-235-175.web.naver.com 1 3 3956 20190622031435
no-mans-land.m247.com 10 10 27258 20190628222303
static.23.60.63.178.clients.your-server.de 3 3 13733 20190628200051
31.184.238.102 1 1 4630 20190627062912
ec2-34-222-22-128.us-west-2.compute.amazonaws.com 1 1 11146 20190602143427
94.139.224.135 2 2 6024 20190620063434
tor-exit-anonymizer-09.appliedprivacy.net 2 2 5764 20190611142020
61-26-160-66.rev.home.ne.jp 1 28 364795 20190614224642
ik1-309-14547.vs.sakura.ne.jp 2 2 9260 20190607070440
ec2-34-222-163-129.us-west-2.compute.amazonaws.com 1 1 2346 20190623221252
tor-exit.altsci.com 1 1 0 20190623192228
crawl.125-209-235-179.web.naver.com 2 3 5529 20190615024602
51-15-15-164.rev.poneytelecom.eu 6 6 19192 20190623191243
37-115-206-78.broadband.kyivstar.net 4 4 15820 20190623155818
i121-114-156-26.s41.a013.ap.plala.or.jp 1 18 100937 20190616091725
185.217.0.138 1 1 2346 20190611134806
103.58.16.46 2 2 5482 20190613173035
 2 2 5418 20190620113020
114.100.100.64 2 2 7820 20190610040502
77.51.114.114 1 1 3955 20190622031529
p3585212-ipbf2929hodogaya.kanagawa.ocn.ne.jp 1 22 169971 20190604182405
62.102.148.68 1 1 0 20190610131511
crawl.125-209-235-174.web.naver.com 1 2 93137 20190608051836
103.247.101.138 3 3 10402 20190609221925
crawl.125-209-235-181.web.naver.com 2 4 46449 20190629041826
dynamicip-46-0-119-122.pppoe.samara.ertelecom.ru 1 1 1774 20190610201342
101.91.60.104 1 1 4630 20190620162452
sogouspider-106-120-173-79.crawl.sogou.com 0 3 3099 
mail.ekologi.ru 1 1 3955 20190609083555
14-80-15-51.rev.cloud.scaleway.com 2 2 5692 20190613130448
77.81.110.224 2 2 4203 20190602131623
83.169.216.41 1 1 3955 20190605124218
77.75.129.83 2 2 8740 20190624093150
no-rdns.mykone.info 3 3 9725 20190625081903
5.188.62.5 1 1 2346 20190622001009
109-184-211-231.dynamic.mts-nn.ru 2 2 5586 20190605181926
93-120-128-49.dynamic.mts-nn.ru 2 2 5606 20190601220754
46.175.102.255 2 2 5598 20190602043853
185.255.47.27 1 1 3955 20190601212024
77.233.9.110 1 1 3955 20190628154917
178.62.192.172 1 1 2346 20190608103538
抦抦シ~牋ヲ 2 2 5542 20190616144027
host-95-152-62-137.dsl.sura.ru 1 1 4630 20190630114735
185.220.102.4 2 2 5750 20190630102120
aa2004062000007.userreverse.dion.ne.jp 1 28 364795 20190614022508
109-184-160-213.dynamic.mts-nn.ru 2 2 8202 20190617063209
ip-219.pool-231.ms-dpc04.cpx.ru 1 1 3955 20190607113215
dedic1272.hidehost.net 4 4 11864 20190615145030
ec2-54-186-163-107.us-west-2.compute.amazonaws.com 1 1 2346 20190618220646
accessnow.org 2 2 4692 20190611233217
176-8-244-185.broadband.kyivstar.net 9 9 62439 20190613063922
softbank126014155230.bbtec.net 1 1 3955 20190605133545
77.243.191.18 6 6 17864 20190601131929
185.220.101.70 2 2 5716 20190602172225
dedic1130.hidehost.net 2 2 7910 20190612170252
31.184.238.4 6 6 17714 20190612015528
抦(レ 2 2 5442 20190625075853
sp49-98-163-204.msd.spmode.ne.jp 4 45 593003 20190625093202
151.0.13.17 1 1 3955 20190602103026
vm639013.had.su 1 1 3955 20190606035528
ec2-54-218-187-161.us-west-2.compute.amazonaws.com 1 1 2346 20190626213915
host151-207-177-94.serverdedicati.aruba.it 1 1 2346 20190614130116
69-167-29-191.fwd.paradisenetworks.net 2 2 6462 20190609035129
tor-exit-anonymizer-05.appliedprivacy.net 1 1 1765 20190625081904
197.205.149.190.static.intelnet.net.gt 2 2 5896 20190630094731
crawl.125-209-235-169.web.naver.com 0 6 4908 
ik1-306-13165.vs.sakura.ne.jp 2 2 9260 20190611211607
exproxy002.pf.news.kks.yahoo-net.jp 0 2 56764 
ec2-54-218-149-30.us-west-2.compute.amazonaws.com 1 1 2346 20190628191843
87.120.254.204 2 2 5692 20190605192952
77.232.153.155 4 4 11162 20190629081145
77.233.20.189 2 2 5470 20190609194723
64.188.3.214.static.quadranet.com 1 1 3955 20190612181922
dedic1215.hidehost.net 4 4 11290 20190630204127
hosted-by.leaseweb.com 2 2 7952 20190623163603
89.185.76.27 1 1 2346 20190613133718
199-73-158-51.rev.cloud.scaleway.com 1 1 2346 20190626221232
host-139-180-229-162.static.sprious.com 1 1 2346 20190609074455
94.139.233.93 2 2 5702 20190601062909
tor-exit-node.7by7.de 2 2 5790 20190618123720
ec2-54-187-75-42.us-west-2.compute.amazonaws.com 1 1 2346 20190628225126
p3462084-ipngn825hodogaya.kanagawa.ocn.ne.jp 1 22 169971 20190604132914
218.ip-51-77-193.eu 2 2 4692 20190604014821
27-140-89-177.rev.home.ne.jp 1 23 52511 20190626180835
ec2-34-220-25-137.us-west-2.compute.amazonaws.com 1 1 2346 20190619225940
103.29.142.99 2 2 5534 20190621014944
145.255.21.215.dynamic.o56.ru 2 2 12916 20190607045827
185.234.17.93 1 1 1774 20190602090828
ec2-54-172-118-182.compute-1.amazonaws.com 2 2 11389 20190602143403
tor-exit-anonymizer-08.appliedprivacy.net 1 1 3955 20190606041220
crawl.125-209-235-183.web.naver.com 0 5 18862 
176-99-12-243.cloudvps.regruhosting.ru 1 1 2346 20190609043411
tor-exit-node.scalaire.com 2 2 5776 20190622052006
143-74-15-51.rev.cloud.scaleway.com 1 1 1805 20190606041221
ns3123330.ip-51-68-152.eu 1 1 4630 20190610114416
rate-limited-proxy-72-14-199-26.google.com 1 1 2346 20190624062644
178.17.170.194 1 1 1775 20190613072332
ec2-34-220-149-92.us-west-2.compute.amazonaws.com 1 1 2346 20190621221125
184.174.98.141.rdns.colocationamerica.com 1 1 2346 20190606154134
31.13.127.3 0 8 108152 
kd059129136254.ppp-bb.dion.ne.jp 2 30 365308 20190630131324
sergey.mamonov.example.com 2 2 6038 20190610143346
ec2-54-218-104-175.us-west-2.compute.amazonaws.com 1 1 2346 20190607211038
static.77.40.203.116.clients.your-server.de 2 2 9260 20190609001311
185.130.184.222 4 4 11002 20190628113841
178-175-132-228.static.as43289.net 2 2 5784 20190621052702
46.165.210.26 1 1 4630 20190628223141
199.249.230.123 2 2 5672 20190619134652
net163.144.91-19.yoladom.ru 2 2 5726 20190615010516
crawl.125-209-235-168.web.naver.com 0 5 10977 
host.jwhite.network 1 22 169971 20190610131515
tor-exit-anonymizer-07.appliedprivacy.net 2 2 4692 20190606093550
tor-exit-anonymizer-03.appliedprivacy.net 1 1 3955 20190615001045
tiger.mirohost.net 1 1 3955 20190603202714
62.113.255.88 2 2 3548 20190615174123
ppp94-29-73-233.pppoe.spdop.ru 9 9 26409 20190628173341
ns382452.ip-46-105-99.eu 1 1 513 20190620230817
85.254.72.25 2 2 5406 20190629031304
server-185-103-110-208.creanova.org 2 2 5482 20190606213324
120.132.53.31 1 1 3955 20190622193427
120.132.52.103 2 2 5866 20190622210833
109-184-137-11.dynamic.mts-nn.ru 2 2 6694 20190621233759
ip25.ip-54-36-91.eu 2 2 8585 20190618100039
dynamic-138-122-51-68.eclipsetelecom.net.br 1 1 3955 20190609221800
crawl.125-209-235-186.web.naver.com 0 2 457 
82-208-100-139.pg-nat-pool.mts-nn.ru 2 2 8212 20190605201156
exproxy012.pf.news.kks.yahoo-net.jp 0 1 5192 
77.34.17.238 2 2 5486 20190626101843
94.141.151.27.broad.qz.fj.dynamic.163data.com.cn 2 2 11045 20190616174439
95.105.117.239.dynamic.o56.ru 2 2 28524 20190616062650
exproxy005.pf.news.kks.yahoo-net.jp 0 2 85196 
109.111.76.12 1 1 3955 20190618020406
tor12.quintex.com 2 2 4692 20190622135032
31.13.127.26 1 13 58665 20190615162032
ec2-34-208-58-132.us-west-2.compute.amazonaws.com 1 1 2346 20190624195959
206-192-226-90.lsnetworks.net 2 2 6100 20190608055132
31.13.127.43 0 1 3154 
ec2-3-112-189-121.ap-northeast-1.compute.amazonaws.com 2 2 8358 20190623133515
52.ip-192-99-70.net 2 2 5542 20190606100442
116.108.125.110 1 1 3955 20190603123837
crawl.125-209-235-178.web.naver.com 2 8 111737 20190629041833
host-79-164-122-148.qwerty.ru 2 2 5860 20190617182757
vm644689.had.su 3 3 9713 20190616213717
194.61.24.29 2 2 9260 20190615161050
crawl.125-209-235-180.web.naver.com 0 5 8238 
106.75.140.45 1 1 3955 20190614115824
ssca2.s-c-a.ru 1 1 3955 20190620162444
78.84.168.26 1 1 3955 20190614224945
END_VISITOR

# Date - Pages - Hits - Bandwidth - Visits
BEGIN_DAY 30
20190601 46 98 584343 23
20190602 43 138 1096247 20
20190603 21 60 340254 10
20190604 25 67 412130 15
20190605 34 34 122473 20
20190606 31 31 88240 17
20190607 10 10 43220 7
20190608 26 26 86603 14
20190609 62 62 211465 26
20190610 53 74 339157 22
20190611 49 58 180817 17
20190612 39 54 403605 13
20190613 55 57 186281 24
20190614 44 100 972385 18
20190615 60 102 527783 26
20190616 55 113 14288109 22
20190617 22 23 91018 11
20190618 18 18 60426 9
20190619 7 30 210011 4
20190620 29 29 84777 16
20190621 18 18 49819 9
20190622 25 25 125413 16
20190623 17 38 225615 11
20190624 12 12 45290 7
20190625 36 100 791139 14
20190626 13 35 83141 8
20190627 46 70 263597 7
20190628 25 91 720700 14
20190629 10 31 197606 7
20190630 20 48 429486 10
END_DAY

# Session range - Number of visits
BEGIN_SESSION 7
1h+ 1
5mn-15mn 1
0s-30s 373
30s-2mn 7
2mn-5mn 1
15mn-30mn 6
30mn-1h 48
END_SESSION

# URL - Pages - Bandwidth - Entry - Exit
# The 10 first Pages must be first (order not required for others)
BEGIN_SIDER 30
/contact/ 437 1702163 323 77
/contact/contact.cgi 334 967598 6 256
/ 108 304208 95 84
/profile/ 13 70654 4 6
/discography/ 11 39600 3 4
/message/ 10 27942 4 4
/news/ 7 24207 0 2
/lesson/ 5 8085 1 0
/link/ 3 5028 0 1
/news/concert.html 2 6786 0 0
/discography/cd_works2.html 1 2825 0 0
/cartform/cartform.html 1 2136 0 0
/discography/audio/villa_02.html 1 795 0 0
/contact/shinobukai2015/ 1 1822 0 0
/discography/audio/works2_2-1.html 1 811 0 0
/discography/audio/works2_2-5.html 1 813 0 0
/discography/audio/villa_09.html 1 781 0 0
/discography/audio/works2_2-4.html 1 812 0 0
http://chiyuki-murakata.com/contact/ 1 3955 1 0
/discography/audio/villa_12.html 1 762 0 0
/discography/audio/villa_08.html 1 787 0 0
/discography/audio/villa_05.html 1 769 0 0
http://chiyuki-murakata.com/contact/contact.cgi 1 4403 0 1
/discography/audio/help.html 1 1614 0 0
/discography/cd_villa.html 1 2905 0 0
/message/message01.html 2 8645 0 1
/discography/audio/villa_01.html 1 775 0 0
/discography/audio/works2_1-4.html 1 796 0 0
/discography/audio/works2_1-1.html 1 781 0 0
/discography/audio/works2_1-5.html 1 792 0 1
END_SIDER
